<?xml version="1.0" encoding="UTF-8" standalone="no"?>
<svg
   xmlns:dc="http://purl.org/dc/elements/1.1/"
   xmlns:cc="http://creativecommons.org/ns#"
   xmlns:rdf="http://www.w3.org/1999/02/22-rdf-syntax-ns#"
   xmlns:svg="http://www.w3.org/2000/svg"
   xmlns="http://www.w3.org/2000/svg"
   xmlns:sodipodi="http://sodipodi.sourceforge.net/DTD/sodipodi-0.dtd"
   xmlns:inkscape="http://www.inkscape.org/namespaces/inkscape"
   width="52.012123mm"
   height="41.92004mm"
   viewBox="0 0 52.012123 41.92004"
   version="1.1"
   id="svg33513"
   inkscape:version="1.0 (4035a4fb49, 2020-05-01)"
   sodipodi:docname="ycr-icon--self-isolating.svg">
  <defs
     id="defs33507">
    <clipPath
       id="clipPath32739"
       clipPathUnits="userSpaceOnUse">
      <path
         id="path32737"
         d="M 144.043,374.156 H 282.708 V 242.773 H 144.043 Z" />
    </clipPath>
    <clipPath
       id="clipPath32707"
       clipPathUnits="userSpaceOnUse">
      <path
         id="path32705"
         d="M 346.916,377.527 H 484.421 V 243.274 H 346.916 Z" />
    </clipPath>
    <clipPath
       id="clipPath32803"
       clipPathUnits="userSpaceOnUse">
      <path
         id="path32801"
         d="M 561.547,352.328 H 708.983 V 248.898 H 561.547 Z" />
    </clipPath>
  </defs>
  <sodipodi:namedview
     id="base"
     pagecolor="#ffffff"
     bordercolor="#666666"
     borderopacity="1.0"
     inkscape:pageopacity="0.0"
     inkscape:pageshadow="2"
     inkscape:zoom="2.8"
     inkscape:cx="57.264082"
     inkscape:cy="58.428099"
     inkscape:document-units="mm"
     inkscape:current-layer="layer1"
     inkscape:document-rotation="0"
     showgrid="false"
     fit-margin-top="0"
     fit-margin-left="0"
     fit-margin-right="0"
     fit-margin-bottom="0"
     inkscape:window-width="1920"
     inkscape:window-height="975"
     inkscape:window-x="-8"
     inkscape:window-y="-8"
     inkscape:window-maximized="1" />
  <metadata
     id="metadata33510">
    <rdf:RDF>
      <cc:Work
         rdf:about="">
        <dc:format>image/svg+xml</dc:format>
        <dc:type
           rdf:resource="http://purl.org/dc/dcmitype/StillImage" />
        <dc:title />
      </cc:Work>
    </rdf:RDF>
  </metadata>
  <g
     inkscape:label="Layer 1"
     inkscape:groupmode="layer"
     id="layer1"
     transform="translate(69.711192,-3.8112724)">
    <g
       id="g7942">
      <g
         transform="matrix(0.35277777,0,0,-0.35277777,-267.81251,133.53719)"
         id="g32797">
        <g
           id="g32799" />
        <g
           id="g32811">
          <g
             clip-path="url(#clipPath32803)"
             opacity="0.100006"
             id="g32809">
            <g
               transform="translate(577.7416,345.5324)"
               id="g32807">
              <path
                 d="m 0,0 c 3.81,-1.47 7.992,-4.378 12.74,-3.415 20.072,6.76 40.143,13.519 61.202,8.428 3.821,-0.54 7.568,-1.337 11.194,-2.396 14.504,-4.237 27.068,-12.681 34.686,-25.452 2.286,-2.427 4.396,-4.979 6.298,-7.631 1.903,-2.652 3.6,-5.404 5.063,-8.228 0.21,-4.281 -0.15,-8.036 -0.996,-11.333 -0.846,-3.297 -2.179,-6.135 -3.917,-8.576 -5.18,-7.361 -12.583,-10.743 -20.503,-13.157 -22.163,-5.305 -43.269,-10.127 -64.422,-19.79 -10.06,-5.801 -24.819,-7.724 -35.504,0.088 -1.916,1.455 -3.596,3.179 -5.047,5.1 -2.177,2.881 -3.84,6.201 -5.016,9.714 -1.176,3.513 -1.866,7.218 -2.096,10.865 0.224,21.235 -21.625,47.397 -1.03,64.654 C -4.867,-0.246 -2.39,0.048 0,0"
                 style="fill:#394e71;fill-opacity:1;fill-rule:nonzero;stroke:none"
                 id="path32805" />
            </g>
          </g>
        </g>
      </g>
      <g
         id="g32813"
         transform="matrix(0.35277777,0,0,-0.35277777,-32.204022,34.81294)">
        <path
           d="m 0,0 h -69.446 c -5.284,0 -9.582,4.299 -9.582,9.582 V 45.99 h 3.003 V 9.582 c 0,-3.628 2.951,-6.579 6.579,-6.579 H -3.003 V 45.558 H 0 Z"
           style="fill:#394e71;fill-opacity:1;fill-rule:nonzero;stroke:none"
           id="path32815" />
      </g>
      <g
         id="g32817"
         transform="matrix(0.35277777,0,0,-0.35277777,-39.289175,37.751614)">
        <path
           d="m 0,0 h -50.724 c -9.253,0 -16.781,7.528 -16.781,16.781 v 42.812 c 0,0.471 0.222,0.916 0.6,1.199 l 46.67,35.115 c 0.525,0.395 1.246,0.403 1.778,0.02 L 28.551,62.146 26.798,59.707 -19.312,92.844 -64.502,58.843 V 16.781 c 0,-7.597 6.181,-13.778 13.778,-13.778 L 0,3.003 Z"
           style="fill:#e94a50;fill-opacity:1;fill-rule:nonzero;stroke:none"
           id="path32819" />
      </g>
      <g
         id="g32821"
         transform="matrix(0.35277777,0,0,-0.35277777,-40.137043,13.651775)">
        <path
           d="M 0,0 -16.93,12.737 -33.858,0 -35.663,2.4 -16.93,16.495 1.805,2.4 Z"
           style="fill:#e94a50;fill-opacity:1;fill-rule:nonzero;stroke:none"
           id="path32823" />
      </g>
      <g
         id="g32825"
         transform="matrix(0.35277777,0,0,-0.35277777,-48.875875,22.559098)">
        <path
           d="m 0,0 c 0,5.378 3.562,9.753 7.938,9.753 4.376,0 7.938,-4.375 7.938,-9.753 0,-5.378 -3.562,-9.753 -7.938,-9.753 C 3.562,-9.753 0,-5.378 0,0 m 21.671,-13.615 -5.75,4.92 c 1.828,2.281 2.958,5.334 2.958,8.695 0,7.033 -4.908,12.756 -10.941,12.756 C 1.905,12.756 -3.003,7.033 -3.003,0 c 0,-3.355 1.126,-6.403 2.949,-8.683 l -5.859,-4.921 c -2.37,-1.991 -3.731,-4.908 -3.731,-8.003 v -3.951 h 3.004 v 3.951 c 0,2.206 0.969,4.285 2.659,5.704 l 6.097,5.121 c 1.689,-1.243 3.682,-1.975 5.822,-1.975 2.136,0 4.125,0.729 5.81,1.968 l 5.97,-5.108 c 1.655,-1.417 2.605,-3.48 2.605,-5.66 v -4.001 h 3.003 v 4.001 c 0,3.059 -1.332,5.953 -3.655,7.942"
           style="fill:#394e71;fill-opacity:1;fill-rule:nonzero;stroke:none"
           id="path32827" />
      </g>
    </g>
  </g>
</svg>
