id	related_id	class	type/scale	name	relevance	text	help	language	validation	mandatory	other	default	same_default	allowed_filetypes	alphasort	answer_width	answer_width_bycolumn	array_filter	array_filter_exclude	array_filter_style	assessment_value	category_separator	choice_input_columns	choice_title	code_filter	commented_checkbox	commented_checkbox_auto	cssclass	date_format	date_max	date_min	display_columns	display_rows	display_type	dropdown_dates	dropdown_dates_minute_step	dropdown_dates_month_style	dropdown_prefix	dropdown_prepostfix	dropdown_separators	dropdown_size	dualscale_headerA	dualscale_headerB	em_validation_q	em_validation_q_tip	em_validation_sq	em_validation_sq_tip	equals_num_value	equation	exclude_all_others	exclude_all_others_auto	hidden	hide_tip	input_boxes	input_size	label_input_columns	location_city	location_country	location_defaultcoordinates	location_mapheight	location_mapservice	location_mapwidth	location_mapzoom	location_nodefaultfromip	location_postal	location_state	max_answers	max_filesize	max_num_of_files	max_num_value	max_num_value_n	max_subquestions	maximum_chars	min_answers	min_num_of_files	min_num_value	min_num_value_n	multiflexible_checkbox	multiflexible_max	multiflexible_min	multiflexible_step	num_value_int_only	numbers_only	other_comment_mandatory	other_numbers_only	other_replace_text	page_break	parent_order	prefix	printable_help	public_statistics	question_template	random_group	random_order	rank_title	repeat_headings	reverse	samechoiceheight	samelistheight	scale_export	show_comment	show_grand_total	show_title	show_totals	showpopups	slider_accuracy	slider_custom_handle	slider_default	slider_default_set	slider_handle	slider_layout	slider_max	slider_middlestart	slider_min	slider_orientation	slider_rating	slider_reset	slider_reversed	slider_separator	slider_showminmax	statistics_graphtype	statistics_showgraph	statistics_showmap	suffix	text_input_columns	text_input_width	time_limit	time_limit_action	time_limit_countdown_message	time_limit_disable_next	time_limit_disable_prev	time_limit_message	time_limit_message_delay	time_limit_message_style	time_limit_timer_style	time_limit_warning	time_limit_warning_2	time_limit_warning_2_display_time	time_limit_warning_2_message	time_limit_warning_2_style	time_limit_warning_display_time	time_limit_warning_message	time_limit_warning_style	use_dropdown	value_range_allows_missing
		S		sid		981956																																																																																																																																											
		S		gsid		1																																																																																																																																											
		S		admin		"Sander Hermsen"																																																																																																																																											
		S		expires		"2020-03-30 20:12:56"																																																																																																																																											
		S		adminemail		sander@sander-hermsen.nl																																																																																																																																											
		S		anonymized		N																																																																																																																																											
		S		faxto																																																																																																																																													
		S		format		G																																																																																																																																											
		S		savetimings		N																																																																																																																																											
		S		template		fruity																																																																																																																																											
		S		language		en																																																																																																																																											
		S		additional_languages																																																																																																																																													
		S		datestamp		N																																																																																																																																											
		S		usecookie		N																																																																																																																																											
		S		allowregister		N																																																																																																																																											
		S		allowsave		Y																																																																																																																																											
		S		autonumber_start		0																																																																																																																																											
		S		autoredirect		N																																																																																																																																											
		S		allowprev		Y																																																																																																																																											
		S		printanswers		N																																																																																																																																											
		S		ipaddr		N																																																																																																																																											
		S		refurl		N																																																																																																																																											
		S		showsurveypolicynotice		0																																																																																																																																											
		S		publicstatistics		N																																																																																																																																											
		S		publicgraphs		N																																																																																																																																											
		S		listpublic		N																																																																																																																																											
		S		htmlemail		Y																																																																																																																																											
		S		sendconfirmation		Y																																																																																																																																											
		S		tokenanswerspersistence		N																																																																																																																																											
		S		assessments		N																																																																																																																																											
		S		usecaptcha		N																																																																																																																																											
		S		usetokens		N																																																																																																																																											
		S		bounce_email		sander@sander-hermsen.nl																																																																																																																																											
		S		emailresponseto																																																																																																																																													
		S		emailnotificationto																																																																																																																																													
		S		tokenlength		15																																																																																																																																											
		S		showxquestions		N																																																																																																																																											
		S		showgroupinfo		B																																																																																																																																											
		S		shownoanswer		N																																																																																																																																											
		S		showqnumcode		X																																																																																																																																											
		S		bounceprocessing		N																																																																																																																																											
		S		showwelcome		Y																																																																																																																																											
		S		showprogress		Y																																																																																																																																											
		S		questionindex		0																																																																																																																																											
		S		navigationdelay		0																																																																																																																																											
		S		nokeyboard		N																																																																																																																																											
		S		alloweditaftercompletion		N																																																																																																																																											
		S		googleanalyticsstyle																																																																																																																																													
		S		googleanalyticsapikey																																																																																																																																													
		SL		surveyls_survey_id		981956		en																																																																																																																																									
		SL		surveyls_language		en		en																																																																																																																																									
		SL		surveyls_title		"COVID-19-RAA Vignette study"		en																																																																																																																																									
		SL		surveyls_description		"Vignette study for your-risk.com"		en																																																																																																																																									
		SL		surveyls_welcometext		"<p>Welcome to the COVID-19-RAA risk estimate vignette study. In this study, we would like to validate the risk categories we determined, as well as the questions that we will use to determine the participant's risk.<br /><br /><strong>Instruction</strong><br />You will be presented with 12 vignettes, short stories about a particular person and their situation.<br />For each vignette, you can rate:<br />1) Whether you think the risk categories adequately cover this person's risks, on a scale from 1–10 and with ample room for comments<br />2) Whether you think the risk estimate questions adequately capture this person's risk, on a scale from 1–10 and with ample room for comments<br />As a reminder, the risks and questions will be visible underneath the questions, so you do not need to look them up elsewhere.</p><p>Please take into account that we do not need 'scientific' levels of accuracy here. The questions are meant to 'lure people in', give them something attractive and informative to get them to enter the intervention proper. However, people do need to get a realistic idea of their risks and we don't want to push people away by not adequately tailoring to their situation. Let's keep that balance in mind!</p><p> </p>"		en																																																																																																																																									
		SL		surveyls_endtext		"Thank you for participating in this study!"		en																																																																																																																																									
		SL		surveyls_policy_notice				en																																																																																																																																									
		SL		surveyls_policy_error				en																																																																																																																																									
		SL		surveyls_policy_notice_label				en																																																																																																																																									
		SL		surveyls_url				en																																																																																																																																									
		SL		surveyls_urldescription				en																																																																																																																																									
		SL		surveyls_email_invite_subj		"Invitation to participate in a survey"		en																																																																																																																																									
		SL		surveyls_email_invite		"Dear {FIRSTNAME},<br /><br />you have been invited to participate in a survey.<br /><br />The survey is titled:<br />""{SURVEYNAME}""<br /><br />""{SURVEYDESCRIPTION}""<br /><br />To participate, please click on the link below.<br /><br />Sincerely,<br /><br />{ADMINNAME} ({ADMINEMAIL})<br /><br />----------------------------------------------<br />Click here to do the survey:<br />{SURVEYURL}<br /><br />If you do not want to participate in this survey and don't want to receive any more invitations please click the following link:<br />{OPTOUTURL}<br /><br />If you are blacklisted but want to participate in this survey and want to receive invitations please click the following link:<br />{OPTINURL}"		en																																																																																																																																									
		SL		surveyls_email_remind_subj		"Reminder to participate in a survey"		en																																																																																																																																									
		SL		surveyls_email_remind		"Dear {FIRSTNAME},<br /><br />Recently we invited you to participate in a survey.<br /><br />We note that you have not yet completed the survey, and wish to remind you that the survey is still available should you wish to take part.<br /><br />The survey is titled:<br />""{SURVEYNAME}""<br /><br />""{SURVEYDESCRIPTION}""<br /><br />To participate, please click on the link below.<br /><br />Sincerely,<br /><br />{ADMINNAME} ({ADMINEMAIL})<br /><br />----------------------------------------------<br />Click here to do the survey:<br />{SURVEYURL}<br /><br />If you do not want to participate in this survey and don't want to receive any more invitations please click the following link:<br />{OPTOUTURL}"		en																																																																																																																																									
		SL		surveyls_email_register_subj		"Survey registration confirmation"		en																																																																																																																																									
		SL		surveyls_email_register		"Dear {FIRSTNAME},<br /><br />You, or someone using your email address, have registered to participate in an online survey titled {SURVEYNAME}.<br /><br />To complete this survey, click on the following URL:<br /><br />{SURVEYURL}<br /><br />If you have any questions about this survey, or if you did not register to participate and believe this email is in error, please contact {ADMINNAME} at {ADMINEMAIL}."		en																																																																																																																																									
		SL		surveyls_email_confirm_subj		"Confirmation of your participation in our survey"		en																																																																																																																																									
		SL		surveyls_email_confirm		"Dear {FIRSTNAME},<br /><br />this email is to confirm that you have completed the survey titled {SURVEYNAME} and your response has been saved. Thank you for participating.<br /><br />If you have any further questions about this email, please contact {ADMINNAME} on {ADMINEMAIL}.<br /><br />Sincerely,<br /><br />{ADMINNAME}"		en																																																																																																																																									
		SL		surveyls_dateformat		1		en																																																																																																																																									
		SL		email_admin_notification_subj		"Response submission for survey {SURVEYNAME}"		en																																																																																																																																									
		SL		email_admin_notification		"Hello,<br /><br />A new response was submitted for your survey '{SURVEYNAME}'.<br /><br />Click the following link to see the individual response:<br />{VIEWRESPONSEURL}<br /><br />Click the following link to edit the individual response:<br />{EDITRESPONSEURL}<br /><br />View statistics by clicking here:<br />{STATISTICSURL}"		en																																																																																																																																									
		SL		email_admin_responses_subj		"Response submission for survey {SURVEYNAME} with results"		en																																																																																																																																									
		SL		email_admin_responses		"Hello,<br /><br />A new response was submitted for your survey '{SURVEYNAME}'.<br /><br />Click the following link to see the individual response:<br />{VIEWRESPONSEURL}<br /><br />Click the following link to edit the individual response:<br />{EDITRESPONSEURL}<br /><br />View statistics by clicking here:<br />{STATISTICSURL}<br /><br /><br />The following answers were given by the participant:<br />{ANSWERTABLE}"		en																																																																																																																																									
		SL		surveyls_numberformat		0		en																																																																																																																																									
27		G	1	"Vignette 1"		"<div class=""group-description row well space-col""><p><span style=""font-size:15px;color:#1d1c1d;font-weight:normal;text-decoration:none;font-family:Arial;font-style:normal;"">Family of four, Netherlands, urban area. One parent (f, 45, the person using the intervention) has a 'vital' profession and needs to travel by own car to work, where she may or may not be in contact with infected patients – clinic guidelines are lax. She does most of the shopping. The other parent (m, 47) works from home. He does some of the shopping. Children (12 and 8yo) are at home but do see some friends every now and then. Many kids play on the square in front of the house and the kids sometimes join them. Everybody in the family regularly goes out into a nearby forest. It is not 100% possible to keep a proper distance to everybody they see there, especially with older people who do not follow guidelines as stringently.</span></p><p> </p></div>"		en																																																																																																																																									
128		Q	B	risksv1	1	"<p>In the project, we defined five main ares of risk (behaviours):</p><p>Demographics (country, age, gender, profession)<br />Self-isolation (self isolation status/degree, self-isolation intentions)<br />Proximity Hand washing (frequency, procedure)<br />Health status (chronic health conditions, pregnanc, smoking, medication/treatment)</p><p>On a scale from 1–10, do you think the risks run by this person are adequately captured by these five areas?</p>"		en		N	N		0																																																						1							1																																																																							
130		SQ		SQ001	1	"Do the risk categories capture the risks run by this person?"		en			N		0																																																																																																																																				
129		Q	T	commentsrisksv1	1	"Comments, questions, additions?"		en		N	N		0																																																																																																																																				
131		Q	B	questionsv1	1	"<p>These are the risk estimation questions. Do you think answering these questions will adequately capture the risks run by the participant?<br /><br /><strong>Demographics</strong></p><p><em><strong>Age </strong>How old are you?</em><br />Younger than 20; 20-29; 30-39; 40-49; 50-59; 60-69; 70-79; 80 or older; I prefer not to say</p><p><em><strong>Sex</strong></em>    <br />I am a woman; I am a man; I identify as non-binary; I prefer not to say; I am ...</p><p><em><strong>Profession</strong> At this point in time, do you work within a short distance from others? (With a ""short distance"", we mean within arms' length). Please tick all that apply  </em> <br />Yes, I work closely with patients or other vulnerable people; Yes, I work closely with children; Yes, I work closely with the general public or coworkers; No, I am working from home or not working currently.</p><p><strong>Self-isolation</strong></p><p><em><strong>Self-isolation status</strong> Are you yourself doing any of the following?</em><br />Going out for food, medicine, or healthcare; Going to other shops; Going out to see family; Going out to see friends; Going out for walks or exercise; Mostly staying at home.</p><p><em>Do you intend to go out less in the following situations?</em><br />No; Yes, when I show symptoms; Yes, if I have been in contact with somebody who shows symptoms; Yes, when the government restricts more; Yes, for another reason: ...</p><p><em>What will change?</em><br />I will stop going out for food, medicine, or healthcare; I will stop going to other shops; I will stop going out to see family; I will stop going out to see friends; I will stop going out for walks or exercise; I will do something else: ...</p><p><br /><em><strong>Self-isolation intentions</strong></em><br /><em>Which of the following statements are true for you in terms of staying at home and reducing the number of people you see. I will do this if:</em><br />I show symptoms; I have been to a highly affected area; I have been in contact with someone who shows symptoms or has tested positive; Someone in my household returns from a highly affected area; Something else happens, like: ... ; I will not do this in any case.</p><p><strong>Proximity</strong></p><p><em>When you are in public spaces, do you keep at least [1.5 meters] distance from others?</em><br />(Almost) never, Rarely, Sometimes, Often, (Almost) always</p><p><strong>Handwashing</strong></p><p><em><strong>Handwashing frequency </strong>Do you regularly wash or clean your hands in the following situations?</em><br />After I have been in direct contact with somone else; After I have been in direct contact with someone who is sick or has shown symptoms; After I have touched public or frequently touched surfaces (eg., doorknobs, railings, tables, buttons/switches); Before/After I have touched my face, nose, mouth; After I sneeze or cough; On entering my home, place of work, or other building I will be spending some time in; Before I handle or eat food; I never wash/cleanse my hands.</p><p><em><strong>Hand washing procedure </strong>If you wash/cleanse your hands, how do you tend to do this?</em><br />I wash for at least 20 seconds; I normally use soap or handsanitiser; I clean under my nails and between my fingers; None of the above</p><p><strong>Health status</strong></p><p><em>Is one or more of the following true for you</em><br />I prefer not to answer this question; I have cancer and am currently undergoing treatment; I have longterm kidney disease; I am pregnant; I am a smoker; I take anti-inflammatory or immunosuppressant drugs; I have a chronic respiratory disease; I have heart disease; I have diabetes</p>"		en		N	N		0																																																																																																																																				
133		SQ		SQ001	1	"Do the questions capture the risks run by this person? "		en			N		0																																																																																																																																				
132		Q	T	commentsquestionsv1	1	"Any comments?"		en		N	N		0																																																																																																																																				
28		G	2	"Vignette 2"		"<span style=""font-size:15px;color:#1d1c1d;font-weight:normal;text-decoration:none;font-family:Arial;font-style:normal;"">Young male is the one filling using the tool. He's living with parents (both &gt;65), has a keyworker profession (works in supermarket) and catches public transport to work. He uses hand santiser, washes his hands regularly and thoroughly and tries not to touch his face. He may or may not be in contact with infected people - some customers do not observe the distance although he does try to enforce this. He brings shopping home to parents. He exercises once per day in the late evening and does not venture more than 2km from home and finds it easy to keep a 2m distance.</span>"		en																																																																																																																																									
134		Q	B	risksv2	1	"<p>In the project, we defined five main ares of risk (behaviours):</p><p>Demographics (country, age, gender, profession)<br />Self-isolation (self isolation status/degree, self-isolation intentions)<br />Proximity Hand washing (frequency, procedure)<br />Health status (chronic health conditions, pregnanc, smoking, medication/treatment)</p><p>On a scale from 1–10, do you think the risks run by this person are adequately captured by these five areas?</p>"		en		N	N		0																																																																																																																																				
177		SQ		SQ001	1	"Do the risk categories capture the risks run by this person? 	"		en			N		0																																																																																																																																				
145		Q	T	commentsrisksv2	1	"Comments, questions, additions?"		en		N	N		0																																																																																																																																				
167		Q	B	questionsv2	1	"<p>These are the risk estimation questions. Do you think answering these questions will adequately capture the risks run by the participant?<br /><br /><strong>Demographics</strong></p><p><em><strong>Age </strong>How old are you?</em><br />Younger than 20; 20-29; 30-39; 40-49; 50-59; 60-69; 70-79; 80 or older; I prefer not to say</p><p><em><strong>Sex</strong></em>    <br />I am a woman; I am a man; I identify as non-binary; I prefer not to say; I am ...</p><p><em><strong>Profession</strong> At this point in time, do you work within a short distance from others? (With a ""short distance"", we mean within arms' length). Please tick all that apply  </em> <br />Yes, I work closely with patients or other vulnerable people; Yes, I work closely with children; Yes, I work closely with the general public or coworkers; No, I am working from home or not working currently.</p><p><strong>Self-isolation</strong></p><p><em><strong>Self-isolation status</strong> Are you yourself doing any of the following?</em><br />Going out for food, medicine, or healthcare; Going to other shops; Going out to see family; Going out to see friends; Going out for walks or exercise; Mostly staying at home.</p><p><em>Do you intend to go out less in the following situations?</em><br />No; Yes, when I show symptoms; Yes, if I have been in contact with somebody who shows symptoms; Yes, when the government restricts more; Yes, for another reason: ...</p><p><em>What will change?</em><br />I will stop going out for food, medicine, or healthcare; I will stop going to other shops; I will stop going out to see family; I will stop going out to see friends; I will stop going out for walks or exercise; I will do something else: ...</p><p><br /><em><strong>Self-isolation intentions</strong></em><br /><em>Which of the following statements are true for you in terms of staying at home and reducing the number of people you see. I will do this if:</em><br />I show symptoms; I have been to a highly affected area; I have been in contact with someone who shows symptoms or has tested positive; Someone in my household returns from a highly affected area; Something else happens, like: ... ; I will not do this in any case.</p><p><strong>Proximity</strong></p><p><em>When you are in public spaces, do you keep at least [1.5 meters] distance from others?</em><br />(Almost) never, Rarely, Sometimes, Often, (Almost) always</p><p><strong>Handwashing</strong></p><p><em><strong>Handwashing frequency </strong>Do you regularly wash or clean your hands in the following situations?</em><br />After I have been in direct contact with somone else; After I have been in direct contact with someone who is sick or has shown symptoms; After I have touched public or frequently touched surfaces (eg., doorknobs, railings, tables, buttons/switches); Before/After I have touched my face, nose, mouth; After I sneeze or cough; On entering my home, place of work, or other building I will be spending some time in; Before I handle or eat food; I never wash/cleanse my hands.</p><p><em><strong>Hand washing procedure </strong>If you wash/cleanse your hands, how do you tend to do this?</em><br />I wash for at least 20 seconds; I normally use soap or handsanitiser; I clean under my nails and between my fingers; None of the above</p><p><strong>Health status</strong></p><p><em>Is one or more of the following true for you</em><br />I prefer not to answer this question; I have cancer and am currently undergoing treatment; I have longterm kidney disease; I am pregnant; I am a smoker; I take anti-inflammatory or immunosuppressant drugs; I have a chronic respiratory disease; I have heart disease; I have diabetes</p>"		en		N	N		0																																																																																																																																				
188		SQ		SQ001	1	" Do the questions capture the risks run by this person?"		en			N		0																																																																																																																																				
146		Q	T	commentsquestionsv2	1	"Comments, questions, additions?"		en		N	N		0																																																																																																																																				
29		G	3	"Vignette 3"		"<span style=""font-size:15px;color:#1d1c1d;font-weight:normal;text-decoration:none;font-family:Arial;font-style:normal;"">Young single male (m23) living alone. His parents (58 and 60) live nearby, and one of them has a complicated form of asthma requiring regular corticosteroids (immunosuppressants). Between the family, they have decided that the two parents will isolate and never leave the house (only into their own private garden) and he will be responsible for bringing them anything they need, including runs to the pharmacy and to the supermarket nearby (which is now strict about the numbers who can be in the store at one time). Unfortunately, he does not drive and deliveries are impossible to schedule at the moment, meaning these trips are quite frequent. He uses soap and water to wash his hands when he enters and leaves his own home, but does not carry a hand sanitiser with him. His girlfriend who he’s been dating for 3 months lives (alone) three streets away in the same neighbourhood. He occasionally visits but they talk through the window. He exercises at home, and can work entirely from home.</span>"		en																																																																																																																																									
135		Q	B	risksv3	1	"<p>In the project, we defined five main ares of risk (behaviours):</p><p>Demographics (country, age, gender, profession)<br />Self-isolation (self isolation status/degree, self-isolation intentions)<br />Proximity Hand washing (frequency, procedure)<br />Health status (chronic health conditions, pregnanc, smoking, medication/treatment)</p><p>On a scale from 1–10, do you think the risks run by this person are adequately captured by these five areas?</p>"		en		N	N		0																																																																																																																																				
178		SQ		SQ001	1	"Do the risk categories capture the risks run by this person? 	"		en			N		0																																																																																																																																				
147		Q	T	commentsrisksv3	1	"Comments, questions, additions?"		en		N	N		0																																																																																																																																				
168		Q	B	questionsv3	1	"<p>These are the risk estimation questions. Do you think answering these questions will adequately capture the risks run by the participant?<br /><br /><strong>Demographics</strong></p><p><em><strong>Age </strong>How old are you?</em><br />Younger than 20; 20-29; 30-39; 40-49; 50-59; 60-69; 70-79; 80 or older; I prefer not to say</p><p><em><strong>Sex</strong></em>    <br />I am a woman; I am a man; I identify as non-binary; I prefer not to say; I am ...</p><p><em><strong>Profession</strong> At this point in time, do you work within a short distance from others? (With a ""short distance"", we mean within arms' length). Please tick all that apply  </em> <br />Yes, I work closely with patients or other vulnerable people; Yes, I work closely with children; Yes, I work closely with the general public or coworkers; No, I am working from home or not working currently.</p><p><strong>Self-isolation</strong></p><p><em><strong>Self-isolation status</strong> Are you yourself doing any of the following?</em><br />Going out for food, medicine, or healthcare; Going to other shops; Going out to see family; Going out to see friends; Going out for walks or exercise; Mostly staying at home.</p><p><em>Do you intend to go out less in the following situations?</em><br />No; Yes, when I show symptoms; Yes, if I have been in contact with somebody who shows symptoms; Yes, when the government restricts more; Yes, for another reason: ...</p><p><em>What will change?</em><br />I will stop going out for food, medicine, or healthcare; I will stop going to other shops; I will stop going out to see family; I will stop going out to see friends; I will stop going out for walks or exercise; I will do something else: ...</p><p><br /><em><strong>Self-isolation intentions</strong></em><br /><em>Which of the following statements are true for you in terms of staying at home and reducing the number of people you see. I will do this if:</em><br />I show symptoms; I have been to a highly affected area; I have been in contact with someone who shows symptoms or has tested positive; Someone in my household returns from a highly affected area; Something else happens, like: ... ; I will not do this in any case.</p><p><strong>Proximity</strong></p><p><em>When you are in public spaces, do you keep at least [1.5 meters] distance from others?</em><br />(Almost) never, Rarely, Sometimes, Often, (Almost) always</p><p><strong>Handwashing</strong></p><p><em><strong>Handwashing frequency </strong>Do you regularly wash or clean your hands in the following situations?</em><br />After I have been in direct contact with somone else; After I have been in direct contact with someone who is sick or has shown symptoms; After I have touched public or frequently touched surfaces (eg., doorknobs, railings, tables, buttons/switches); Before/After I have touched my face, nose, mouth; After I sneeze or cough; On entering my home, place of work, or other building I will be spending some time in; Before I handle or eat food; I never wash/cleanse my hands.</p><p><em><strong>Hand washing procedure </strong>If you wash/cleanse your hands, how do you tend to do this?</em><br />I wash for at least 20 seconds; I normally use soap or handsanitiser; I clean under my nails and between my fingers; None of the above</p><p><strong>Health status</strong></p><p><em>Is one or more of the following true for you</em><br />I prefer not to answer this question; I have cancer and am currently undergoing treatment; I have longterm kidney disease; I am pregnant; I am a smoker; I take anti-inflammatory or immunosuppressant drugs; I have a chronic respiratory disease; I have heart disease; I have diabetes</p>"		en		N	N		0																																																																																																																																				
189		SQ		SQ001	1	" Do the questions capture the risks run by this person?"		en			N		0																																																																																																																																				
148		Q	T	commentsquestionsv3	1	"Comments, questions, additions?"		en		N	N		0																																																																																																																																				
30		G	4	"Vignette 4"		"<span style=""font-size:15px;color:#1d1c1d;font-weight:normal;text-decoration:none;font-family:Arial;font-style:normal;"">Woman, aged 45, lives in a built-up area with her 17 year old son. Her retail job has been put on hold due to lockdown, and her son studies from home. She has asthma and is following all social distancing guidance, only leaving the house to walk 10 minutes to the main supermarket a couple of times a week. She washes her hands thoroughly before leaving the house and upon returning, and takes care to disinfect any products that come into the house from the shops. Her son goes for an hour of exercise every evening. She doesn't realise that he is actually going to the park to see his friends in the park during this time. She tries to ensure that he is washing his hands whenever he leaves or enters the house but she cannot monitor exactly which surfaces he touches and how he washes his hands every time.</span>"		en																																																																																																																																									
136		Q	B	risksv4	1	"<p>In the project, we defined five main ares of risk (behaviours):</p><p>Demographics (country, age, gender, profession)<br />Self-isolation (self isolation status/degree, self-isolation intentions)<br />Proximity Hand washing (frequency, procedure)<br />Health status (chronic health conditions, pregnanc, smoking, medication/treatment)</p><p>On a scale from 1–10, do you think the risks run by this person are adequately captured by these five areas?</p>"		en		N	N		0																																																																																																																																				
179		SQ		SQ001	1	"Do the risk categories capture the risks run by this person? 	"		en			N		0																																																																																																																																				
149		Q	T	commentsrisksv4	1	"Comments, questions, additions?"		en		N	N		0																																																																																																																																				
169		Q	B	questionsv4	1	"<p>These are the risk estimation questions. Do you think answering these questions will adequately capture the risks run by the participant?<br /><br /><strong>Demographics</strong></p><p><em><strong>Age </strong>How old are you?</em><br />Younger than 20; 20-29; 30-39; 40-49; 50-59; 60-69; 70-79; 80 or older; I prefer not to say</p><p><em><strong>Sex</strong></em>    <br />I am a woman; I am a man; I identify as non-binary; I prefer not to say; I am ...</p><p><em><strong>Profession</strong> At this point in time, do you work within a short distance from others? (With a ""short distance"", we mean within arms' length). Please tick all that apply  </em> <br />Yes, I work closely with patients or other vulnerable people; Yes, I work closely with children; Yes, I work closely with the general public or coworkers; No, I am working from home or not working currently.</p><p><strong>Self-isolation</strong></p><p><em><strong>Self-isolation status</strong> Are you yourself doing any of the following?</em><br />Going out for food, medicine, or healthcare; Going to other shops; Going out to see family; Going out to see friends; Going out for walks or exercise; Mostly staying at home.</p><p><em>Do you intend to go out less in the following situations?</em><br />No; Yes, when I show symptoms; Yes, if I have been in contact with somebody who shows symptoms; Yes, when the government restricts more; Yes, for another reason: ...</p><p><em>What will change?</em><br />I will stop going out for food, medicine, or healthcare; I will stop going to other shops; I will stop going out to see family; I will stop going out to see friends; I will stop going out for walks or exercise; I will do something else: ...</p><p><br /><em><strong>Self-isolation intentions</strong></em><br /><em>Which of the following statements are true for you in terms of staying at home and reducing the number of people you see. I will do this if:</em><br />I show symptoms; I have been to a highly affected area; I have been in contact with someone who shows symptoms or has tested positive; Someone in my household returns from a highly affected area; Something else happens, like: ... ; I will not do this in any case.</p><p><strong>Proximity</strong></p><p><em>When you are in public spaces, do you keep at least [1.5 meters] distance from others?</em><br />(Almost) never, Rarely, Sometimes, Often, (Almost) always</p><p><strong>Handwashing</strong></p><p><em><strong>Handwashing frequency </strong>Do you regularly wash or clean your hands in the following situations?</em><br />After I have been in direct contact with somone else; After I have been in direct contact with someone who is sick or has shown symptoms; After I have touched public or frequently touched surfaces (eg., doorknobs, railings, tables, buttons/switches); Before/After I have touched my face, nose, mouth; After I sneeze or cough; On entering my home, place of work, or other building I will be spending some time in; Before I handle or eat food; I never wash/cleanse my hands.</p><p><em><strong>Hand washing procedure </strong>If you wash/cleanse your hands, how do you tend to do this?</em><br />I wash for at least 20 seconds; I normally use soap or handsanitiser; I clean under my nails and between my fingers; None of the above</p><p><strong>Health status</strong></p><p><em>Is one or more of the following true for you</em><br />I prefer not to answer this question; I have cancer and am currently undergoing treatment; I have longterm kidney disease; I am pregnant; I am a smoker; I take anti-inflammatory or immunosuppressant drugs; I have a chronic respiratory disease; I have heart disease; I have diabetes</p>"		en		N	N		0																																																																																																																																				
190		SQ		SQ001	1	" Do the questions capture the risks run by this person?"		en			N		0																																																																																																																																				
150		Q	T	commentsquestionsv4	1	"Comments, questions, additions?"		en		N	N		0																																																																																																																																				
31		G	5	"Vignette 5"		"<span style=""font-size:15px;color:#1d1c1d;font-weight:normal;text-decoration:none;font-family:Arial;font-style:normal;"">Woman (f48) who lives with her family (2 children, m47) is working from home as is her partner. The children (f5, m7) are also being home educated. She has been reluctant to abide by the social isolation rules and has been borrowing items from the neighbours (who may or may not be infected), going out shopping every day and taking her kids to the play park. She hasn't been keeping a 2m distance from neighbours, other shoppers and other parents at the park. She has been cursorily washing her hands after using the toilet and before meals but hasn't been washing them for 20 secs or more regularly than usual. (Not relevant but she probably hoards toilet rolls though cos she sounds like that kind of person). She hasn't even tried to stop touching her face</span>"		en																																																																																																																																									
137		Q	B	risksv5	1	"<p>In the project, we defined five main ares of risk (behaviours):</p><p>Demographics (country, age, gender, profession)<br />Self-isolation (self isolation status/degree, self-isolation intentions)<br />Proximity Hand washing (frequency, procedure)<br />Health status (chronic health conditions, pregnanc, smoking, medication/treatment)</p><p>On a scale from 1–10, do you think the risks run by this person are adequately captured by these five areas?</p>"		en		N	N		0																																																																																																																																				
180		SQ		SQ001	1	"Do the risk categories capture the risks run by this person?"		en			N		0																																																																																																																																				
151		Q	T	commentsrisksv5	1	"Comments, questions, additions?"		en		N	N		0																																																																																																																																				
198		Q	B	questionsv5	1	"<div class=""question-title-container col-xs-12""><div class=""question-text""><div class=""ls-label-question"" id=""ls-question-text-981956X38X176""><p>These are the risk estimation questions. Do you think answering these questions will adequately capture the risks run by the participant?<br /><br /><strong>Demographics</strong></p><p><em><strong>Age </strong>How old are you?</em><br />Younger than 20; 20-29; 30-39; 40-49; 50-59; 60-69; 70-79; 80 or older; I prefer not to say</p><p><em><strong>Sex</strong></em>    <br />I am a woman; I am a man; I identify as non-binary; I prefer not to say; I am ...</p><p><em><strong>Profession</strong> At this point in time, do you work within a short distance from others? (With a ""short distance"", we mean within arms' length). Please tick all that apply  </em> <br />Yes, I work closely with patients or other vulnerable people; Yes, I work closely with children; Yes, I work closely with the general public or coworkers; No, I am working from home or not working currently.</p><p><strong>Self-isolation</strong></p><p><em><strong>Self-isolation status</strong> Are you yourself doing any of the following?</em><br />Going out for food, medicine, or healthcare; Going to other shops; Going out to see family; Going out to see friends; Going out for walks or exercise; Mostly staying at home.</p><p><em>Do you intend to go out less in the following situations?</em><br />No; Yes, when I show symptoms; Yes, if I have been in contact with somebody who shows symptoms; Yes, when the government restricts more; Yes, for another reason: ...</p><p><em>What will change?</em><br />I will stop going out for food, medicine, or healthcare; I will stop going to other shops; I will stop going out to see family; I will stop going out to see friends; I will stop going out for walks or exercise; I will do something else: ...</p><p><br /><em><strong>Self-isolation intentions</strong></em><br /><em>Which of the following statements are true for you in terms of staying at home and reducing the number of people you see. I will do this if:</em><br />I show symptoms; I have been to a highly affected area; I have been in contact with someone who shows symptoms or has tested positive; Someone in my household returns from a highly affected area; Something else happens, like: ... ; I will not do this in any case.</p><p><strong>Proximity</strong></p><p><em>When you are in public spaces, do you keep at least [1.5 meters] distance from others?</em><br />(Almost) never, Rarely, Sometimes, Often, (Almost) always</p><p><strong>Handwashing</strong></p><p><em><strong>Handwashing frequency </strong>Do you regularly wash or clean your hands in the following situations?</em><br />After I have been in direct contact with somone else; After I have been in direct contact with someone who is sick or has shown symptoms; After I have touched public or frequently touched surfaces (eg., doorknobs, railings, tables, buttons/switches); Before/After I have touched my face, nose, mouth; After I sneeze or cough; On entering my home, place of work, or other building I will be spending some time in; Before I handle or eat food; I never wash/cleanse my hands.</p><p><em><strong>Hand washing procedure </strong>If you wash/cleanse your hands, how do you tend to do this?</em><br />I wash for at least 20 seconds; I normally use soap or handsanitiser; I clean under my nails and between my fingers; None of the above</p><p><strong>Health status</strong></p><p><em>Is one or more of the following true for you</em><br />I prefer not to answer this question; I have cancer and am currently undergoing treatment; I have longterm kidney disease; I am pregnant; I am a smoker; I take anti-inflammatory or immunosuppressant drugs; I have a chronic respiratory disease; I have heart disease; I have diabetes</p></div></div></div>"		en		N	N		0																																																																																																																																				
199		SQ		SQ001	1	" Do the questions capture the risks run by this person?"		en			N		0																																																																																																																																				
152		Q	T	commentsquestionsv5	1	"Comments, questions, additions?"		en		N	N		0																																																																																																																																				
32		G	6	"Vignette 6"		"<span style=""font-size:15px;color:#1d1c1d;font-weight:normal;text-decoration:none;font-family:Arial;font-style:normal;"">Boy aged 15 (m15) is being home schooled. He lives with this parents who are both WFH. He doesn't watch the news and hasn't been really paying attention to his parents. His mum has been sending him out for essentials at the supermarket and he has kept 2m distance from others there as it is being policed. He has not seen any other friends as their parents have been keeping them in but he has been seeing his boyfriend when he has been out to exercise - he's been in close contact with him but doesn't think it matters as they both don't have symptoms (his boyfriend works in a care home but visitors are restricted so he only has close contact with the residents). He washes his hands slightly more frequently when his parents are nagging but otherwise doesn't take any precautions in the house.</span>"		en																																																																																																																																									
138		Q	B	risksv6	1	"<p>In the project, we defined five main ares of risk (behaviours):</p><p>Demographics (country, age, gender, profession)<br />Self-isolation (self isolation status/degree, self-isolation intentions)<br />Proximity Hand washing (frequency, procedure)<br />Health status (chronic health conditions, pregnanc, smoking, medication/treatment)</p><p>On a scale from 1–10, do you think the risks run by this person are adequately captured by these five areas?</p>"		en		N	N		0																																																																																																																																				
181		SQ		SQ001	1	"Do the risk categories capture the risks run by this person?"		en			N		0																																																																																																																																				
153		Q	T	commentsrisksv6	1	"Comments, questions, additions?"		en		N	N		0																																																																																																																																				
170		Q	B	questionsv6	1	"<p>These are the risk estimation questions. Do you think answering these questions will adequately capture the risks run by the participant?<br /><br /><strong>Demographics</strong></p><p><em><strong>Age </strong>How old are you?</em><br />Younger than 20; 20-29; 30-39; 40-49; 50-59; 60-69; 70-79; 80 or older; I prefer not to say</p><p><em><strong>Sex</strong></em>    <br />I am a woman; I am a man; I identify as non-binary; I prefer not to say; I am ...</p><p><em><strong>Profession</strong> At this point in time, do you work within a short distance from others? (With a ""short distance"", we mean within arms' length). Please tick all that apply  </em> <br />Yes, I work closely with patients or other vulnerable people; Yes, I work closely with children; Yes, I work closely with the general public or coworkers; No, I am working from home or not working currently.</p><p><strong>Self-isolation</strong></p><p><em><strong>Self-isolation status</strong> Are you yourself doing any of the following?</em><br />Going out for food, medicine, or healthcare; Going to other shops; Going out to see family; Going out to see friends; Going out for walks or exercise; Mostly staying at home.</p><p><em>Do you intend to go out less in the following situations?</em><br />No; Yes, when I show symptoms; Yes, if I have been in contact with somebody who shows symptoms; Yes, when the government restricts more; Yes, for another reason: ...</p><p><em>What will change?</em><br />I will stop going out for food, medicine, or healthcare; I will stop going to other shops; I will stop going out to see family; I will stop going out to see friends; I will stop going out for walks or exercise; I will do something else: ...</p><p><br /><em><strong>Self-isolation intentions</strong></em><br /><em>Which of the following statements are true for you in terms of staying at home and reducing the number of people you see. I will do this if:</em><br />I show symptoms; I have been to a highly affected area; I have been in contact with someone who shows symptoms or has tested positive; Someone in my household returns from a highly affected area; Something else happens, like: ... ; I will not do this in any case.</p><p><strong>Proximity</strong></p><p><em>When you are in public spaces, do you keep at least [1.5 meters] distance from others?</em><br />(Almost) never, Rarely, Sometimes, Often, (Almost) always</p><p><strong>Handwashing</strong></p><p><em><strong>Handwashing frequency </strong>Do you regularly wash or clean your hands in the following situations?</em><br />After I have been in direct contact with somone else; After I have been in direct contact with someone who is sick or has shown symptoms; After I have touched public or frequently touched surfaces (eg., doorknobs, railings, tables, buttons/switches); Before/After I have touched my face, nose, mouth; After I sneeze or cough; On entering my home, place of work, or other building I will be spending some time in; Before I handle or eat food; I never wash/cleanse my hands.</p><p><em><strong>Hand washing procedure </strong>If you wash/cleanse your hands, how do you tend to do this?</em><br />I wash for at least 20 seconds; I normally use soap or handsanitiser; I clean under my nails and between my fingers; None of the above</p><p><strong>Health status</strong></p><p><em>Is one or more of the following true for you</em><br />I prefer not to answer this question; I have cancer and am currently undergoing treatment; I have longterm kidney disease; I am pregnant; I am a smoker; I take anti-inflammatory or immunosuppressant drugs; I have a chronic respiratory disease; I have heart disease; I have diabetes</p>"		en		N	N		0																																																																																																																																				
191		SQ		SQ001	1	" Do the questions capture the risks run by this person?"		en			N		0																																																																																																																																				
154		Q	T	commentsquestionsv6	1	"Comments, questions, additions?"		en		N	N		0																																																																																																																																				
33		G	7	"Vignette 7"		"<span style=""font-size:15px;color:#1d1c1d;font-weight:normal;text-decoration:none;font-family:Arial;font-style:normal;"">Older woman (f70) has been advised to self isolate due to her age. She is mostly doing this but is popping around to see the neighbours (who are also self isolating) - she is staying 2m away but only when they insist. She has no underlying health conditions other than diabetes. Her son (m28) is doing her shopping for her and popping round regularly. He works in a petrol station and has been going to work but mostly avoiding customers and other staff (he may or may not be infected). She gets him to wash his hands when he arrives but doesn't stay 2m away from him. She has been washing her hands more regularly and for 20 secs but doesn't always wash between the fingers etc.</span>"		en																																																																																																																																									
139		Q	B	risksv7	1	"<p>In the project, we defined five main ares of risk (behaviours):</p><p>Demographics (country, age, gender, profession)<br />Self-isolation (self isolation status/degree, self-isolation intentions)<br />Proximity Hand washing (frequency, procedure)<br />Health status (chronic health conditions, pregnanc, smoking, medication/treatment)</p><p>On a scale from 1–10, do you think the risks run by this person are adequately captured by these five areas?</p>"		en		N	N		0																																																																																																																																				
183		SQ		SQ001	1	"Do the risk categories capture the risks run by this person?"		en			N		0																																																																																																																																				
155		Q	T	commentsrisksv7	1	"Comments, questions, additions?"		en		N	N		0																																																																																																																																				
171		Q	B	questionsv7	1	"<p>These are the risk estimation questions. Do you think answering these questions will adequately capture the risks run by the participant?<br /><br /><strong>Demographics</strong></p><p><em><strong>Age </strong>How old are you?</em><br />Younger than 20; 20-29; 30-39; 40-49; 50-59; 60-69; 70-79; 80 or older; I prefer not to say</p><p><em><strong>Sex</strong></em>    <br />I am a woman; I am a man; I identify as non-binary; I prefer not to say; I am ...</p><p><em><strong>Profession</strong> At this point in time, do you work within a short distance from others? (With a ""short distance"", we mean within arms' length). Please tick all that apply  </em> <br />Yes, I work closely with patients or other vulnerable people; Yes, I work closely with children; Yes, I work closely with the general public or coworkers; No, I am working from home or not working currently.</p><p><strong>Self-isolation</strong></p><p><em><strong>Self-isolation status</strong> Are you yourself doing any of the following?</em><br />Going out for food, medicine, or healthcare; Going to other shops; Going out to see family; Going out to see friends; Going out for walks or exercise; Mostly staying at home.</p><p><em>Do you intend to go out less in the following situations?</em><br />No; Yes, when I show symptoms; Yes, if I have been in contact with somebody who shows symptoms; Yes, when the government restricts more; Yes, for another reason: ...</p><p><em>What will change?</em><br />I will stop going out for food, medicine, or healthcare; I will stop going to other shops; I will stop going out to see family; I will stop going out to see friends; I will stop going out for walks or exercise; I will do something else: ...</p><p><br /><em><strong>Self-isolation intentions</strong></em><br /><em>Which of the following statements are true for you in terms of staying at home and reducing the number of people you see. I will do this if:</em><br />I show symptoms; I have been to a highly affected area; I have been in contact with someone who shows symptoms or has tested positive; Someone in my household returns from a highly affected area; Something else happens, like: ... ; I will not do this in any case.</p><p><strong>Proximity</strong></p><p><em>When you are in public spaces, do you keep at least [1.5 meters] distance from others?</em><br />(Almost) never, Rarely, Sometimes, Often, (Almost) always</p><p><strong>Handwashing</strong></p><p><em><strong>Handwashing frequency </strong>Do you regularly wash or clean your hands in the following situations?</em><br />After I have been in direct contact with somone else; After I have been in direct contact with someone who is sick or has shown symptoms; After I have touched public or frequently touched surfaces (eg., doorknobs, railings, tables, buttons/switches); Before/After I have touched my face, nose, mouth; After I sneeze or cough; On entering my home, place of work, or other building I will be spending some time in; Before I handle or eat food; I never wash/cleanse my hands.</p><p><em><strong>Hand washing procedure </strong>If you wash/cleanse your hands, how do you tend to do this?</em><br />I wash for at least 20 seconds; I normally use soap or handsanitiser; I clean under my nails and between my fingers; None of the above</p><p><strong>Health status</strong></p><p><em>Is one or more of the following true for you</em><br />I prefer not to answer this question; I have cancer and am currently undergoing treatment; I have longterm kidney disease; I am pregnant; I am a smoker; I take anti-inflammatory or immunosuppressant drugs; I have a chronic respiratory disease; I have heart disease; I have diabetes</p>"		en		N	N		0																																																																																																																																				
192		SQ		SQ001	1	" Do the questions capture the risks run by this person?"		en			N		0																																																																																																																																				
156		Q	T	commentsquestionsv7	1	"Comments, questions, additions?"		en		N	N		0																																																																																																																																				
34		G	8	"Vignette 8"		"<span style=""font-size:15px;color:#1d1c1d;font-weight:normal;text-decoration:none;font-family:Arial;font-style:normal;"">Male (35) is the one filling using the tool. He's living with his partner (F, 43). Works from home, most of the time self-isolating himself. Goes out occasionaly for groceries. Walks / does excercises in the park three times a time. Does not sit on benches or touches public objects during this time. He keeps his distance from others, but he cannot avoid that others come to close sometimes. He washes his hands regularly, but touches his face and nose often without knowing it. He does not wash his hands everyt time he has went out for a walk, sometimes he forgets to do this. He brings shopping home to his father in law (M, 80). He keeps 1.5m between them. His father in law goes out every day, without being strict in social distancing and hygiene (not washing hands, not coughing in elbow, not using paper napkins). He smokes irregularly, not more than 5 cigarettes per week.</span>"		en																																																																																																																																									
140		Q	B	risksv8	1	"<p>In the project, we defined five main ares of risk (behaviours):</p><p>Demographics (country, age, gender, profession)<br />Self-isolation (self isolation status/degree, self-isolation intentions)<br />Proximity Hand washing (frequency, procedure)<br />Health status (chronic health conditions, pregnanc, smoking, medication/treatment)</p><p>On a scale from 1–10, do you think the risks run by this person are adequately captured by these five areas?</p>"		en		N	N		0																																																																																																																																				
182		SQ		SQ001	1	"Do the risk categories capture the risks run by this person?"		en			N		0																																																																																																																																				
157		Q	T	commentsrisksv8	1	"Comments, questions, additions?"		en		N	N		0																																																																																																																																				
172		Q	B	questionsv8	1	"<p>These are the risk estimation questions. Do you think answering these questions will adequately capture the risks run by the participant?<br /><br /><strong>Demographics</strong></p><p><em><strong>Age </strong>How old are you?</em><br />Younger than 20; 20-29; 30-39; 40-49; 50-59; 60-69; 70-79; 80 or older; I prefer not to say</p><p><em><strong>Sex</strong></em>    <br />I am a woman; I am a man; I identify as non-binary; I prefer not to say; I am ...</p><p><em><strong>Profession</strong> At this point in time, do you work within a short distance from others? (With a ""short distance"", we mean within arms' length). Please tick all that apply  </em> <br />Yes, I work closely with patients or other vulnerable people; Yes, I work closely with children; Yes, I work closely with the general public or coworkers; No, I am working from home or not working currently.</p><p><strong>Self-isolation</strong></p><p><em><strong>Self-isolation status</strong> Are you yourself doing any of the following?</em><br />Going out for food, medicine, or healthcare; Going to other shops; Going out to see family; Going out to see friends; Going out for walks or exercise; Mostly staying at home.</p><p><em>Do you intend to go out less in the following situations?</em><br />No; Yes, when I show symptoms; Yes, if I have been in contact with somebody who shows symptoms; Yes, when the government restricts more; Yes, for another reason: ...</p><p><em>What will change?</em><br />I will stop going out for food, medicine, or healthcare; I will stop going to other shops; I will stop going out to see family; I will stop going out to see friends; I will stop going out for walks or exercise; I will do something else: ...</p><p><br /><em><strong>Self-isolation intentions</strong></em><br /><em>Which of the following statements are true for you in terms of staying at home and reducing the number of people you see. I will do this if:</em><br />I show symptoms; I have been to a highly affected area; I have been in contact with someone who shows symptoms or has tested positive; Someone in my household returns from a highly affected area; Something else happens, like: ... ; I will not do this in any case.</p><p><strong>Proximity</strong></p><p><em>When you are in public spaces, do you keep at least [1.5 meters] distance from others?</em><br />(Almost) never, Rarely, Sometimes, Often, (Almost) always</p><p><strong>Handwashing</strong></p><p><em><strong>Handwashing frequency </strong>Do you regularly wash or clean your hands in the following situations?</em><br />After I have been in direct contact with somone else; After I have been in direct contact with someone who is sick or has shown symptoms; After I have touched public or frequently touched surfaces (eg., doorknobs, railings, tables, buttons/switches); Before/After I have touched my face, nose, mouth; After I sneeze or cough; On entering my home, place of work, or other building I will be spending some time in; Before I handle or eat food; I never wash/cleanse my hands.</p><p><em><strong>Hand washing procedure </strong>If you wash/cleanse your hands, how do you tend to do this?</em><br />I wash for at least 20 seconds; I normally use soap or handsanitiser; I clean under my nails and between my fingers; None of the above</p><p><strong>Health status</strong></p><p><em>Is one or more of the following true for you</em><br />I prefer not to answer this question; I have cancer and am currently undergoing treatment; I have longterm kidney disease; I am pregnant; I am a smoker; I take anti-inflammatory or immunosuppressant drugs; I have a chronic respiratory disease; I have heart disease; I have diabetes</p>"		en		N	N		0																																																																																																																																				
193		SQ		SQ001	1	" Do the questions capture the risks run by this person?"		en			N		0																																																																																																																																				
158		Q	T	commentsquestionsv8	1	"Comments, questions, additions?"		en		N	N		0																																																																																																																																				
35		G	9	"Vignette 9"		"<span style=""font-size:13px;color:#000000;font-weight:normal;text-decoration:none;font-family:Arial;font-style:normal;"">Female (35) lives in shared accommodation with several others (F,36 &amp; F,35). She is working remotely, exercises 3 times a week in a remote area keeping at least a 2m distance from others. She tries to limit the amount of times she goes to the supermarket however when she does go, she finds it difficult to keep a 2m distance from others. She uses soap and hot water to thoroughly wash her hands every time she enters and leaves her home. The people she is living with occasionally have their partners visit them at the house, and they use the communal areas. She does however avoid direct contact with them.</span>"		en																																																																																																																																									
141		Q	B	risksv9	1	"<p>In the project, we defined five main ares of risk (behaviours):</p><p>Demographics (country, age, gender, profession)<br />Self-isolation (self isolation status/degree, self-isolation intentions)<br />Proximity Hand washing (frequency, procedure)<br />Health status (chronic health conditions, pregnanc, smoking, medication/treatment)</p><p>On a scale from 1–10, do you think the risks run by this person are adequately captured by these five areas?</p>"		en		N	N		0																																																																																																																																				
184		SQ		SQ001	1	"Do the risk categories capture the risks run by this person?"		en			N		0																																																																																																																																				
159		Q	T	commentsrisksv9	1	"Comments, questions, additions?"		en		N	N		0																																																																																																																																				
173		Q	B	questionsv9	1	"<p>These are the risk estimation questions. Do you think answering these questions will adequately capture the risks run by the participant?<br /><br /><strong>Demographics</strong></p><p><em><strong>Age </strong>How old are you?</em><br />Younger than 20; 20-29; 30-39; 40-49; 50-59; 60-69; 70-79; 80 or older; I prefer not to say</p><p><em><strong>Sex</strong></em>    <br />I am a woman; I am a man; I identify as non-binary; I prefer not to say; I am ...</p><p><em><strong>Profession</strong> At this point in time, do you work within a short distance from others? (With a ""short distance"", we mean within arms' length). Please tick all that apply  </em> <br />Yes, I work closely with patients or other vulnerable people; Yes, I work closely with children; Yes, I work closely with the general public or coworkers; No, I am working from home or not working currently.</p><p><strong>Self-isolation</strong></p><p><em><strong>Self-isolation status</strong> Are you yourself doing any of the following?</em><br />Going out for food, medicine, or healthcare; Going to other shops; Going out to see family; Going out to see friends; Going out for walks or exercise; Mostly staying at home.</p><p><em>Do you intend to go out less in the following situations?</em><br />No; Yes, when I show symptoms; Yes, if I have been in contact with somebody who shows symptoms; Yes, when the government restricts more; Yes, for another reason: ...</p><p><em>What will change?</em><br />I will stop going out for food, medicine, or healthcare; I will stop going to other shops; I will stop going out to see family; I will stop going out to see friends; I will stop going out for walks or exercise; I will do something else: ...</p><p><br /><em><strong>Self-isolation intentions</strong></em><br /><em>Which of the following statements are true for you in terms of staying at home and reducing the number of people you see. I will do this if:</em><br />I show symptoms; I have been to a highly affected area; I have been in contact with someone who shows symptoms or has tested positive; Someone in my household returns from a highly affected area; Something else happens, like: ... ; I will not do this in any case.</p><p><strong>Proximity</strong></p><p><em>When you are in public spaces, do you keep at least [1.5 meters] distance from others?</em><br />(Almost) never, Rarely, Sometimes, Often, (Almost) always</p><p><strong>Handwashing</strong></p><p><em><strong>Handwashing frequency </strong>Do you regularly wash or clean your hands in the following situations?</em><br />After I have been in direct contact with somone else; After I have been in direct contact with someone who is sick or has shown symptoms; After I have touched public or frequently touched surfaces (eg., doorknobs, railings, tables, buttons/switches); Before/After I have touched my face, nose, mouth; After I sneeze or cough; On entering my home, place of work, or other building I will be spending some time in; Before I handle or eat food; I never wash/cleanse my hands.</p><p><em><strong>Hand washing procedure </strong>If you wash/cleanse your hands, how do you tend to do this?</em><br />I wash for at least 20 seconds; I normally use soap or handsanitiser; I clean under my nails and between my fingers; None of the above</p><p><strong>Health status</strong></p><p><em>Is one or more of the following true for you</em><br />I prefer not to answer this question; I have cancer and am currently undergoing treatment; I have longterm kidney disease; I am pregnant; I am a smoker; I take anti-inflammatory or immunosuppressant drugs; I have a chronic respiratory disease; I have heart disease; I have diabetes</p>"		en		N	N		0																																																																																																																																				
194		SQ		SQ001	1	" Do the questions capture the risks run by this person?"		en			N		0																																																																																																																																				
160		Q	T	commentsquestionsv9	1	"Comments, questions, additions?"		en		N	N		0																																																																																																																																				
36		G	10	"Vignette 10"		"<span style=""font-size:15px;color:#1d1c1d;font-weight:normal;text-decoration:none;font-family:Arial;font-style:normal;"">Adult male (age 45) living with his wife (age 40) and daughter (age 10). Self-employed as an Uber driver, and wife is unemployed taking care of the household chores and daughter. He has no health issues; however, his wife had a recent non-critical heart surgery. They live in a flat and have no outdoor space. Since he is self-employed, he needs to pay for his (and his family) health care. Therefore, he is still working despite the phase 2 contingency plan for COVID-19. His mother (age 70), that lives in the same neighbourhood and has no major health issues, is concerned regarding the COVID situation and would like to self-isolate. However, she would also like to help the family to cover expenses, and therefore she is still visiting the family often. He does not wash his hands as frequently as he should, and hand sanitizers had been out of stock for the last three weeks.</span>"		en																																																																																																																																									
142		Q	B	risksv10	1	"<p>In the project, we defined five main ares of risk (behaviours):</p><p>Demographics (country, age, gender, profession)<br />Self-isolation (self isolation status/degree, self-isolation intentions)<br />Proximity Hand washing (frequency, procedure)<br />Health status (chronic health conditions, pregnanc, smoking, medication/treatment)</p><p>On a scale from 1–10, do you think the risks run by this person are adequately captured by these five areas?</p>"		en		N	N		0																																																																																																																																				
185		SQ		SQ001	1	"Do the risk categories capture the risks run by this person?"		en			N		0																																																																																																																																				
161		Q	T	commentsrisksv10	1	"Comments, questions, additions?"		en		N	N		0																																																																																																																																				
174		Q	B	questionsv10	1	"<p>These are the risk estimation questions. Do you think answering these questions will adequately capture the risks run by the participant?<br /><br /><strong>Demographics</strong></p><p><em><strong>Age </strong>How old are you?</em><br />Younger than 20; 20-29; 30-39; 40-49; 50-59; 60-69; 70-79; 80 or older; I prefer not to say</p><p><em><strong>Sex</strong></em>    <br />I am a woman; I am a man; I identify as non-binary; I prefer not to say; I am ...</p><p><em><strong>Profession</strong> At this point in time, do you work within a short distance from others? (With a ""short distance"", we mean within arms' length). Please tick all that apply  </em> <br />Yes, I work closely with patients or other vulnerable people; Yes, I work closely with children; Yes, I work closely with the general public or coworkers; No, I am working from home or not working currently.</p><p><strong>Self-isolation</strong></p><p><em><strong>Self-isolation status</strong> Are you yourself doing any of the following?</em><br />Going out for food, medicine, or healthcare; Going to other shops; Going out to see family; Going out to see friends; Going out for walks or exercise; Mostly staying at home.</p><p><em>Do you intend to go out less in the following situations?</em><br />No; Yes, when I show symptoms; Yes, if I have been in contact with somebody who shows symptoms; Yes, when the government restricts more; Yes, for another reason: ...</p><p><em>What will change?</em><br />I will stop going out for food, medicine, or healthcare; I will stop going to other shops; I will stop going out to see family; I will stop going out to see friends; I will stop going out for walks or exercise; I will do something else: ...</p><p><br /><em><strong>Self-isolation intentions</strong></em><br /><em>Which of the following statements are true for you in terms of staying at home and reducing the number of people you see. I will do this if:</em><br />I show symptoms; I have been to a highly affected area; I have been in contact with someone who shows symptoms or has tested positive; Someone in my household returns from a highly affected area; Something else happens, like: ... ; I will not do this in any case.</p><p><strong>Proximity</strong></p><p><em>When you are in public spaces, do you keep at least [1.5 meters] distance from others?</em><br />(Almost) never, Rarely, Sometimes, Often, (Almost) always</p><p><strong>Handwashing</strong></p><p><em><strong>Handwashing frequency </strong>Do you regularly wash or clean your hands in the following situations?</em><br />After I have been in direct contact with somone else; After I have been in direct contact with someone who is sick or has shown symptoms; After I have touched public or frequently touched surfaces (eg., doorknobs, railings, tables, buttons/switches); Before/After I have touched my face, nose, mouth; After I sneeze or cough; On entering my home, place of work, or other building I will be spending some time in; Before I handle or eat food; I never wash/cleanse my hands.</p><p><em><strong>Hand washing procedure </strong>If you wash/cleanse your hands, how do you tend to do this?</em><br />I wash for at least 20 seconds; I normally use soap or handsanitiser; I clean under my nails and between my fingers; None of the above</p><p><strong>Health status</strong></p><p><em>Is one or more of the following true for you</em><br />I prefer not to answer this question; I have cancer and am currently undergoing treatment; I have longterm kidney disease; I am pregnant; I am a smoker; I take anti-inflammatory or immunosuppressant drugs; I have a chronic respiratory disease; I have heart disease; I have diabetes</p>"		en		N	N		0																																																																																																																																				
195		SQ		SQ001	1	" Do the questions capture the risks run by this person?"		en			N		0																																																																																																																																				
162		Q	T	commentsquestionsv10	1	"Comments, questions, additions?"		en		N	N		0																																																																																																																																				
37		G	11	"Vignette 11"		"<span style=""font-size:13px;color:#000000;font-weight:normal;text-decoration:none;font-family:Arial;font-style:normal;"">Married female (f34) lives with her husband in a small apartment in a warm climate country. Both individuals are able to work from home and have a small balcony to sit in the sun and exercise. There are two cars in the household, and she goes to the shops on a daily basis, which have a large range of food, or out to buy take-out food from local businesses which are still operating. Cleaning products are scarce, however the couple have made their own alcohol hand sanitizer, wash hands when returning to the apartment and before eating food, and sanitize shopping trolleys prior to use. She regularly takes walks around the local neighborhood, ensuring to stay on the other side of the street from other people. All of her family and her husband's family live and are self-isolating in different countries, all with travel bans issued.</span>"		en																																																																																																																																									
143		Q	B	risksv11	1	"<p>In the project, we defined five main ares of risk (behaviours):</p><p>Demographics (country, age, gender, profession)<br />Self-isolation (self isolation status/degree, self-isolation intentions)<br />Proximity Hand washing (frequency, procedure)<br />Health status (chronic health conditions, pregnanc, smoking, medication/treatment)</p><p>On a scale from 1–10, do you think the risks run by this person are adequately captured by these five areas?</p>"		en		N	N		0																																																																																																																																				
186		SQ		SQ001	1	"Do the risk categories capture the risks run by this person?"		en			N		0																																																																																																																																				
163		Q	T	commentsrisksv11	1	"Comments, questions, additions?"		en		N	N		0																																																																																																																																				
175		Q	B	questionsv11	1	"<p>These are the risk estimation questions. Do you think answering these questions will adequately capture the risks run by the participant?<br /><br /><strong>Demographics</strong></p><p><em><strong>Age </strong>How old are you?</em><br />Younger than 20; 20-29; 30-39; 40-49; 50-59; 60-69; 70-79; 80 or older; I prefer not to say</p><p><em><strong>Sex</strong></em>    <br />I am a woman; I am a man; I identify as non-binary; I prefer not to say; I am ...</p><p><em><strong>Profession</strong> At this point in time, do you work within a short distance from others? (With a ""short distance"", we mean within arms' length). Please tick all that apply  </em> <br />Yes, I work closely with patients or other vulnerable people; Yes, I work closely with children; Yes, I work closely with the general public or coworkers; No, I am working from home or not working currently.</p><p><strong>Self-isolation</strong></p><p><em><strong>Self-isolation status</strong> Are you yourself doing any of the following?</em><br />Going out for food, medicine, or healthcare; Going to other shops; Going out to see family; Going out to see friends; Going out for walks or exercise; Mostly staying at home.</p><p><em>Do you intend to go out less in the following situations?</em><br />No; Yes, when I show symptoms; Yes, if I have been in contact with somebody who shows symptoms; Yes, when the government restricts more; Yes, for another reason: ...</p><p><em>What will change?</em><br />I will stop going out for food, medicine, or healthcare; I will stop going to other shops; I will stop going out to see family; I will stop going out to see friends; I will stop going out for walks or exercise; I will do something else: ...</p><p><br /><em><strong>Self-isolation intentions</strong></em><br /><em>Which of the following statements are true for you in terms of staying at home and reducing the number of people you see. I will do this if:</em><br />I show symptoms; I have been to a highly affected area; I have been in contact with someone who shows symptoms or has tested positive; Someone in my household returns from a highly affected area; Something else happens, like: ... ; I will not do this in any case.</p><p><strong>Proximity</strong></p><p><em>When you are in public spaces, do you keep at least [1.5 meters] distance from others?</em><br />(Almost) never, Rarely, Sometimes, Often, (Almost) always</p><p><strong>Handwashing</strong></p><p><em><strong>Handwashing frequency </strong>Do you regularly wash or clean your hands in the following situations?</em><br />After I have been in direct contact with somone else; After I have been in direct contact with someone who is sick or has shown symptoms; After I have touched public or frequently touched surfaces (eg., doorknobs, railings, tables, buttons/switches); Before/After I have touched my face, nose, mouth; After I sneeze or cough; On entering my home, place of work, or other building I will be spending some time in; Before I handle or eat food; I never wash/cleanse my hands.</p><p><em><strong>Hand washing procedure </strong>If you wash/cleanse your hands, how do you tend to do this?</em><br />I wash for at least 20 seconds; I normally use soap or handsanitiser; I clean under my nails and between my fingers; None of the above</p><p><strong>Health status</strong></p><p><em>Is one or more of the following true for you</em><br />I prefer not to answer this question; I have cancer and am currently undergoing treatment; I have longterm kidney disease; I am pregnant; I am a smoker; I take anti-inflammatory or immunosuppressant drugs; I have a chronic respiratory disease; I have heart disease; I have diabetes</p>"		en		N	N		0																																																																																																																																				
196		SQ		SQ001	1	" Do the questions capture the risks run by this person?"		en			N		0																																																																																																																																				
164		Q	T	commentsquestionsv11	1	"Comments, questions, additions?"		en		N	N		0																																																																																																																																				
38		G	12	"Vignette 12"		"<span style=""font-size:13px;color:#000000;font-weight:normal;text-decoration:none;font-family:Arial;font-style:normal;"">Young male (m25) lives in a small apartment in a high-rise tower in a capital city. He lives alone, with all family in a city ten hours away or in a different country. He is able to work from home and can only leave the apartment to visit the local shop every few days, but must quickly return home as local police are patrolling the streets, enforcing a strict stay at home policy. He lives in a warm climate and is unable to spend much time outside. Friends live nearby, but they are not able to visit and they communicate through telephone, online games and social media. His girlfriend lives nearby, but they have been unable to see each other due to the strict stay at home enforcement which results in large on the spot fines if people are outside.</span>"		en																																																																																																																																									
144		Q	B	risksv12	1	"<p>In the project, we defined five main ares of risk (behaviours):</p><p>Demographics (country, age, gender, profession)<br />Self-isolation (self isolation status/degree, self-isolation intentions)<br />Proximity Hand washing (frequency, procedure)<br />Health status (chronic health conditions, pregnanc, smoking, medication/treatment)</p><p>On a scale from 1–10, do you think the risks run by this person are adequately captured by these five areas?</p>"		en		N	N		0																																																																																																																																				
187		SQ		SQ001	1	"Do the risk categories capture the risks run by this person?"		en			N		0																																																																																																																																				
165		Q	T	commentsrisksv12	1	"Comments, questions, additions?"		en		N	N		0																																																																																																																																				
176		Q	B	questionsv12	1	"<p>These are the risk estimation questions. Do you think answering these questions will adequately capture the risks run by the participant?<br /><br /><strong>Demographics</strong></p><p><em><strong>Age </strong>How old are you?</em><br />Younger than 20; 20-29; 30-39; 40-49; 50-59; 60-69; 70-79; 80 or older; I prefer not to say</p><p><em><strong>Sex</strong></em>    <br />I am a woman; I am a man; I identify as non-binary; I prefer not to say; I am ...</p><p><em><strong>Profession</strong> At this point in time, do you work within a short distance from others? (With a ""short distance"", we mean within arms' length). Please tick all that apply  </em> <br />Yes, I work closely with patients or other vulnerable people; Yes, I work closely with children; Yes, I work closely with the general public or coworkers; No, I am working from home or not working currently.</p><p><strong>Self-isolation</strong></p><p><em><strong>Self-isolation status</strong> Are you yourself doing any of the following?</em><br />Going out for food, medicine, or healthcare; Going to other shops; Going out to see family; Going out to see friends; Going out for walks or exercise; Mostly staying at home.</p><p><em>Do you intend to go out less in the following situations?</em><br />No; Yes, when I show symptoms; Yes, if I have been in contact with somebody who shows symptoms; Yes, when the government restricts more; Yes, for another reason: ...</p><p><em>What will change?</em><br />I will stop going out for food, medicine, or healthcare; I will stop going to other shops; I will stop going out to see family; I will stop going out to see friends; I will stop going out for walks or exercise; I will do something else: ...</p><p><br /><em><strong>Self-isolation intentions</strong></em><br /><em>Which of the following statements are true for you in terms of staying at home and reducing the number of people you see. I will do this if:</em><br />I show symptoms; I have been to a highly affected area; I have been in contact with someone who shows symptoms or has tested positive; Someone in my household returns from a highly affected area; Something else happens, like: ... ; I will not do this in any case.</p><p><strong>Proximity</strong></p><p><em>When you are in public spaces, do you keep at least [1.5 meters] distance from others?</em><br />(Almost) never, Rarely, Sometimes, Often, (Almost) always</p><p><strong>Handwashing</strong></p><p><em><strong>Handwashing frequency </strong>Do you regularly wash or clean your hands in the following situations?</em><br />After I have been in direct contact with somone else; After I have been in direct contact with someone who is sick or has shown symptoms; After I have touched public or frequently touched surfaces (eg., doorknobs, railings, tables, buttons/switches); Before/After I have touched my face, nose, mouth; After I sneeze or cough; On entering my home, place of work, or other building I will be spending some time in; Before I handle or eat food; I never wash/cleanse my hands.</p><p><em><strong>Hand washing procedure </strong>If you wash/cleanse your hands, how do you tend to do this?</em><br />I wash for at least 20 seconds; I normally use soap or handsanitiser; I clean under my nails and between my fingers; None of the above</p><p><strong>Health status</strong></p><p><em>Is one or more of the following true for you</em><br />I prefer not to answer this question; I have cancer and am currently undergoing treatment; I have longterm kidney disease; I am pregnant; I am a smoker; I take anti-inflammatory or immunosuppressant drugs; I have a chronic respiratory disease; I have heart disease; I have diabetes</p>"		en		N	N		0																																																																																																																																				
197		SQ		SQ001	1	" Do the questions capture the risks run by this person?"		en			N		0																																																																																																																																				
166		Q	T	commentsquestionsv12	1	"Comments, questions, additions?"		en		N	N		0																																																																																																																																				
