<?xml version='1.0' encoding='UTF-8' ?>
<svg xmlns='http://www.w3.org/2000/svg' xmlns:xlink='http://www.w3.org/1999/xlink' viewBox='0 0 510.24 65.20'>
<defs>
  <style type='text/css'><![CDATA[
    line, polyline, polygon, path, rect, circle {
      fill: none;
      stroke: #000000;
      stroke-linecap: round;
      stroke-linejoin: round;
      stroke-miterlimit: 10.00;
    }
  ]]></style>
</defs>
<rect width='100%' height='100%' style='stroke: none; fill: none;'/>
<defs>
  <clipPath id='cpMTc2Ljk5fDM4Mi40OHw2NS4yMHwxOC4wMA=='>
    <rect x='176.99' y='18.00' width='205.49' height='47.20' />
  </clipPath>
</defs>
<rect x='176.99' y='18.00' width='205.49' height='47.20' style='stroke-width: 0.78; stroke: #FFFFFF; fill: #FFFFFF;' clip-path='url(#cpMTc2Ljk5fDM4Mi40OHw2NS4yMHwxOC4wMA==)' />
<defs>
  <clipPath id='cpMC4wMHw1MTAuMjR8NjUuMjB8MC4wMA=='>
    <rect x='0.00' y='0.00' width='510.24' height='65.20' />
  </clipPath>
</defs>
<defs>
  <clipPath id='cpMjE4LjAwfDM0NS43NXw0Mi43MHwyMS45OQ=='>
    <rect x='218.00' y='21.99' width='127.75' height='20.71' />
  </clipPath>
</defs>
<rect x='218.00' y='21.99' width='127.75' height='20.71' style='stroke-width: 0.78; stroke: none; fill: #FFFFFF;' clip-path='url(#cpMjE4LjAwfDM0NS43NXw0Mi43MHwyMS45OQ==)' />
<polyline points='221.59,42.70 221.59,21.99 ' style='stroke-width: 0.39; stroke: #EBEBEB; stroke-linecap: butt;' clip-path='url(#cpMjE4LjAwfDM0NS43NXw0Mi43MHwyMS45OQ==)' />
<polyline points='248.59,42.70 248.59,21.99 ' style='stroke-width: 0.39; stroke: #EBEBEB; stroke-linecap: butt;' clip-path='url(#cpMjE4LjAwfDM0NS43NXw0Mi43MHwyMS45OQ==)' />
<polyline points='275.60,42.70 275.60,21.99 ' style='stroke-width: 0.39; stroke: #EBEBEB; stroke-linecap: butt;' clip-path='url(#cpMjE4LjAwfDM0NS43NXw0Mi43MHwyMS45OQ==)' />
<polyline points='302.60,42.70 302.60,21.99 ' style='stroke-width: 0.39; stroke: #EBEBEB; stroke-linecap: butt;' clip-path='url(#cpMjE4LjAwfDM0NS43NXw0Mi43MHwyMS45OQ==)' />
<polyline points='329.60,42.70 329.60,21.99 ' style='stroke-width: 0.39; stroke: #EBEBEB; stroke-linecap: butt;' clip-path='url(#cpMjE4LjAwfDM0NS43NXw0Mi43MHwyMS45OQ==)' />
<polyline points='218.00,32.32 345.75,32.32 ' style='stroke-width: 0.78; stroke: #EBEBEB; stroke-linecap: butt;' clip-path='url(#cpMjE4LjAwfDM0NS43NXw0Mi43MHwyMS45OQ==)' />
<polyline points='235.09,42.70 235.09,21.99 ' style='stroke-width: 0.78; stroke: #EBEBEB; stroke-linecap: butt;' clip-path='url(#cpMjE4LjAwfDM0NS43NXw0Mi43MHwyMS45OQ==)' />
<polyline points='262.09,42.70 262.09,21.99 ' style='stroke-width: 0.78; stroke: #EBEBEB; stroke-linecap: butt;' clip-path='url(#cpMjE4LjAwfDM0NS43NXw0Mi43MHwyMS45OQ==)' />
<polyline points='289.10,42.70 289.10,21.99 ' style='stroke-width: 0.78; stroke: #EBEBEB; stroke-linecap: butt;' clip-path='url(#cpMjE4LjAwfDM0NS43NXw0Mi43MHwyMS45OQ==)' />
<polyline points='316.10,42.70 316.10,21.99 ' style='stroke-width: 0.78; stroke: #EBEBEB; stroke-linecap: butt;' clip-path='url(#cpMjE4LjAwfDM0NS43NXw0Mi43MHwyMS45OQ==)' />
<polyline points='343.11,42.70 343.11,21.99 ' style='stroke-width: 0.78; stroke: #EBEBEB; stroke-linecap: butt;' clip-path='url(#cpMjE4LjAwfDM0NS43NXw0Mi43MHwyMS45OQ==)' />
<circle cx='235.92' cy='34.56' r='2.13' style='stroke-width: 0.00; stroke: #444444; stroke-opacity: 0.10; fill: #444444; fill-opacity: 0.10;' clip-path='url(#cpMjE4LjAwfDM0NS43NXw0Mi43MHwyMS45OQ==)' />
<circle cx='238.61' cy='24.94' r='2.13' style='stroke-width: 0.00; stroke: #444444; stroke-opacity: 0.10; fill: #444444; fill-opacity: 0.10;' clip-path='url(#cpMjE4LjAwfDM0NS43NXw0Mi43MHwyMS45OQ==)' />
<circle cx='245.66' cy='33.01' r='2.13' style='stroke-width: 0.00; stroke: #444444; stroke-opacity: 0.10; fill: #444444; fill-opacity: 0.10;' clip-path='url(#cpMjE4LjAwfDM0NS43NXw0Mi43MHwyMS45OQ==)' />
<circle cx='239.17' cy='36.00' r='2.13' style='stroke-width: 0.00; stroke: #444444; stroke-opacity: 0.10; fill: #444444; fill-opacity: 0.10;' clip-path='url(#cpMjE4LjAwfDM0NS43NXw0Mi43MHwyMS45OQ==)' />
<circle cx='249.08' cy='39.85' r='2.13' style='stroke-width: 0.00; stroke: #444444; stroke-opacity: 0.10; fill: #444444; fill-opacity: 0.10;' clip-path='url(#cpMjE4LjAwfDM0NS43NXw0Mi43MHwyMS45OQ==)' />
<circle cx='255.83' cy='25.19' r='2.13' style='stroke-width: 0.00; stroke: #444444; stroke-opacity: 0.10; fill: #444444; fill-opacity: 0.10;' clip-path='url(#cpMjE4LjAwfDM0NS43NXw0Mi43MHwyMS45OQ==)' />
<circle cx='267.51' cy='29.76' r='2.13' style='stroke-width: 0.00; stroke: #444444; stroke-opacity: 0.10; fill: #444444; fill-opacity: 0.10;' clip-path='url(#cpMjE4LjAwfDM0NS43NXw0Mi43MHwyMS45OQ==)' />
<circle cx='246.87' cy='37.45' r='2.13' style='stroke-width: 0.00; stroke: #444444; stroke-opacity: 0.10; fill: #444444; fill-opacity: 0.10;' clip-path='url(#cpMjE4LjAwfDM0NS43NXw0Mi43MHwyMS45OQ==)' />
<circle cx='249.52' cy='30.92' r='2.13' style='stroke-width: 0.00; stroke: #444444; stroke-opacity: 0.10; fill: #444444; fill-opacity: 0.10;' clip-path='url(#cpMjE4LjAwfDM0NS43NXw0Mi43MHwyMS45OQ==)' />
<circle cx='246.17' cy='27.09' r='2.13' style='stroke-width: 0.00; stroke: #444444; stroke-opacity: 0.10; fill: #444444; fill-opacity: 0.10;' clip-path='url(#cpMjE4LjAwfDM0NS43NXw0Mi43MHwyMS45OQ==)' />
<circle cx='245.60' cy='37.97' r='2.13' style='stroke-width: 0.00; stroke: #444444; stroke-opacity: 0.10; fill: #444444; fill-opacity: 0.10;' clip-path='url(#cpMjE4LjAwfDM0NS43NXw0Mi43MHwyMS45OQ==)' />
<circle cx='254.64' cy='23.68' r='2.13' style='stroke-width: 0.00; stroke: #444444; stroke-opacity: 0.10; fill: #444444; fill-opacity: 0.10;' clip-path='url(#cpMjE4LjAwfDM0NS43NXw0Mi43MHwyMS45OQ==)' />
<circle cx='243.74' cy='30.06' r='2.13' style='stroke-width: 0.00; stroke: #444444; stroke-opacity: 0.10; fill: #444444; fill-opacity: 0.10;' clip-path='url(#cpMjE4LjAwfDM0NS43NXw0Mi43MHwyMS45OQ==)' />
<circle cx='250.95' cy='39.65' r='2.13' style='stroke-width: 0.00; stroke: #444444; stroke-opacity: 0.10; fill: #444444; fill-opacity: 0.10;' clip-path='url(#cpMjE4LjAwfDM0NS43NXw0Mi43MHwyMS45OQ==)' />
<circle cx='250.09' cy='29.94' r='2.13' style='stroke-width: 0.00; stroke: #444444; stroke-opacity: 0.10; fill: #444444; fill-opacity: 0.10;' clip-path='url(#cpMjE4LjAwfDM0NS43NXw0Mi43MHwyMS45OQ==)' />
<circle cx='242.06' cy='24.04' r='2.13' style='stroke-width: 0.00; stroke: #444444; stroke-opacity: 0.10; fill: #444444; fill-opacity: 0.10;' clip-path='url(#cpMjE4LjAwfDM0NS43NXw0Mi43MHwyMS45OQ==)' />
<circle cx='245.51' cy='33.85' r='2.13' style='stroke-width: 0.00; stroke: #444444; stroke-opacity: 0.10; fill: #444444; fill-opacity: 0.10;' clip-path='url(#cpMjE4LjAwfDM0NS43NXw0Mi43MHwyMS45OQ==)' />
<circle cx='249.40' cy='29.62' r='2.13' style='stroke-width: 0.00; stroke: #444444; stroke-opacity: 0.10; fill: #444444; fill-opacity: 0.10;' clip-path='url(#cpMjE4LjAwfDM0NS43NXw0Mi43MHwyMS45OQ==)' />
<circle cx='255.75' cy='33.10' r='2.13' style='stroke-width: 0.00; stroke: #444444; stroke-opacity: 0.10; fill: #444444; fill-opacity: 0.10;' clip-path='url(#cpMjE4LjAwfDM0NS43NXw0Mi43MHwyMS45OQ==)' />
<circle cx='249.49' cy='40.20' r='2.13' style='stroke-width: 0.00; stroke: #444444; stroke-opacity: 0.10; fill: #444444; fill-opacity: 0.10;' clip-path='url(#cpMjE4LjAwfDM0NS43NXw0Mi43MHwyMS45OQ==)' />
<circle cx='249.40' cy='27.85' r='2.13' style='stroke-width: 0.00; stroke: #444444; stroke-opacity: 0.10; fill: #444444; fill-opacity: 0.10;' clip-path='url(#cpMjE4LjAwfDM0NS43NXw0Mi43MHwyMS45OQ==)' />
<circle cx='244.81' cy='36.75' r='2.13' style='stroke-width: 0.00; stroke: #444444; stroke-opacity: 0.10; fill: #444444; fill-opacity: 0.10;' clip-path='url(#cpMjE4LjAwfDM0NS43NXw0Mi43MHwyMS45OQ==)' />
<circle cx='252.72' cy='39.61' r='2.13' style='stroke-width: 0.00; stroke: #444444; stroke-opacity: 0.10; fill: #444444; fill-opacity: 0.10;' clip-path='url(#cpMjE4LjAwfDM0NS43NXw0Mi43MHwyMS45OQ==)' />
<circle cx='252.46' cy='36.12' r='2.13' style='stroke-width: 0.00; stroke: #444444; stroke-opacity: 0.10; fill: #444444; fill-opacity: 0.10;' clip-path='url(#cpMjE4LjAwfDM0NS43NXw0Mi43MHwyMS45OQ==)' />
<circle cx='236.80' cy='37.33' r='2.13' style='stroke-width: 0.00; stroke: #444444; stroke-opacity: 0.10; fill: #444444; fill-opacity: 0.10;' clip-path='url(#cpMjE4LjAwfDM0NS43NXw0Mi43MHwyMS45OQ==)' />
<circle cx='230.08' cy='35.70' r='2.13' style='stroke-width: 0.00; stroke: #444444; stroke-opacity: 0.10; fill: #444444; fill-opacity: 0.10;' clip-path='url(#cpMjE4LjAwfDM0NS43NXw0Mi43MHwyMS45OQ==)' />
<circle cx='250.14' cy='26.10' r='2.13' style='stroke-width: 0.00; stroke: #444444; stroke-opacity: 0.10; fill: #444444; fill-opacity: 0.10;' clip-path='url(#cpMjE4LjAwfDM0NS43NXw0Mi43MHwyMS45OQ==)' />
<circle cx='259.66' cy='40.07' r='2.13' style='stroke-width: 0.00; stroke: #444444; stroke-opacity: 0.10; fill: #444444; fill-opacity: 0.10;' clip-path='url(#cpMjE4LjAwfDM0NS43NXw0Mi43MHwyMS45OQ==)' />
<circle cx='235.59' cy='39.86' r='2.13' style='stroke-width: 0.00; stroke: #444444; stroke-opacity: 0.10; fill: #444444; fill-opacity: 0.10;' clip-path='url(#cpMjE4LjAwfDM0NS43NXw0Mi43MHwyMS45OQ==)' />
<circle cx='233.93' cy='27.71' r='2.13' style='stroke-width: 0.00; stroke: #444444; stroke-opacity: 0.10; fill: #444444; fill-opacity: 0.10;' clip-path='url(#cpMjE4LjAwfDM0NS43NXw0Mi43MHwyMS45OQ==)' />
<circle cx='263.93' cy='32.28' r='2.13' style='stroke-width: 0.00; stroke: #444444; stroke-opacity: 0.10; fill: #444444; fill-opacity: 0.10;' clip-path='url(#cpMjE4LjAwfDM0NS43NXw0Mi43MHwyMS45OQ==)' />
<circle cx='259.30' cy='37.63' r='2.13' style='stroke-width: 0.00; stroke: #444444; stroke-opacity: 0.10; fill: #444444; fill-opacity: 0.10;' clip-path='url(#cpMjE4LjAwfDM0NS43NXw0Mi43MHwyMS45OQ==)' />
<circle cx='248.86' cy='23.10' r='2.13' style='stroke-width: 0.00; stroke: #444444; stroke-opacity: 0.10; fill: #444444; fill-opacity: 0.10;' clip-path='url(#cpMjE4LjAwfDM0NS43NXw0Mi43MHwyMS45OQ==)' />
<circle cx='248.52' cy='30.53' r='2.13' style='stroke-width: 0.00; stroke: #444444; stroke-opacity: 0.10; fill: #444444; fill-opacity: 0.10;' clip-path='url(#cpMjE4LjAwfDM0NS43NXw0Mi43MHwyMS45OQ==)' />
<circle cx='261.08' cy='40.14' r='2.13' style='stroke-width: 0.00; stroke: #444444; stroke-opacity: 0.10; fill: #444444; fill-opacity: 0.10;' clip-path='url(#cpMjE4LjAwfDM0NS43NXw0Mi43MHwyMS45OQ==)' />
<circle cx='248.63' cy='33.08' r='2.13' style='stroke-width: 0.00; stroke: #444444; stroke-opacity: 0.10; fill: #444444; fill-opacity: 0.10;' clip-path='url(#cpMjE4LjAwfDM0NS43NXw0Mi43MHwyMS45OQ==)' />
<circle cx='241.67' cy='33.25' r='2.13' style='stroke-width: 0.00; stroke: #444444; stroke-opacity: 0.10; fill: #444444; fill-opacity: 0.10;' clip-path='url(#cpMjE4LjAwfDM0NS43NXw0Mi43MHwyMS45OQ==)' />
<circle cx='237.96' cy='31.92' r='2.13' style='stroke-width: 0.00; stroke: #444444; stroke-opacity: 0.10; fill: #444444; fill-opacity: 0.10;' clip-path='url(#cpMjE4LjAwfDM0NS43NXw0Mi43MHwyMS45OQ==)' />
<circle cx='255.55' cy='22.93' r='2.13' style='stroke-width: 0.00; stroke: #444444; stroke-opacity: 0.10; fill: #444444; fill-opacity: 0.10;' clip-path='url(#cpMjE4LjAwfDM0NS43NXw0Mi43MHwyMS45OQ==)' />
<circle cx='245.87' cy='31.92' r='2.13' style='stroke-width: 0.00; stroke: #444444; stroke-opacity: 0.10; fill: #444444; fill-opacity: 0.10;' clip-path='url(#cpMjE4LjAwfDM0NS43NXw0Mi43MHwyMS45OQ==)' />
<circle cx='276.64' cy='26.47' r='2.13' style='stroke-width: 0.00; stroke: #444444; stroke-opacity: 0.10; fill: #444444; fill-opacity: 0.10;' clip-path='url(#cpMjE4LjAwfDM0NS43NXw0Mi43MHwyMS45OQ==)' />
<circle cx='256.02' cy='34.35' r='2.13' style='stroke-width: 0.00; stroke: #444444; stroke-opacity: 0.10; fill: #444444; fill-opacity: 0.10;' clip-path='url(#cpMjE4LjAwfDM0NS43NXw0Mi43MHwyMS45OQ==)' />
<circle cx='260.92' cy='29.36' r='2.13' style='stroke-width: 0.00; stroke: #444444; stroke-opacity: 0.10; fill: #444444; fill-opacity: 0.10;' clip-path='url(#cpMjE4LjAwfDM0NS43NXw0Mi43MHwyMS45OQ==)' />
<circle cx='235.17' cy='37.88' r='2.13' style='stroke-width: 0.00; stroke: #444444; stroke-opacity: 0.10; fill: #444444; fill-opacity: 0.10;' clip-path='url(#cpMjE4LjAwfDM0NS43NXw0Mi43MHwyMS45OQ==)' />
<circle cx='273.45' cy='36.00' r='2.13' style='stroke-width: 0.00; stroke: #444444; stroke-opacity: 0.10; fill: #444444; fill-opacity: 0.10;' clip-path='url(#cpMjE4LjAwfDM0NS43NXw0Mi43MHwyMS45OQ==)' />
<circle cx='251.77' cy='33.08' r='2.13' style='stroke-width: 0.00; stroke: #444444; stroke-opacity: 0.10; fill: #444444; fill-opacity: 0.10;' clip-path='url(#cpMjE4LjAwfDM0NS43NXw0Mi43MHwyMS45OQ==)' />
<circle cx='245.20' cy='32.70' r='2.13' style='stroke-width: 0.00; stroke: #444444; stroke-opacity: 0.10; fill: #444444; fill-opacity: 0.10;' clip-path='url(#cpMjE4LjAwfDM0NS43NXw0Mi43MHwyMS45OQ==)' />
<circle cx='261.40' cy='29.81' r='2.13' style='stroke-width: 0.00; stroke: #444444; stroke-opacity: 0.10; fill: #444444; fill-opacity: 0.10;' clip-path='url(#cpMjE4LjAwfDM0NS43NXw0Mi43MHwyMS45OQ==)' />
<circle cx='259.92' cy='24.74' r='2.13' style='stroke-width: 0.00; stroke: #444444; stroke-opacity: 0.10; fill: #444444; fill-opacity: 0.10;' clip-path='url(#cpMjE4LjAwfDM0NS43NXw0Mi43MHwyMS45OQ==)' />
<circle cx='240.60' cy='31.44' r='2.13' style='stroke-width: 0.00; stroke: #444444; stroke-opacity: 0.10; fill: #444444; fill-opacity: 0.10;' clip-path='url(#cpMjE4LjAwfDM0NS43NXw0Mi43MHwyMS45OQ==)' />
<circle cx='246.95' cy='38.44' r='2.13' style='stroke-width: 0.00; stroke: #444444; stroke-opacity: 0.10; fill: #444444; fill-opacity: 0.10;' clip-path='url(#cpMjE4LjAwfDM0NS43NXw0Mi43MHwyMS45OQ==)' />
<circle cx='244.70' cy='27.59' r='2.13' style='stroke-width: 0.00; stroke: #444444; stroke-opacity: 0.10; fill: #444444; fill-opacity: 0.10;' clip-path='url(#cpMjE4LjAwfDM0NS43NXw0Mi43MHwyMS45OQ==)' />
<circle cx='236.54' cy='39.57' r='2.13' style='stroke-width: 0.00; stroke: #444444; stroke-opacity: 0.10; fill: #444444; fill-opacity: 0.10;' clip-path='url(#cpMjE4LjAwfDM0NS43NXw0Mi43MHwyMS45OQ==)' />
<circle cx='244.36' cy='28.58' r='2.13' style='stroke-width: 0.00; stroke: #444444; stroke-opacity: 0.10; fill: #444444; fill-opacity: 0.10;' clip-path='url(#cpMjE4LjAwfDM0NS43NXw0Mi43MHwyMS45OQ==)' />
<circle cx='227.91' cy='36.72' r='2.13' style='stroke-width: 0.00; stroke: #444444; stroke-opacity: 0.10; fill: #444444; fill-opacity: 0.10;' clip-path='url(#cpMjE4LjAwfDM0NS43NXw0Mi43MHwyMS45OQ==)' />
<circle cx='241.49' cy='36.39' r='2.13' style='stroke-width: 0.00; stroke: #444444; stroke-opacity: 0.10; fill: #444444; fill-opacity: 0.10;' clip-path='url(#cpMjE4LjAwfDM0NS43NXw0Mi43MHwyMS45OQ==)' />
<circle cx='246.38' cy='41.38' r='2.13' style='stroke-width: 0.00; stroke: #444444; stroke-opacity: 0.10; fill: #444444; fill-opacity: 0.10;' clip-path='url(#cpMjE4LjAwfDM0NS43NXw0Mi43MHwyMS45OQ==)' />
<circle cx='241.32' cy='34.90' r='2.13' style='stroke-width: 0.00; stroke: #444444; stroke-opacity: 0.10; fill: #444444; fill-opacity: 0.10;' clip-path='url(#cpMjE4LjAwfDM0NS43NXw0Mi43MHwyMS45OQ==)' />
<circle cx='242.53' cy='32.36' r='2.13' style='stroke-width: 0.00; stroke: #444444; stroke-opacity: 0.10; fill: #444444; fill-opacity: 0.10;' clip-path='url(#cpMjE4LjAwfDM0NS43NXw0Mi43MHwyMS45OQ==)' />
<circle cx='236.99' cy='41.69' r='2.13' style='stroke-width: 0.00; stroke: #444444; stroke-opacity: 0.10; fill: #444444; fill-opacity: 0.10;' clip-path='url(#cpMjE4LjAwfDM0NS43NXw0Mi43MHwyMS45OQ==)' />
<circle cx='254.28' cy='25.20' r='2.13' style='stroke-width: 0.00; stroke: #444444; stroke-opacity: 0.10; fill: #444444; fill-opacity: 0.10;' clip-path='url(#cpMjE4LjAwfDM0NS43NXw0Mi43MHwyMS45OQ==)' />
<circle cx='232.19' cy='31.35' r='2.13' style='stroke-width: 0.00; stroke: #444444; stroke-opacity: 0.10; fill: #444444; fill-opacity: 0.10;' clip-path='url(#cpMjE4LjAwfDM0NS43NXw0Mi43MHwyMS45OQ==)' />
<circle cx='245.80' cy='36.86' r='2.13' style='stroke-width: 0.00; stroke: #444444; stroke-opacity: 0.10; fill: #444444; fill-opacity: 0.10;' clip-path='url(#cpMjE4LjAwfDM0NS43NXw0Mi43MHwyMS45OQ==)' />
<circle cx='244.04' cy='34.46' r='2.13' style='stroke-width: 0.00; stroke: #444444; stroke-opacity: 0.10; fill: #444444; fill-opacity: 0.10;' clip-path='url(#cpMjE4LjAwfDM0NS43NXw0Mi43MHwyMS45OQ==)' />
<circle cx='236.77' cy='32.40' r='2.13' style='stroke-width: 0.00; stroke: #444444; stroke-opacity: 0.10; fill: #444444; fill-opacity: 0.10;' clip-path='url(#cpMjE4LjAwfDM0NS43NXw0Mi43MHwyMS45OQ==)' />
<circle cx='250.92' cy='23.55' r='2.13' style='stroke-width: 0.00; stroke: #444444; stroke-opacity: 0.10; fill: #444444; fill-opacity: 0.10;' clip-path='url(#cpMjE4LjAwfDM0NS43NXw0Mi43MHwyMS45OQ==)' />
<circle cx='252.84' cy='40.21' r='2.13' style='stroke-width: 0.00; stroke: #444444; stroke-opacity: 0.10; fill: #444444; fill-opacity: 0.10;' clip-path='url(#cpMjE4LjAwfDM0NS43NXw0Mi43MHwyMS45OQ==)' />
<circle cx='239.51' cy='27.50' r='2.13' style='stroke-width: 0.00; stroke: #444444; stroke-opacity: 0.10; fill: #444444; fill-opacity: 0.10;' clip-path='url(#cpMjE4LjAwfDM0NS43NXw0Mi43MHwyMS45OQ==)' />
<circle cx='229.87' cy='28.54' r='2.13' style='stroke-width: 0.00; stroke: #444444; stroke-opacity: 0.10; fill: #444444; fill-opacity: 0.10;' clip-path='url(#cpMjE4LjAwfDM0NS43NXw0Mi43MHwyMS45OQ==)' />
<circle cx='244.19' cy='28.79' r='2.13' style='stroke-width: 0.00; stroke: #444444; stroke-opacity: 0.10; fill: #444444; fill-opacity: 0.10;' clip-path='url(#cpMjE4LjAwfDM0NS43NXw0Mi43MHwyMS45OQ==)' />
<circle cx='254.22' cy='36.94' r='2.13' style='stroke-width: 0.00; stroke: #444444; stroke-opacity: 0.10; fill: #444444; fill-opacity: 0.10;' clip-path='url(#cpMjE4LjAwfDM0NS43NXw0Mi43MHwyMS45OQ==)' />
<circle cx='242.09' cy='39.06' r='2.13' style='stroke-width: 0.00; stroke: #444444; stroke-opacity: 0.10; fill: #444444; fill-opacity: 0.10;' clip-path='url(#cpMjE4LjAwfDM0NS43NXw0Mi43MHwyMS45OQ==)' />
<circle cx='226.41' cy='31.31' r='2.13' style='stroke-width: 0.00; stroke: #444444; stroke-opacity: 0.10; fill: #444444; fill-opacity: 0.10;' clip-path='url(#cpMjE4LjAwfDM0NS43NXw0Mi43MHwyMS45OQ==)' />
<circle cx='246.24' cy='28.55' r='2.13' style='stroke-width: 0.00; stroke: #444444; stroke-opacity: 0.10; fill: #444444; fill-opacity: 0.10;' clip-path='url(#cpMjE4LjAwfDM0NS43NXw0Mi43MHwyMS45OQ==)' />
<circle cx='247.72' cy='38.27' r='2.13' style='stroke-width: 0.00; stroke: #444444; stroke-opacity: 0.10; fill: #444444; fill-opacity: 0.10;' clip-path='url(#cpMjE4LjAwfDM0NS43NXw0Mi43MHwyMS45OQ==)' />
<circle cx='250.94' cy='34.27' r='2.13' style='stroke-width: 0.00; stroke: #444444; stroke-opacity: 0.10; fill: #444444; fill-opacity: 0.10;' clip-path='url(#cpMjE4LjAwfDM0NS43NXw0Mi43MHwyMS45OQ==)' />
<circle cx='245.31' cy='32.04' r='2.13' style='stroke-width: 0.00; stroke: #444444; stroke-opacity: 0.10; fill: #444444; fill-opacity: 0.10;' clip-path='url(#cpMjE4LjAwfDM0NS43NXw0Mi43MHwyMS45OQ==)' />
<circle cx='262.02' cy='27.81' r='2.13' style='stroke-width: 0.00; stroke: #444444; stroke-opacity: 0.10; fill: #444444; fill-opacity: 0.10;' clip-path='url(#cpMjE4LjAwfDM0NS43NXw0Mi43MHwyMS45OQ==)' />
<circle cx='262.76' cy='30.31' r='2.13' style='stroke-width: 0.00; stroke: #444444; stroke-opacity: 0.10; fill: #444444; fill-opacity: 0.10;' clip-path='url(#cpMjE4LjAwfDM0NS43NXw0Mi43MHwyMS45OQ==)' />
<circle cx='237.78' cy='39.21' r='2.13' style='stroke-width: 0.00; stroke: #444444; stroke-opacity: 0.10; fill: #444444; fill-opacity: 0.10;' clip-path='url(#cpMjE4LjAwfDM0NS43NXw0Mi43MHwyMS45OQ==)' />
<circle cx='236.52' cy='30.81' r='2.13' style='stroke-width: 0.00; stroke: #444444; stroke-opacity: 0.10; fill: #444444; fill-opacity: 0.10;' clip-path='url(#cpMjE4LjAwfDM0NS43NXw0Mi43MHwyMS45OQ==)' />
<circle cx='242.38' cy='24.62' r='2.13' style='stroke-width: 0.00; stroke: #444444; stroke-opacity: 0.10; fill: #444444; fill-opacity: 0.10;' clip-path='url(#cpMjE4LjAwfDM0NS43NXw0Mi43MHwyMS45OQ==)' />
<circle cx='253.79' cy='39.00' r='2.13' style='stroke-width: 0.00; stroke: #444444; stroke-opacity: 0.10; fill: #444444; fill-opacity: 0.10;' clip-path='url(#cpMjE4LjAwfDM0NS43NXw0Mi43MHwyMS45OQ==)' />
<circle cx='242.92' cy='34.42' r='2.13' style='stroke-width: 0.00; stroke: #444444; stroke-opacity: 0.10; fill: #444444; fill-opacity: 0.10;' clip-path='url(#cpMjE4LjAwfDM0NS43NXw0Mi43MHwyMS45OQ==)' />
<circle cx='234.07' cy='35.03' r='2.13' style='stroke-width: 0.00; stroke: #444444; stroke-opacity: 0.10; fill: #444444; fill-opacity: 0.10;' clip-path='url(#cpMjE4LjAwfDM0NS43NXw0Mi43MHwyMS45OQ==)' />
<circle cx='290.36' cy='35.78' r='2.13' style='stroke-width: 0.00; stroke: #444444; stroke-opacity: 0.10; fill: #444444; fill-opacity: 0.10;' clip-path='url(#cpMjE4LjAwfDM0NS43NXw0Mi43MHwyMS45OQ==)' />
<circle cx='241.84' cy='29.90' r='2.13' style='stroke-width: 0.00; stroke: #444444; stroke-opacity: 0.10; fill: #444444; fill-opacity: 0.10;' clip-path='url(#cpMjE4LjAwfDM0NS43NXw0Mi43MHwyMS45OQ==)' />
<circle cx='236.86' cy='25.93' r='2.13' style='stroke-width: 0.00; stroke: #444444; stroke-opacity: 0.10; fill: #444444; fill-opacity: 0.10;' clip-path='url(#cpMjE4LjAwfDM0NS43NXw0Mi43MHwyMS45OQ==)' />
<circle cx='229.76' cy='30.91' r='2.13' style='stroke-width: 0.00; stroke: #444444; stroke-opacity: 0.10; fill: #444444; fill-opacity: 0.10;' clip-path='url(#cpMjE4LjAwfDM0NS43NXw0Mi43MHwyMS45OQ==)' />
<circle cx='272.54' cy='23.63' r='2.13' style='stroke-width: 0.00; stroke: #444444; stroke-opacity: 0.10; fill: #444444; fill-opacity: 0.10;' clip-path='url(#cpMjE4LjAwfDM0NS43NXw0Mi43MHwyMS45OQ==)' />
<circle cx='243.95' cy='38.25' r='2.13' style='stroke-width: 0.00; stroke: #444444; stroke-opacity: 0.10; fill: #444444; fill-opacity: 0.10;' clip-path='url(#cpMjE4LjAwfDM0NS43NXw0Mi43MHwyMS45OQ==)' />
<circle cx='250.41' cy='27.31' r='2.13' style='stroke-width: 0.00; stroke: #444444; stroke-opacity: 0.10; fill: #444444; fill-opacity: 0.10;' clip-path='url(#cpMjE4LjAwfDM0NS43NXw0Mi43MHwyMS45OQ==)' />
<circle cx='243.64' cy='39.84' r='2.13' style='stroke-width: 0.00; stroke: #444444; stroke-opacity: 0.10; fill: #444444; fill-opacity: 0.10;' clip-path='url(#cpMjE4LjAwfDM0NS43NXw0Mi43MHwyMS45OQ==)' />
<circle cx='255.08' cy='23.28' r='2.13' style='stroke-width: 0.00; stroke: #444444; stroke-opacity: 0.10; fill: #444444; fill-opacity: 0.10;' clip-path='url(#cpMjE4LjAwfDM0NS43NXw0Mi43MHwyMS45OQ==)' />
<circle cx='268.65' cy='26.65' r='2.13' style='stroke-width: 0.00; stroke: #444444; stroke-opacity: 0.10; fill: #444444; fill-opacity: 0.10;' clip-path='url(#cpMjE4LjAwfDM0NS43NXw0Mi43MHwyMS45OQ==)' />
<circle cx='252.01' cy='35.31' r='2.13' style='stroke-width: 0.00; stroke: #444444; stroke-opacity: 0.10; fill: #444444; fill-opacity: 0.10;' clip-path='url(#cpMjE4LjAwfDM0NS43NXw0Mi43MHwyMS45OQ==)' />
<circle cx='246.28' cy='38.80' r='2.13' style='stroke-width: 0.00; stroke: #444444; stroke-opacity: 0.10; fill: #444444; fill-opacity: 0.10;' clip-path='url(#cpMjE4LjAwfDM0NS43NXw0Mi43MHwyMS45OQ==)' />
<circle cx='251.87' cy='31.95' r='2.13' style='stroke-width: 0.00; stroke: #444444; stroke-opacity: 0.10; fill: #444444; fill-opacity: 0.10;' clip-path='url(#cpMjE4LjAwfDM0NS43NXw0Mi43MHwyMS45OQ==)' />
<circle cx='240.19' cy='38.26' r='2.13' style='stroke-width: 0.00; stroke: #444444; stroke-opacity: 0.10; fill: #444444; fill-opacity: 0.10;' clip-path='url(#cpMjE4LjAwfDM0NS43NXw0Mi43MHwyMS45OQ==)' />
<circle cx='239.57' cy='29.81' r='2.13' style='stroke-width: 0.00; stroke: #444444; stroke-opacity: 0.10; fill: #444444; fill-opacity: 0.10;' clip-path='url(#cpMjE4LjAwfDM0NS43NXw0Mi43MHwyMS45OQ==)' />
<circle cx='246.67' cy='27.54' r='2.13' style='stroke-width: 0.00; stroke: #444444; stroke-opacity: 0.10; fill: #444444; fill-opacity: 0.10;' clip-path='url(#cpMjE4LjAwfDM0NS43NXw0Mi43MHwyMS45OQ==)' />
<circle cx='243.45' cy='41.34' r='2.13' style='stroke-width: 0.00; stroke: #444444; stroke-opacity: 0.10; fill: #444444; fill-opacity: 0.10;' clip-path='url(#cpMjE4LjAwfDM0NS43NXw0Mi43MHwyMS45OQ==)' />
<circle cx='243.20' cy='38.66' r='2.13' style='stroke-width: 0.00; stroke: #444444; stroke-opacity: 0.10; fill: #444444; fill-opacity: 0.10;' clip-path='url(#cpMjE4LjAwfDM0NS43NXw0Mi43MHwyMS45OQ==)' />
<circle cx='233.70' cy='34.40' r='2.13' style='stroke-width: 0.00; stroke: #444444; stroke-opacity: 0.10; fill: #444444; fill-opacity: 0.10;' clip-path='url(#cpMjE4LjAwfDM0NS43NXw0Mi43MHwyMS45OQ==)' />
<circle cx='278.58' cy='39.65' r='2.13' style='stroke-width: 0.00; stroke: #444444; stroke-opacity: 0.10; fill: #444444; fill-opacity: 0.10;' clip-path='url(#cpMjE4LjAwfDM0NS43NXw0Mi43MHwyMS45OQ==)' />
<circle cx='262.99' cy='38.15' r='2.13' style='stroke-width: 0.00; stroke: #444444; stroke-opacity: 0.10; fill: #444444; fill-opacity: 0.10;' clip-path='url(#cpMjE4LjAwfDM0NS43NXw0Mi43MHwyMS45OQ==)' />
<circle cx='243.29' cy='36.40' r='2.13' style='stroke-width: 0.00; stroke: #444444; stroke-opacity: 0.10; fill: #444444; fill-opacity: 0.10;' clip-path='url(#cpMjE4LjAwfDM0NS43NXw0Mi43MHwyMS45OQ==)' />
<circle cx='298.14' cy='29.56' r='2.13' style='stroke-width: 0.00; stroke: #444444; stroke-opacity: 0.10; fill: #444444; fill-opacity: 0.10;' clip-path='url(#cpMjE4LjAwfDM0NS43NXw0Mi43MHwyMS45OQ==)' />
<circle cx='243.35' cy='27.98' r='2.13' style='stroke-width: 0.00; stroke: #444444; stroke-opacity: 0.10; fill: #444444; fill-opacity: 0.10;' clip-path='url(#cpMjE4LjAwfDM0NS43NXw0Mi43MHwyMS45OQ==)' />
<circle cx='248.48' cy='38.34' r='2.13' style='stroke-width: 0.00; stroke: #444444; stroke-opacity: 0.10; fill: #444444; fill-opacity: 0.10;' clip-path='url(#cpMjE4LjAwfDM0NS43NXw0Mi43MHwyMS45OQ==)' />
<circle cx='225.68' cy='28.10' r='2.13' style='stroke-width: 0.00; stroke: #444444; stroke-opacity: 0.10; fill: #444444; fill-opacity: 0.10;' clip-path='url(#cpMjE4LjAwfDM0NS43NXw0Mi43MHwyMS45OQ==)' />
<circle cx='252.60' cy='33.42' r='2.13' style='stroke-width: 0.00; stroke: #444444; stroke-opacity: 0.10; fill: #444444; fill-opacity: 0.10;' clip-path='url(#cpMjE4LjAwfDM0NS43NXw0Mi43MHwyMS45OQ==)' />
<circle cx='227.14' cy='33.42' r='2.13' style='stroke-width: 0.00; stroke: #444444; stroke-opacity: 0.10; fill: #444444; fill-opacity: 0.10;' clip-path='url(#cpMjE4LjAwfDM0NS43NXw0Mi43MHwyMS45OQ==)' />
<circle cx='241.89' cy='33.74' r='2.13' style='stroke-width: 0.00; stroke: #444444; stroke-opacity: 0.10; fill: #444444; fill-opacity: 0.10;' clip-path='url(#cpMjE4LjAwfDM0NS43NXw0Mi43MHwyMS45OQ==)' />
<circle cx='226.99' cy='41.51' r='2.13' style='stroke-width: 0.00; stroke: #444444; stroke-opacity: 0.10; fill: #444444; fill-opacity: 0.10;' clip-path='url(#cpMjE4LjAwfDM0NS43NXw0Mi43MHwyMS45OQ==)' />
<circle cx='245.95' cy='34.28' r='2.13' style='stroke-width: 0.00; stroke: #444444; stroke-opacity: 0.10; fill: #444444; fill-opacity: 0.10;' clip-path='url(#cpMjE4LjAwfDM0NS43NXw0Mi43MHwyMS45OQ==)' />
<circle cx='229.35' cy='24.56' r='2.13' style='stroke-width: 0.00; stroke: #444444; stroke-opacity: 0.10; fill: #444444; fill-opacity: 0.10;' clip-path='url(#cpMjE4LjAwfDM0NS43NXw0Mi43MHwyMS45OQ==)' />
<circle cx='254.53' cy='28.18' r='2.13' style='stroke-width: 0.00; stroke: #444444; stroke-opacity: 0.10; fill: #444444; fill-opacity: 0.10;' clip-path='url(#cpMjE4LjAwfDM0NS43NXw0Mi43MHwyMS45OQ==)' />
<circle cx='244.91' cy='41.29' r='2.13' style='stroke-width: 0.00; stroke: #444444; stroke-opacity: 0.10; fill: #444444; fill-opacity: 0.10;' clip-path='url(#cpMjE4LjAwfDM0NS43NXw0Mi43MHwyMS45OQ==)' />
<circle cx='255.76' cy='39.78' r='2.13' style='stroke-width: 0.00; stroke: #444444; stroke-opacity: 0.10; fill: #444444; fill-opacity: 0.10;' clip-path='url(#cpMjE4LjAwfDM0NS43NXw0Mi43MHwyMS45OQ==)' />
<circle cx='243.95' cy='34.96' r='2.13' style='stroke-width: 0.00; stroke: #444444; stroke-opacity: 0.10; fill: #444444; fill-opacity: 0.10;' clip-path='url(#cpMjE4LjAwfDM0NS43NXw0Mi43MHwyMS45OQ==)' />
<circle cx='246.52' cy='41.43' r='2.13' style='stroke-width: 0.00; stroke: #444444; stroke-opacity: 0.10; fill: #444444; fill-opacity: 0.10;' clip-path='url(#cpMjE4LjAwfDM0NS43NXw0Mi43MHwyMS45OQ==)' />
<circle cx='238.45' cy='28.23' r='2.13' style='stroke-width: 0.00; stroke: #444444; stroke-opacity: 0.10; fill: #444444; fill-opacity: 0.10;' clip-path='url(#cpMjE4LjAwfDM0NS43NXw0Mi43MHwyMS45OQ==)' />
<circle cx='232.71' cy='29.33' r='2.13' style='stroke-width: 0.00; stroke: #444444; stroke-opacity: 0.10; fill: #444444; fill-opacity: 0.10;' clip-path='url(#cpMjE4LjAwfDM0NS43NXw0Mi43MHwyMS45OQ==)' />
<circle cx='234.45' cy='36.87' r='2.13' style='stroke-width: 0.00; stroke: #444444; stroke-opacity: 0.10; fill: #444444; fill-opacity: 0.10;' clip-path='url(#cpMjE4LjAwfDM0NS43NXw0Mi43MHwyMS45OQ==)' />
<circle cx='252.87' cy='30.88' r='2.13' style='stroke-width: 0.00; stroke: #444444; stroke-opacity: 0.10; fill: #444444; fill-opacity: 0.10;' clip-path='url(#cpMjE4LjAwfDM0NS43NXw0Mi43MHwyMS45OQ==)' />
<circle cx='259.66' cy='26.84' r='2.13' style='stroke-width: 0.00; stroke: #444444; stroke-opacity: 0.10; fill: #444444; fill-opacity: 0.10;' clip-path='url(#cpMjE4LjAwfDM0NS43NXw0Mi43MHwyMS45OQ==)' />
<circle cx='232.86' cy='27.80' r='2.13' style='stroke-width: 0.00; stroke: #444444; stroke-opacity: 0.10; fill: #444444; fill-opacity: 0.10;' clip-path='url(#cpMjE4LjAwfDM0NS43NXw0Mi43MHwyMS45OQ==)' />
<circle cx='243.91' cy='34.48' r='2.13' style='stroke-width: 0.00; stroke: #444444; stroke-opacity: 0.10; fill: #444444; fill-opacity: 0.10;' clip-path='url(#cpMjE4LjAwfDM0NS43NXw0Mi43MHwyMS45OQ==)' />
<circle cx='242.55' cy='38.10' r='2.13' style='stroke-width: 0.00; stroke: #444444; stroke-opacity: 0.10; fill: #444444; fill-opacity: 0.10;' clip-path='url(#cpMjE4LjAwfDM0NS43NXw0Mi43MHwyMS45OQ==)' />
<circle cx='250.60' cy='33.30' r='2.13' style='stroke-width: 0.00; stroke: #444444; stroke-opacity: 0.10; fill: #444444; fill-opacity: 0.10;' clip-path='url(#cpMjE4LjAwfDM0NS43NXw0Mi43MHwyMS45OQ==)' />
<circle cx='235.85' cy='25.72' r='2.13' style='stroke-width: 0.00; stroke: #444444; stroke-opacity: 0.10; fill: #444444; fill-opacity: 0.10;' clip-path='url(#cpMjE4LjAwfDM0NS43NXw0Mi43MHwyMS45OQ==)' />
<circle cx='228.65' cy='28.20' r='2.13' style='stroke-width: 0.00; stroke: #444444; stroke-opacity: 0.10; fill: #444444; fill-opacity: 0.10;' clip-path='url(#cpMjE4LjAwfDM0NS43NXw0Mi43MHwyMS45OQ==)' />
<circle cx='233.04' cy='28.84' r='2.13' style='stroke-width: 0.00; stroke: #444444; stroke-opacity: 0.10; fill: #444444; fill-opacity: 0.10;' clip-path='url(#cpMjE4LjAwfDM0NS43NXw0Mi43MHwyMS45OQ==)' />
<circle cx='239.85' cy='26.98' r='2.13' style='stroke-width: 0.00; stroke: #444444; stroke-opacity: 0.10; fill: #444444; fill-opacity: 0.10;' clip-path='url(#cpMjE4LjAwfDM0NS43NXw0Mi43MHwyMS45OQ==)' />
<circle cx='248.91' cy='37.76' r='2.13' style='stroke-width: 0.00; stroke: #444444; stroke-opacity: 0.10; fill: #444444; fill-opacity: 0.10;' clip-path='url(#cpMjE4LjAwfDM0NS43NXw0Mi43MHwyMS45OQ==)' />
<circle cx='238.86' cy='39.06' r='2.13' style='stroke-width: 0.00; stroke: #444444; stroke-opacity: 0.10; fill: #444444; fill-opacity: 0.10;' clip-path='url(#cpMjE4LjAwfDM0NS43NXw0Mi43MHwyMS45OQ==)' />
<circle cx='234.20' cy='35.45' r='2.13' style='stroke-width: 0.00; stroke: #444444; stroke-opacity: 0.10; fill: #444444; fill-opacity: 0.10;' clip-path='url(#cpMjE4LjAwfDM0NS43NXw0Mi43MHwyMS45OQ==)' />
<circle cx='231.38' cy='25.56' r='2.13' style='stroke-width: 0.00; stroke: #444444; stroke-opacity: 0.10; fill: #444444; fill-opacity: 0.10;' clip-path='url(#cpMjE4LjAwfDM0NS43NXw0Mi43MHwyMS45OQ==)' />
<circle cx='237.80' cy='31.64' r='2.13' style='stroke-width: 0.00; stroke: #444444; stroke-opacity: 0.10; fill: #444444; fill-opacity: 0.10;' clip-path='url(#cpMjE4LjAwfDM0NS43NXw0Mi43MHwyMS45OQ==)' />
<circle cx='236.61' cy='29.81' r='2.13' style='stroke-width: 0.00; stroke: #444444; stroke-opacity: 0.10; fill: #444444; fill-opacity: 0.10;' clip-path='url(#cpMjE4LjAwfDM0NS43NXw0Mi43MHwyMS45OQ==)' />
<circle cx='243.64' cy='36.34' r='2.13' style='stroke-width: 0.00; stroke: #444444; stroke-opacity: 0.10; fill: #444444; fill-opacity: 0.10;' clip-path='url(#cpMjE4LjAwfDM0NS43NXw0Mi43MHwyMS45OQ==)' />
<circle cx='238.49' cy='26.36' r='2.13' style='stroke-width: 0.00; stroke: #444444; stroke-opacity: 0.10; fill: #444444; fill-opacity: 0.10;' clip-path='url(#cpMjE4LjAwfDM0NS43NXw0Mi43MHwyMS45OQ==)' />
<circle cx='245.73' cy='36.37' r='2.13' style='stroke-width: 0.00; stroke: #444444; stroke-opacity: 0.10; fill: #444444; fill-opacity: 0.10;' clip-path='url(#cpMjE4LjAwfDM0NS43NXw0Mi43MHwyMS45OQ==)' />
<circle cx='233.86' cy='38.83' r='2.13' style='stroke-width: 0.00; stroke: #444444; stroke-opacity: 0.10; fill: #444444; fill-opacity: 0.10;' clip-path='url(#cpMjE4LjAwfDM0NS43NXw0Mi43MHwyMS45OQ==)' />
<circle cx='241.23' cy='24.42' r='2.13' style='stroke-width: 0.00; stroke: #444444; stroke-opacity: 0.10; fill: #444444; fill-opacity: 0.10;' clip-path='url(#cpMjE4LjAwfDM0NS43NXw0Mi43MHwyMS45OQ==)' />
<circle cx='243.66' cy='36.06' r='2.13' style='stroke-width: 0.00; stroke: #444444; stroke-opacity: 0.10; fill: #444444; fill-opacity: 0.10;' clip-path='url(#cpMjE4LjAwfDM0NS43NXw0Mi43MHwyMS45OQ==)' />
<circle cx='231.26' cy='39.25' r='2.13' style='stroke-width: 0.00; stroke: #444444; stroke-opacity: 0.10; fill: #444444; fill-opacity: 0.10;' clip-path='url(#cpMjE4LjAwfDM0NS43NXw0Mi43MHwyMS45OQ==)' />
<circle cx='258.79' cy='24.33' r='2.13' style='stroke-width: 0.00; stroke: #444444; stroke-opacity: 0.10; fill: #444444; fill-opacity: 0.10;' clip-path='url(#cpMjE4LjAwfDM0NS43NXw0Mi43MHwyMS45OQ==)' />
<circle cx='265.32' cy='41.66' r='2.13' style='stroke-width: 0.00; stroke: #444444; stroke-opacity: 0.10; fill: #444444; fill-opacity: 0.10;' clip-path='url(#cpMjE4LjAwfDM0NS43NXw0Mi43MHwyMS45OQ==)' />
<circle cx='231.53' cy='24.51' r='2.13' style='stroke-width: 0.00; stroke: #444444; stroke-opacity: 0.10; fill: #444444; fill-opacity: 0.10;' clip-path='url(#cpMjE4LjAwfDM0NS43NXw0Mi43MHwyMS45OQ==)' />
<circle cx='238.94' cy='32.34' r='2.13' style='stroke-width: 0.00; stroke: #444444; stroke-opacity: 0.10; fill: #444444; fill-opacity: 0.10;' clip-path='url(#cpMjE4LjAwfDM0NS43NXw0Mi43MHwyMS45OQ==)' />
<circle cx='238.66' cy='41.54' r='2.13' style='stroke-width: 0.00; stroke: #444444; stroke-opacity: 0.10; fill: #444444; fill-opacity: 0.10;' clip-path='url(#cpMjE4LjAwfDM0NS43NXw0Mi43MHwyMS45OQ==)' />
<circle cx='255.57' cy='37.78' r='2.13' style='stroke-width: 0.00; stroke: #444444; stroke-opacity: 0.10; fill: #444444; fill-opacity: 0.10;' clip-path='url(#cpMjE4LjAwfDM0NS43NXw0Mi43MHwyMS45OQ==)' />
<circle cx='238.49' cy='26.32' r='2.13' style='stroke-width: 0.00; stroke: #444444; stroke-opacity: 0.10; fill: #444444; fill-opacity: 0.10;' clip-path='url(#cpMjE4LjAwfDM0NS43NXw0Mi43MHwyMS45OQ==)' />
<circle cx='229.79' cy='37.42' r='2.13' style='stroke-width: 0.00; stroke: #444444; stroke-opacity: 0.10; fill: #444444; fill-opacity: 0.10;' clip-path='url(#cpMjE4LjAwfDM0NS43NXw0Mi43MHwyMS45OQ==)' />
<circle cx='246.62' cy='30.52' r='2.13' style='stroke-width: 0.00; stroke: #444444; stroke-opacity: 0.10; fill: #444444; fill-opacity: 0.10;' clip-path='url(#cpMjE4LjAwfDM0NS43NXw0Mi43MHwyMS45OQ==)' />
<circle cx='235.13' cy='41.76' r='2.13' style='stroke-width: 0.00; stroke: #444444; stroke-opacity: 0.10; fill: #444444; fill-opacity: 0.10;' clip-path='url(#cpMjE4LjAwfDM0NS43NXw0Mi43MHwyMS45OQ==)' />
<circle cx='223.93' cy='35.48' r='2.13' style='stroke-width: 0.00; stroke: #444444; stroke-opacity: 0.10; fill: #444444; fill-opacity: 0.10;' clip-path='url(#cpMjE4LjAwfDM0NS43NXw0Mi43MHwyMS45OQ==)' />
<circle cx='241.80' cy='41.41' r='2.13' style='stroke-width: 0.00; stroke: #444444; stroke-opacity: 0.10; fill: #444444; fill-opacity: 0.10;' clip-path='url(#cpMjE4LjAwfDM0NS43NXw0Mi43MHwyMS45OQ==)' />
<circle cx='339.94' cy='32.99' r='2.13' style='stroke-width: 0.00; stroke: #444444; stroke-opacity: 0.10; fill: #444444; fill-opacity: 0.10;' clip-path='url(#cpMjE4LjAwfDM0NS43NXw0Mi43MHwyMS45OQ==)' />
<circle cx='265.69' cy='27.32' r='2.13' style='stroke-width: 0.00; stroke: #444444; stroke-opacity: 0.10; fill: #444444; fill-opacity: 0.10;' clip-path='url(#cpMjE4LjAwfDM0NS43NXw0Mi43MHwyMS45OQ==)' />
<circle cx='252.32' cy='29.29' r='2.13' style='stroke-width: 0.00; stroke: #444444; stroke-opacity: 0.10; fill: #444444; fill-opacity: 0.10;' clip-path='url(#cpMjE4LjAwfDM0NS43NXw0Mi43MHwyMS45OQ==)' />
<circle cx='250.18' cy='26.26' r='2.13' style='stroke-width: 0.00; stroke: #444444; stroke-opacity: 0.10; fill: #444444; fill-opacity: 0.10;' clip-path='url(#cpMjE4LjAwfDM0NS43NXw0Mi43MHwyMS45OQ==)' />
<circle cx='262.41' cy='33.36' r='2.13' style='stroke-width: 0.00; stroke: #444444; stroke-opacity: 0.10; fill: #444444; fill-opacity: 0.10;' clip-path='url(#cpMjE4LjAwfDM0NS43NXw0Mi43MHwyMS45OQ==)' />
<circle cx='247.02' cy='28.24' r='2.13' style='stroke-width: 0.00; stroke: #444444; stroke-opacity: 0.10; fill: #444444; fill-opacity: 0.10;' clip-path='url(#cpMjE4LjAwfDM0NS43NXw0Mi43MHwyMS45OQ==)' />
<circle cx='246.11' cy='36.20' r='2.13' style='stroke-width: 0.00; stroke: #444444; stroke-opacity: 0.10; fill: #444444; fill-opacity: 0.10;' clip-path='url(#cpMjE4LjAwfDM0NS43NXw0Mi43MHwyMS45OQ==)' />
<circle cx='227.26' cy='29.01' r='2.13' style='stroke-width: 0.00; stroke: #444444; stroke-opacity: 0.10; fill: #444444; fill-opacity: 0.10;' clip-path='url(#cpMjE4LjAwfDM0NS43NXw0Mi43MHwyMS45OQ==)' />
<circle cx='237.46' cy='35.43' r='2.13' style='stroke-width: 0.00; stroke: #444444; stroke-opacity: 0.10; fill: #444444; fill-opacity: 0.10;' clip-path='url(#cpMjE4LjAwfDM0NS43NXw0Mi43MHwyMS45OQ==)' />
<circle cx='223.80' cy='32.37' r='2.13' style='stroke-width: 0.00; stroke: #444444; stroke-opacity: 0.10; fill: #444444; fill-opacity: 0.10;' clip-path='url(#cpMjE4LjAwfDM0NS43NXw0Mi43MHwyMS45OQ==)' />
<circle cx='293.85' cy='29.46' r='2.13' style='stroke-width: 0.00; stroke: #444444; stroke-opacity: 0.10; fill: #444444; fill-opacity: 0.10;' clip-path='url(#cpMjE4LjAwfDM0NS43NXw0Mi43MHwyMS45OQ==)' />
<circle cx='239.31' cy='23.22' r='2.13' style='stroke-width: 0.00; stroke: #444444; stroke-opacity: 0.10; fill: #444444; fill-opacity: 0.10;' clip-path='url(#cpMjE4LjAwfDM0NS43NXw0Mi43MHwyMS45OQ==)' />
<circle cx='241.48' cy='29.42' r='2.13' style='stroke-width: 0.00; stroke: #444444; stroke-opacity: 0.10; fill: #444444; fill-opacity: 0.10;' clip-path='url(#cpMjE4LjAwfDM0NS43NXw0Mi43MHwyMS45OQ==)' />
<circle cx='230.15' cy='24.13' r='2.13' style='stroke-width: 0.00; stroke: #444444; stroke-opacity: 0.10; fill: #444444; fill-opacity: 0.10;' clip-path='url(#cpMjE4LjAwfDM0NS43NXw0Mi43MHwyMS45OQ==)' />
<circle cx='229.26' cy='30.91' r='2.13' style='stroke-width: 0.00; stroke: #444444; stroke-opacity: 0.10; fill: #444444; fill-opacity: 0.10;' clip-path='url(#cpMjE4LjAwfDM0NS43NXw0Mi43MHwyMS45OQ==)' />
<circle cx='255.21' cy='25.49' r='2.13' style='stroke-width: 0.00; stroke: #444444; stroke-opacity: 0.10; fill: #444444; fill-opacity: 0.10;' clip-path='url(#cpMjE4LjAwfDM0NS43NXw0Mi43MHwyMS45OQ==)' />
<circle cx='276.99' cy='32.68' r='2.13' style='stroke-width: 0.00; stroke: #444444; stroke-opacity: 0.10; fill: #444444; fill-opacity: 0.10;' clip-path='url(#cpMjE4LjAwfDM0NS43NXw0Mi43MHwyMS45OQ==)' />
<circle cx='260.33' cy='39.52' r='2.13' style='stroke-width: 0.00; stroke: #444444; stroke-opacity: 0.10; fill: #444444; fill-opacity: 0.10;' clip-path='url(#cpMjE4LjAwfDM0NS43NXw0Mi43MHwyMS45OQ==)' />
<circle cx='229.89' cy='30.20' r='2.13' style='stroke-width: 0.00; stroke: #444444; stroke-opacity: 0.10; fill: #444444; fill-opacity: 0.10;' clip-path='url(#cpMjE4LjAwfDM0NS43NXw0Mi43MHwyMS45OQ==)' />
<circle cx='236.13' cy='29.03' r='2.13' style='stroke-width: 0.00; stroke: #444444; stroke-opacity: 0.10; fill: #444444; fill-opacity: 0.10;' clip-path='url(#cpMjE4LjAwfDM0NS43NXw0Mi43MHwyMS45OQ==)' />
<circle cx='248.95' cy='34.80' r='2.13' style='stroke-width: 0.00; stroke: #444444; stroke-opacity: 0.10; fill: #444444; fill-opacity: 0.10;' clip-path='url(#cpMjE4LjAwfDM0NS43NXw0Mi43MHwyMS45OQ==)' />
<circle cx='228.52' cy='32.08' r='2.13' style='stroke-width: 0.00; stroke: #444444; stroke-opacity: 0.10; fill: #444444; fill-opacity: 0.10;' clip-path='url(#cpMjE4LjAwfDM0NS43NXw0Mi43MHwyMS45OQ==)' />
<circle cx='232.25' cy='29.60' r='2.13' style='stroke-width: 0.00; stroke: #444444; stroke-opacity: 0.10; fill: #444444; fill-opacity: 0.10;' clip-path='url(#cpMjE4LjAwfDM0NS43NXw0Mi43MHwyMS45OQ==)' />
<circle cx='259.13' cy='37.54' r='2.13' style='stroke-width: 0.00; stroke: #444444; stroke-opacity: 0.10; fill: #444444; fill-opacity: 0.10;' clip-path='url(#cpMjE4LjAwfDM0NS43NXw0Mi43MHwyMS45OQ==)' />
<circle cx='228.18' cy='23.54' r='2.13' style='stroke-width: 0.00; stroke: #444444; stroke-opacity: 0.10; fill: #444444; fill-opacity: 0.10;' clip-path='url(#cpMjE4LjAwfDM0NS43NXw0Mi43MHwyMS45OQ==)' />
<circle cx='249.11' cy='35.81' r='2.13' style='stroke-width: 0.00; stroke: #444444; stroke-opacity: 0.10; fill: #444444; fill-opacity: 0.10;' clip-path='url(#cpMjE4LjAwfDM0NS43NXw0Mi43MHwyMS45OQ==)' />
<circle cx='255.75' cy='24.89' r='2.13' style='stroke-width: 0.00; stroke: #444444; stroke-opacity: 0.10; fill: #444444; fill-opacity: 0.10;' clip-path='url(#cpMjE4LjAwfDM0NS43NXw0Mi43MHwyMS45OQ==)' />
<circle cx='240.55' cy='40.16' r='2.13' style='stroke-width: 0.00; stroke: #444444; stroke-opacity: 0.10; fill: #444444; fill-opacity: 0.10;' clip-path='url(#cpMjE4LjAwfDM0NS43NXw0Mi43MHwyMS45OQ==)' />
<circle cx='233.71' cy='22.97' r='2.13' style='stroke-width: 0.00; stroke: #444444; stroke-opacity: 0.10; fill: #444444; fill-opacity: 0.10;' clip-path='url(#cpMjE4LjAwfDM0NS43NXw0Mi43MHwyMS45OQ==)' />
<circle cx='258.92' cy='28.19' r='2.13' style='stroke-width: 0.00; stroke: #444444; stroke-opacity: 0.10; fill: #444444; fill-opacity: 0.10;' clip-path='url(#cpMjE4LjAwfDM0NS43NXw0Mi43MHwyMS45OQ==)' />
<circle cx='266.35' cy='28.13' r='2.13' style='stroke-width: 0.00; stroke: #444444; stroke-opacity: 0.10; fill: #444444; fill-opacity: 0.10;' clip-path='url(#cpMjE4LjAwfDM0NS43NXw0Mi43MHwyMS45OQ==)' />
<circle cx='256.75' cy='33.98' r='2.13' style='stroke-width: 0.00; stroke: #444444; stroke-opacity: 0.10; fill: #444444; fill-opacity: 0.10;' clip-path='url(#cpMjE4LjAwfDM0NS43NXw0Mi43MHwyMS45OQ==)' />
<circle cx='239.62' cy='40.24' r='2.13' style='stroke-width: 0.00; stroke: #444444; stroke-opacity: 0.10; fill: #444444; fill-opacity: 0.10;' clip-path='url(#cpMjE4LjAwfDM0NS43NXw0Mi43MHwyMS45OQ==)' />
<circle cx='251.67' cy='31.25' r='2.13' style='stroke-width: 0.00; stroke: #444444; stroke-opacity: 0.10; fill: #444444; fill-opacity: 0.10;' clip-path='url(#cpMjE4LjAwfDM0NS43NXw0Mi43MHwyMS45OQ==)' />
<circle cx='253.19' cy='24.08' r='2.13' style='stroke-width: 0.00; stroke: #444444; stroke-opacity: 0.10; fill: #444444; fill-opacity: 0.10;' clip-path='url(#cpMjE4LjAwfDM0NS43NXw0Mi43MHwyMS45OQ==)' />
<circle cx='233.01' cy='23.01' r='2.13' style='stroke-width: 0.00; stroke: #444444; stroke-opacity: 0.10; fill: #444444; fill-opacity: 0.10;' clip-path='url(#cpMjE4LjAwfDM0NS43NXw0Mi43MHwyMS45OQ==)' />
<circle cx='253.34' cy='34.33' r='2.13' style='stroke-width: 0.00; stroke: #444444; stroke-opacity: 0.10; fill: #444444; fill-opacity: 0.10;' clip-path='url(#cpMjE4LjAwfDM0NS43NXw0Mi43MHwyMS45OQ==)' />
<circle cx='224.02' cy='39.45' r='2.13' style='stroke-width: 0.00; stroke: #444444; stroke-opacity: 0.10; fill: #444444; fill-opacity: 0.10;' clip-path='url(#cpMjE4LjAwfDM0NS43NXw0Mi43MHwyMS45OQ==)' />
<circle cx='251.56' cy='33.82' r='2.13' style='stroke-width: 0.00; stroke: #444444; stroke-opacity: 0.10; fill: #444444; fill-opacity: 0.10;' clip-path='url(#cpMjE4LjAwfDM0NS43NXw0Mi43MHwyMS45OQ==)' />
<circle cx='243.26' cy='39.70' r='2.13' style='stroke-width: 0.00; stroke: #444444; stroke-opacity: 0.10; fill: #444444; fill-opacity: 0.10;' clip-path='url(#cpMjE4LjAwfDM0NS43NXw0Mi43MHwyMS45OQ==)' />
<circle cx='266.94' cy='34.12' r='2.13' style='stroke-width: 0.00; stroke: #444444; stroke-opacity: 0.10; fill: #444444; fill-opacity: 0.10;' clip-path='url(#cpMjE4LjAwfDM0NS43NXw0Mi43MHwyMS45OQ==)' />
<circle cx='238.77' cy='31.13' r='2.13' style='stroke-width: 0.00; stroke: #444444; stroke-opacity: 0.10; fill: #444444; fill-opacity: 0.10;' clip-path='url(#cpMjE4LjAwfDM0NS43NXw0Mi43MHwyMS45OQ==)' />
<circle cx='293.93' cy='41.46' r='2.13' style='stroke-width: 0.00; stroke: #444444; stroke-opacity: 0.10; fill: #444444; fill-opacity: 0.10;' clip-path='url(#cpMjE4LjAwfDM0NS43NXw0Mi43MHwyMS45OQ==)' />
<circle cx='243.33' cy='31.40' r='2.13' style='stroke-width: 0.00; stroke: #444444; stroke-opacity: 0.10; fill: #444444; fill-opacity: 0.10;' clip-path='url(#cpMjE4LjAwfDM0NS43NXw0Mi43MHwyMS45OQ==)' />
<circle cx='234.55' cy='38.77' r='2.13' style='stroke-width: 0.00; stroke: #444444; stroke-opacity: 0.10; fill: #444444; fill-opacity: 0.10;' clip-path='url(#cpMjE4LjAwfDM0NS43NXw0Mi43MHwyMS45OQ==)' />
<circle cx='241.50' cy='24.36' r='2.13' style='stroke-width: 0.00; stroke: #444444; stroke-opacity: 0.10; fill: #444444; fill-opacity: 0.10;' clip-path='url(#cpMjE4LjAwfDM0NS43NXw0Mi43MHwyMS45OQ==)' />
<circle cx='286.69' cy='28.91' r='2.13' style='stroke-width: 0.00; stroke: #444444; stroke-opacity: 0.10; fill: #444444; fill-opacity: 0.10;' clip-path='url(#cpMjE4LjAwfDM0NS43NXw0Mi43MHwyMS45OQ==)' />
<circle cx='241.85' cy='26.58' r='2.13' style='stroke-width: 0.00; stroke: #444444; stroke-opacity: 0.10; fill: #444444; fill-opacity: 0.10;' clip-path='url(#cpMjE4LjAwfDM0NS43NXw0Mi43MHwyMS45OQ==)' />
<circle cx='249.33' cy='24.49' r='2.13' style='stroke-width: 0.00; stroke: #444444; stroke-opacity: 0.10; fill: #444444; fill-opacity: 0.10;' clip-path='url(#cpMjE4LjAwfDM0NS43NXw0Mi43MHwyMS45OQ==)' />
<circle cx='255.17' cy='39.42' r='2.13' style='stroke-width: 0.00; stroke: #444444; stroke-opacity: 0.10; fill: #444444; fill-opacity: 0.10;' clip-path='url(#cpMjE4LjAwfDM0NS43NXw0Mi43MHwyMS45OQ==)' />
<circle cx='241.35' cy='23.82' r='2.13' style='stroke-width: 0.00; stroke: #444444; stroke-opacity: 0.10; fill: #444444; fill-opacity: 0.10;' clip-path='url(#cpMjE4LjAwfDM0NS43NXw0Mi43MHwyMS45OQ==)' />
<circle cx='231.62' cy='24.04' r='2.13' style='stroke-width: 0.00; stroke: #444444; stroke-opacity: 0.10; fill: #444444; fill-opacity: 0.10;' clip-path='url(#cpMjE4LjAwfDM0NS43NXw0Mi43MHwyMS45OQ==)' />
<circle cx='247.41' cy='26.93' r='2.13' style='stroke-width: 0.00; stroke: #444444; stroke-opacity: 0.10; fill: #444444; fill-opacity: 0.10;' clip-path='url(#cpMjE4LjAwfDM0NS43NXw0Mi43MHwyMS45OQ==)' />
<circle cx='243.07' cy='35.18' r='2.13' style='stroke-width: 0.00; stroke: #444444; stroke-opacity: 0.10; fill: #444444; fill-opacity: 0.10;' clip-path='url(#cpMjE4LjAwfDM0NS43NXw0Mi43MHwyMS45OQ==)' />
<circle cx='254.35' cy='38.88' r='2.13' style='stroke-width: 0.00; stroke: #444444; stroke-opacity: 0.10; fill: #444444; fill-opacity: 0.10;' clip-path='url(#cpMjE4LjAwfDM0NS43NXw0Mi43MHwyMS45OQ==)' />
<circle cx='245.06' cy='35.39' r='2.13' style='stroke-width: 0.00; stroke: #444444; stroke-opacity: 0.10; fill: #444444; fill-opacity: 0.10;' clip-path='url(#cpMjE4LjAwfDM0NS43NXw0Mi43MHwyMS45OQ==)' />
<circle cx='248.59' cy='32.70' r='2.13' style='stroke-width: 0.00; stroke: #444444; stroke-opacity: 0.10; fill: #444444; fill-opacity: 0.10;' clip-path='url(#cpMjE4LjAwfDM0NS43NXw0Mi43MHwyMS45OQ==)' />
<circle cx='229.38' cy='26.30' r='2.13' style='stroke-width: 0.00; stroke: #444444; stroke-opacity: 0.10; fill: #444444; fill-opacity: 0.10;' clip-path='url(#cpMjE4LjAwfDM0NS43NXw0Mi43MHwyMS45OQ==)' />
<circle cx='256.04' cy='36.53' r='2.13' style='stroke-width: 0.00; stroke: #444444; stroke-opacity: 0.10; fill: #444444; fill-opacity: 0.10;' clip-path='url(#cpMjE4LjAwfDM0NS43NXw0Mi43MHwyMS45OQ==)' />
<circle cx='242.17' cy='33.97' r='2.13' style='stroke-width: 0.00; stroke: #444444; stroke-opacity: 0.10; fill: #444444; fill-opacity: 0.10;' clip-path='url(#cpMjE4LjAwfDM0NS43NXw0Mi43MHwyMS45OQ==)' />
<circle cx='249.34' cy='28.61' r='2.13' style='stroke-width: 0.00; stroke: #444444; stroke-opacity: 0.10; fill: #444444; fill-opacity: 0.10;' clip-path='url(#cpMjE4LjAwfDM0NS43NXw0Mi43MHwyMS45OQ==)' />
<circle cx='248.95' cy='37.88' r='2.13' style='stroke-width: 0.00; stroke: #444444; stroke-opacity: 0.10; fill: #444444; fill-opacity: 0.10;' clip-path='url(#cpMjE4LjAwfDM0NS43NXw0Mi43MHwyMS45OQ==)' />
<circle cx='240.22' cy='25.70' r='2.13' style='stroke-width: 0.00; stroke: #444444; stroke-opacity: 0.10; fill: #444444; fill-opacity: 0.10;' clip-path='url(#cpMjE4LjAwfDM0NS43NXw0Mi43MHwyMS45OQ==)' />
<circle cx='247.00' cy='37.78' r='2.13' style='stroke-width: 0.00; stroke: #444444; stroke-opacity: 0.10; fill: #444444; fill-opacity: 0.10;' clip-path='url(#cpMjE4LjAwfDM0NS43NXw0Mi43MHwyMS45OQ==)' />
<circle cx='242.84' cy='28.91' r='2.13' style='stroke-width: 0.00; stroke: #444444; stroke-opacity: 0.10; fill: #444444; fill-opacity: 0.10;' clip-path='url(#cpMjE4LjAwfDM0NS43NXw0Mi43MHwyMS45OQ==)' />
<circle cx='244.36' cy='29.67' r='2.13' style='stroke-width: 0.00; stroke: #444444; stroke-opacity: 0.10; fill: #444444; fill-opacity: 0.10;' clip-path='url(#cpMjE4LjAwfDM0NS43NXw0Mi43MHwyMS45OQ==)' />
<circle cx='229.66' cy='30.41' r='2.13' style='stroke-width: 0.00; stroke: #444444; stroke-opacity: 0.10; fill: #444444; fill-opacity: 0.10;' clip-path='url(#cpMjE4LjAwfDM0NS43NXw0Mi43MHwyMS45OQ==)' />
<circle cx='292.96' cy='41.58' r='2.13' style='stroke-width: 0.00; stroke: #444444; stroke-opacity: 0.10; fill: #444444; fill-opacity: 0.10;' clip-path='url(#cpMjE4LjAwfDM0NS43NXw0Mi43MHwyMS45OQ==)' />
<circle cx='251.34' cy='27.42' r='2.13' style='stroke-width: 0.00; stroke: #444444; stroke-opacity: 0.10; fill: #444444; fill-opacity: 0.10;' clip-path='url(#cpMjE4LjAwfDM0NS43NXw0Mi43MHwyMS45OQ==)' />
<circle cx='231.36' cy='30.21' r='2.13' style='stroke-width: 0.00; stroke: #444444; stroke-opacity: 0.10; fill: #444444; fill-opacity: 0.10;' clip-path='url(#cpMjE4LjAwfDM0NS43NXw0Mi43MHwyMS45OQ==)' />
<circle cx='252.36' cy='36.17' r='2.13' style='stroke-width: 0.00; stroke: #444444; stroke-opacity: 0.10; fill: #444444; fill-opacity: 0.10;' clip-path='url(#cpMjE4LjAwfDM0NS43NXw0Mi43MHwyMS45OQ==)' />
<circle cx='252.03' cy='28.19' r='2.13' style='stroke-width: 0.00; stroke: #444444; stroke-opacity: 0.10; fill: #444444; fill-opacity: 0.10;' clip-path='url(#cpMjE4LjAwfDM0NS43NXw0Mi43MHwyMS45OQ==)' />
<circle cx='233.22' cy='33.75' r='2.13' style='stroke-width: 0.00; stroke: #444444; stroke-opacity: 0.10; fill: #444444; fill-opacity: 0.10;' clip-path='url(#cpMjE4LjAwfDM0NS43NXw0Mi43MHwyMS45OQ==)' />
<circle cx='245.96' cy='26.08' r='2.13' style='stroke-width: 0.00; stroke: #444444; stroke-opacity: 0.10; fill: #444444; fill-opacity: 0.10;' clip-path='url(#cpMjE4LjAwfDM0NS43NXw0Mi43MHwyMS45OQ==)' />
<circle cx='242.18' cy='37.37' r='2.13' style='stroke-width: 0.00; stroke: #444444; stroke-opacity: 0.10; fill: #444444; fill-opacity: 0.10;' clip-path='url(#cpMjE4LjAwfDM0NS43NXw0Mi43MHwyMS45OQ==)' />
<circle cx='249.75' cy='24.87' r='2.13' style='stroke-width: 0.00; stroke: #444444; stroke-opacity: 0.10; fill: #444444; fill-opacity: 0.10;' clip-path='url(#cpMjE4LjAwfDM0NS43NXw0Mi43MHwyMS45OQ==)' />
<circle cx='255.34' cy='35.63' r='2.13' style='stroke-width: 0.00; stroke: #444444; stroke-opacity: 0.10; fill: #444444; fill-opacity: 0.10;' clip-path='url(#cpMjE4LjAwfDM0NS43NXw0Mi43MHwyMS45OQ==)' />
<circle cx='229.55' cy='33.99' r='2.13' style='stroke-width: 0.00; stroke: #444444; stroke-opacity: 0.10; fill: #444444; fill-opacity: 0.10;' clip-path='url(#cpMjE4LjAwfDM0NS43NXw0Mi43MHwyMS45OQ==)' />
<circle cx='259.14' cy='29.01' r='2.13' style='stroke-width: 0.00; stroke: #444444; stroke-opacity: 0.10; fill: #444444; fill-opacity: 0.10;' clip-path='url(#cpMjE4LjAwfDM0NS43NXw0Mi43MHwyMS45OQ==)' />
<circle cx='226.88' cy='39.02' r='2.13' style='stroke-width: 0.00; stroke: #444444; stroke-opacity: 0.10; fill: #444444; fill-opacity: 0.10;' clip-path='url(#cpMjE4LjAwfDM0NS43NXw0Mi43MHwyMS45OQ==)' />
<circle cx='241.20' cy='35.28' r='2.13' style='stroke-width: 0.00; stroke: #444444; stroke-opacity: 0.10; fill: #444444; fill-opacity: 0.10;' clip-path='url(#cpMjE4LjAwfDM0NS43NXw0Mi43MHwyMS45OQ==)' />
<circle cx='236.45' cy='23.31' r='2.13' style='stroke-width: 0.00; stroke: #444444; stroke-opacity: 0.10; fill: #444444; fill-opacity: 0.10;' clip-path='url(#cpMjE4LjAwfDM0NS43NXw0Mi43MHwyMS45OQ==)' />
<circle cx='257.98' cy='32.49' r='2.13' style='stroke-width: 0.00; stroke: #444444; stroke-opacity: 0.10; fill: #444444; fill-opacity: 0.10;' clip-path='url(#cpMjE4LjAwfDM0NS43NXw0Mi43MHwyMS45OQ==)' />
<circle cx='234.00' cy='29.49' r='2.13' style='stroke-width: 0.00; stroke: #444444; stroke-opacity: 0.10; fill: #444444; fill-opacity: 0.10;' clip-path='url(#cpMjE4LjAwfDM0NS43NXw0Mi43MHwyMS45OQ==)' />
<circle cx='253.72' cy='23.13' r='2.13' style='stroke-width: 0.00; stroke: #444444; stroke-opacity: 0.10; fill: #444444; fill-opacity: 0.10;' clip-path='url(#cpMjE4LjAwfDM0NS43NXw0Mi43MHwyMS45OQ==)' />
<circle cx='263.70' cy='29.87' r='2.13' style='stroke-width: 0.00; stroke: #444444; stroke-opacity: 0.10; fill: #444444; fill-opacity: 0.10;' clip-path='url(#cpMjE4LjAwfDM0NS43NXw0Mi43MHwyMS45OQ==)' />
<circle cx='249.51' cy='31.43' r='2.13' style='stroke-width: 0.00; stroke: #444444; stroke-opacity: 0.10; fill: #444444; fill-opacity: 0.10;' clip-path='url(#cpMjE4LjAwfDM0NS43NXw0Mi43MHwyMS45OQ==)' />
<circle cx='233.33' cy='28.82' r='2.13' style='stroke-width: 0.00; stroke: #444444; stroke-opacity: 0.10; fill: #444444; fill-opacity: 0.10;' clip-path='url(#cpMjE4LjAwfDM0NS43NXw0Mi43MHwyMS45OQ==)' />
<circle cx='237.92' cy='38.85' r='2.13' style='stroke-width: 0.00; stroke: #444444; stroke-opacity: 0.10; fill: #444444; fill-opacity: 0.10;' clip-path='url(#cpMjE4LjAwfDM0NS43NXw0Mi43MHwyMS45OQ==)' />
<circle cx='235.51' cy='26.42' r='2.13' style='stroke-width: 0.00; stroke: #444444; stroke-opacity: 0.10; fill: #444444; fill-opacity: 0.10;' clip-path='url(#cpMjE4LjAwfDM0NS43NXw0Mi43MHwyMS45OQ==)' />
<circle cx='246.19' cy='38.31' r='2.13' style='stroke-width: 0.00; stroke: #444444; stroke-opacity: 0.10; fill: #444444; fill-opacity: 0.10;' clip-path='url(#cpMjE4LjAwfDM0NS43NXw0Mi43MHwyMS45OQ==)' />
<circle cx='232.56' cy='23.28' r='2.13' style='stroke-width: 0.00; stroke: #444444; stroke-opacity: 0.10; fill: #444444; fill-opacity: 0.10;' clip-path='url(#cpMjE4LjAwfDM0NS43NXw0Mi43MHwyMS45OQ==)' />
<circle cx='247.34' cy='34.58' r='2.13' style='stroke-width: 0.00; stroke: #444444; stroke-opacity: 0.10; fill: #444444; fill-opacity: 0.10;' clip-path='url(#cpMjE4LjAwfDM0NS43NXw0Mi43MHwyMS45OQ==)' />
<circle cx='248.14' cy='31.82' r='2.13' style='stroke-width: 0.00; stroke: #444444; stroke-opacity: 0.10; fill: #444444; fill-opacity: 0.10;' clip-path='url(#cpMjE4LjAwfDM0NS43NXw0Mi43MHwyMS45OQ==)' />
<circle cx='245.08' cy='25.66' r='2.13' style='stroke-width: 0.00; stroke: #444444; stroke-opacity: 0.10; fill: #444444; fill-opacity: 0.10;' clip-path='url(#cpMjE4LjAwfDM0NS43NXw0Mi43MHwyMS45OQ==)' />
<circle cx='243.84' cy='25.24' r='2.13' style='stroke-width: 0.00; stroke: #444444; stroke-opacity: 0.10; fill: #444444; fill-opacity: 0.10;' clip-path='url(#cpMjE4LjAwfDM0NS43NXw0Mi43MHwyMS45OQ==)' />
<circle cx='239.37' cy='40.43' r='2.13' style='stroke-width: 0.00; stroke: #444444; stroke-opacity: 0.10; fill: #444444; fill-opacity: 0.10;' clip-path='url(#cpMjE4LjAwfDM0NS43NXw0Mi43MHwyMS45OQ==)' />
<circle cx='247.51' cy='37.59' r='2.13' style='stroke-width: 0.00; stroke: #444444; stroke-opacity: 0.10; fill: #444444; fill-opacity: 0.10;' clip-path='url(#cpMjE4LjAwfDM0NS43NXw0Mi43MHwyMS45OQ==)' />
<circle cx='234.04' cy='35.03' r='2.13' style='stroke-width: 0.00; stroke: #444444; stroke-opacity: 0.10; fill: #444444; fill-opacity: 0.10;' clip-path='url(#cpMjE4LjAwfDM0NS43NXw0Mi43MHwyMS45OQ==)' />
<circle cx='235.42' cy='38.40' r='2.13' style='stroke-width: 0.00; stroke: #444444; stroke-opacity: 0.10; fill: #444444; fill-opacity: 0.10;' clip-path='url(#cpMjE4LjAwfDM0NS43NXw0Mi43MHwyMS45OQ==)' />
<circle cx='236.19' cy='30.66' r='2.13' style='stroke-width: 0.00; stroke: #444444; stroke-opacity: 0.10; fill: #444444; fill-opacity: 0.10;' clip-path='url(#cpMjE4LjAwfDM0NS43NXw0Mi43MHwyMS45OQ==)' />
<circle cx='235.81' cy='32.82' r='2.13' style='stroke-width: 0.00; stroke: #444444; stroke-opacity: 0.10; fill: #444444; fill-opacity: 0.10;' clip-path='url(#cpMjE4LjAwfDM0NS43NXw0Mi43MHwyMS45OQ==)' />
<circle cx='260.46' cy='22.95' r='2.13' style='stroke-width: 0.00; stroke: #444444; stroke-opacity: 0.10; fill: #444444; fill-opacity: 0.10;' clip-path='url(#cpMjE4LjAwfDM0NS43NXw0Mi43MHwyMS45OQ==)' />
<circle cx='261.70' cy='29.49' r='2.13' style='stroke-width: 0.00; stroke: #444444; stroke-opacity: 0.10; fill: #444444; fill-opacity: 0.10;' clip-path='url(#cpMjE4LjAwfDM0NS43NXw0Mi43MHwyMS45OQ==)' />
<circle cx='244.06' cy='40.65' r='2.13' style='stroke-width: 0.00; stroke: #444444; stroke-opacity: 0.10; fill: #444444; fill-opacity: 0.10;' clip-path='url(#cpMjE4LjAwfDM0NS43NXw0Mi43MHwyMS45OQ==)' />
<circle cx='244.12' cy='24.75' r='2.13' style='stroke-width: 0.00; stroke: #444444; stroke-opacity: 0.10; fill: #444444; fill-opacity: 0.10;' clip-path='url(#cpMjE4LjAwfDM0NS43NXw0Mi43MHwyMS45OQ==)' />
<circle cx='232.23' cy='39.65' r='2.13' style='stroke-width: 0.00; stroke: #444444; stroke-opacity: 0.10; fill: #444444; fill-opacity: 0.10;' clip-path='url(#cpMjE4LjAwfDM0NS43NXw0Mi43MHwyMS45OQ==)' />
<circle cx='258.81' cy='32.72' r='2.13' style='stroke-width: 0.00; stroke: #444444; stroke-opacity: 0.10; fill: #444444; fill-opacity: 0.10;' clip-path='url(#cpMjE4LjAwfDM0NS43NXw0Mi43MHwyMS45OQ==)' />
<circle cx='245.91' cy='31.20' r='2.13' style='stroke-width: 0.00; stroke: #444444; stroke-opacity: 0.10; fill: #444444; fill-opacity: 0.10;' clip-path='url(#cpMjE4LjAwfDM0NS43NXw0Mi43MHwyMS45OQ==)' />
<circle cx='244.97' cy='27.79' r='2.13' style='stroke-width: 0.00; stroke: #444444; stroke-opacity: 0.10; fill: #444444; fill-opacity: 0.10;' clip-path='url(#cpMjE4LjAwfDM0NS43NXw0Mi43MHwyMS45OQ==)' />
<circle cx='237.21' cy='37.61' r='2.13' style='stroke-width: 0.00; stroke: #444444; stroke-opacity: 0.10; fill: #444444; fill-opacity: 0.10;' clip-path='url(#cpMjE4LjAwfDM0NS43NXw0Mi43MHwyMS45OQ==)' />
<circle cx='238.51' cy='28.99' r='2.13' style='stroke-width: 0.00; stroke: #444444; stroke-opacity: 0.10; fill: #444444; fill-opacity: 0.10;' clip-path='url(#cpMjE4LjAwfDM0NS43NXw0Mi43MHwyMS45OQ==)' />
<circle cx='249.79' cy='30.92' r='2.13' style='stroke-width: 0.00; stroke: #444444; stroke-opacity: 0.10; fill: #444444; fill-opacity: 0.10;' clip-path='url(#cpMjE4LjAwfDM0NS43NXw0Mi43MHwyMS45OQ==)' />
<circle cx='247.48' cy='25.87' r='2.13' style='stroke-width: 0.00; stroke: #444444; stroke-opacity: 0.10; fill: #444444; fill-opacity: 0.10;' clip-path='url(#cpMjE4LjAwfDM0NS43NXw0Mi43MHwyMS45OQ==)' />
<circle cx='242.98' cy='37.97' r='2.13' style='stroke-width: 0.00; stroke: #444444; stroke-opacity: 0.10; fill: #444444; fill-opacity: 0.10;' clip-path='url(#cpMjE4LjAwfDM0NS43NXw0Mi43MHwyMS45OQ==)' />
<circle cx='255.51' cy='40.74' r='2.13' style='stroke-width: 0.00; stroke: #444444; stroke-opacity: 0.10; fill: #444444; fill-opacity: 0.10;' clip-path='url(#cpMjE4LjAwfDM0NS43NXw0Mi43MHwyMS45OQ==)' />
<circle cx='232.28' cy='25.20' r='2.13' style='stroke-width: 0.00; stroke: #444444; stroke-opacity: 0.10; fill: #444444; fill-opacity: 0.10;' clip-path='url(#cpMjE4LjAwfDM0NS43NXw0Mi43MHwyMS45OQ==)' />
<circle cx='259.58' cy='25.45' r='2.13' style='stroke-width: 0.00; stroke: #444444; stroke-opacity: 0.10; fill: #444444; fill-opacity: 0.10;' clip-path='url(#cpMjE4LjAwfDM0NS43NXw0Mi43MHwyMS45OQ==)' />
<circle cx='237.65' cy='26.10' r='2.13' style='stroke-width: 0.00; stroke: #444444; stroke-opacity: 0.10; fill: #444444; fill-opacity: 0.10;' clip-path='url(#cpMjE4LjAwfDM0NS43NXw0Mi43MHwyMS45OQ==)' />
<circle cx='257.18' cy='41.29' r='2.13' style='stroke-width: 0.00; stroke: #444444; stroke-opacity: 0.10; fill: #444444; fill-opacity: 0.10;' clip-path='url(#cpMjE4LjAwfDM0NS43NXw0Mi43MHwyMS45OQ==)' />
<circle cx='258.71' cy='31.68' r='2.13' style='stroke-width: 0.00; stroke: #444444; stroke-opacity: 0.10; fill: #444444; fill-opacity: 0.10;' clip-path='url(#cpMjE4LjAwfDM0NS43NXw0Mi43MHwyMS45OQ==)' />
<circle cx='268.76' cy='37.49' r='2.13' style='stroke-width: 0.00; stroke: #444444; stroke-opacity: 0.10; fill: #444444; fill-opacity: 0.10;' clip-path='url(#cpMjE4LjAwfDM0NS43NXw0Mi43MHwyMS45OQ==)' />
<circle cx='243.60' cy='37.15' r='2.13' style='stroke-width: 0.00; stroke: #444444; stroke-opacity: 0.10; fill: #444444; fill-opacity: 0.10;' clip-path='url(#cpMjE4LjAwfDM0NS43NXw0Mi43MHwyMS45OQ==)' />
<circle cx='249.99' cy='35.81' r='2.13' style='stroke-width: 0.00; stroke: #444444; stroke-opacity: 0.10; fill: #444444; fill-opacity: 0.10;' clip-path='url(#cpMjE4LjAwfDM0NS43NXw0Mi43MHwyMS45OQ==)' />
<circle cx='241.29' cy='25.58' r='2.13' style='stroke-width: 0.00; stroke: #444444; stroke-opacity: 0.10; fill: #444444; fill-opacity: 0.10;' clip-path='url(#cpMjE4LjAwfDM0NS43NXw0Mi43MHwyMS45OQ==)' />
<circle cx='230.49' cy='37.99' r='2.13' style='stroke-width: 0.00; stroke: #444444; stroke-opacity: 0.10; fill: #444444; fill-opacity: 0.10;' clip-path='url(#cpMjE4LjAwfDM0NS43NXw0Mi43MHwyMS45OQ==)' />
<circle cx='254.26' cy='25.51' r='2.13' style='stroke-width: 0.00; stroke: #444444; stroke-opacity: 0.10; fill: #444444; fill-opacity: 0.10;' clip-path='url(#cpMjE4LjAwfDM0NS43NXw0Mi43MHwyMS45OQ==)' />
<circle cx='240.72' cy='23.71' r='2.13' style='stroke-width: 0.00; stroke: #444444; stroke-opacity: 0.10; fill: #444444; fill-opacity: 0.10;' clip-path='url(#cpMjE4LjAwfDM0NS43NXw0Mi43MHwyMS45OQ==)' />
<polygon points='243.61,32.32 246.36,37.04 249.11,32.32 246.36,27.60 243.61,32.32 ' style='stroke-width: 1.07; stroke: #534D55; fill: #534D55;' clip-path='url(#cpMjE4LjAwfDM0NS43NXw0Mi43MHwyMS45OQ==)' />
<rect x='218.00' y='21.99' width='127.75' height='20.71' style='stroke-width: 0.78; stroke: #333333;' clip-path='url(#cpMjE4LjAwfDM0NS43NXw0Mi43MHwyMS45OQ==)' />
<defs>
  <clipPath id='cpMC4wMHw1MTAuMjR8NjUuMjB8MC4wMA=='>
    <rect x='0.00' y='0.00' width='510.24' height='65.20' />
  </clipPath>
</defs>
<g clip-path='url(#cpMC4wMHw1MTAuMjR8NjUuMjB8MC4wMA==)'><text x='180.98' y='34.61' style='font-size: 6.40px; fill: #4D4D4D; font-family: Arial;' textLength='33.43px' lengthAdjust='spacingAndGlyphs'>very normal</text></g>
<polyline points='216.00,32.32 218.00,32.32 ' style='stroke-width: 0.78; stroke: #333333; stroke-linecap: butt;' clip-path='url(#cpMC4wMHw1MTAuMjR8NjUuMjB8MC4wMA==)' />
<polyline points='345.75,32.33 347.74,32.33 ' style='stroke-width: 0.78; stroke: #333333; stroke-linecap: butt;' clip-path='url(#cpMC4wMHw1MTAuMjR8NjUuMjB8MC4wMA==)' />
<g clip-path='url(#cpMC4wMHw1MTAuMjR8NjUuMjB8MC4wMA==)'><text x='349.34' y='34.62' style='font-size: 6.40px; fill: #4D4D4D; font-family: Arial;' textLength='29.16px' lengthAdjust='spacingAndGlyphs'>very weird</text></g>
<polyline points='235.09,44.69 235.09,42.70 ' style='stroke-width: 0.78; stroke: #333333; stroke-linecap: butt;' clip-path='url(#cpMC4wMHw1MTAuMjR8NjUuMjB8MC4wMA==)' />
<polyline points='262.09,44.69 262.09,42.70 ' style='stroke-width: 0.78; stroke: #333333; stroke-linecap: butt;' clip-path='url(#cpMC4wMHw1MTAuMjR8NjUuMjB8MC4wMA==)' />
<polyline points='289.10,44.69 289.10,42.70 ' style='stroke-width: 0.78; stroke: #333333; stroke-linecap: butt;' clip-path='url(#cpMC4wMHw1MTAuMjR8NjUuMjB8MC4wMA==)' />
<polyline points='316.10,44.69 316.10,42.70 ' style='stroke-width: 0.78; stroke: #333333; stroke-linecap: butt;' clip-path='url(#cpMC4wMHw1MTAuMjR8NjUuMjB8MC4wMA==)' />
<polyline points='343.11,44.69 343.11,42.70 ' style='stroke-width: 0.78; stroke: #333333; stroke-linecap: butt;' clip-path='url(#cpMC4wMHw1MTAuMjR8NjUuMjB8MC4wMA==)' />
<g clip-path='url(#cpMC4wMHw1MTAuMjR8NjUuMjB8MC4wMA==)'><text x='233.31' y='50.87' style='font-size: 6.40px; fill: #4D4D4D; font-family: Arial;' textLength='3.56px' lengthAdjust='spacingAndGlyphs'>1</text></g>
<g clip-path='url(#cpMC4wMHw1MTAuMjR8NjUuMjB8MC4wMA==)'><text x='260.31' y='50.87' style='font-size: 6.40px; fill: #4D4D4D; font-family: Arial;' textLength='3.56px' lengthAdjust='spacingAndGlyphs'>2</text></g>
<g clip-path='url(#cpMC4wMHw1MTAuMjR8NjUuMjB8MC4wMA==)'><text x='287.32' y='50.87' style='font-size: 6.40px; fill: #4D4D4D; font-family: Arial;' textLength='3.56px' lengthAdjust='spacingAndGlyphs'>3</text></g>
<g clip-path='url(#cpMC4wMHw1MTAuMjR8NjUuMjB8MC4wMA==)'><text x='314.32' y='50.87' style='font-size: 6.40px; fill: #4D4D4D; font-family: Arial;' textLength='3.56px' lengthAdjust='spacingAndGlyphs'>4</text></g>
<g clip-path='url(#cpMC4wMHw1MTAuMjR8NjUuMjB8MC4wMA==)'><text x='341.33' y='50.87' style='font-size: 6.40px; fill: #4D4D4D; font-family: Arial;' textLength='3.56px' lengthAdjust='spacingAndGlyphs'>5</text></g>
<g clip-path='url(#cpMC4wMHw1MTAuMjR8NjUuMjB8MC4wMA==)'><text x='239.85' y='59.71' style='font-size: 8.00px; font-family: Arial;' textLength='84.05px' lengthAdjust='spacingAndGlyphs'>Scores and 99.99% CIs</text></g>
<defs>
  <clipPath id='cpMC4wMHwxNzYuOTl8NDIuNzB8MjEuOTk='>
    <rect x='0.00' y='21.99' width='176.99' height='20.71' />
  </clipPath>
</defs>
<defs>
  <clipPath id='cpMC4wMHw1MTAuMjR8NjUuMjB8MC4wMA=='>
    <rect x='0.00' y='0.00' width='510.24' height='65.20' />
  </clipPath>
</defs>
<g clip-path='url(#cpMC4wMHw1MTAuMjR8NjUuMjB8MC4wMA==)'><text x='3.59' y='30.88' style='font-size: 8.00px; font-family: Arial;' textLength='168.07px' lengthAdjust='spacingAndGlyphs'>AttExExWeird * AttExEvWeird [Keeping at least</text></g>
<g clip-path='url(#cpMC4wMHw1MTAuMjR8NjUuMjB8MC4wMA==)'><text x='3.59' y='39.52' style='font-size: 8.00px; font-family: Arial;' textLength='173.41px' lengthAdjust='spacingAndGlyphs'>{distRec} distance from others makes me feel …]</text></g>
<defs>
  <clipPath id='cpMC4wMHwxNzYuOTl8NDIuNzB8MjEuOTk='>
    <rect x='0.00' y='21.99' width='176.99' height='20.71' />
  </clipPath>
</defs>
<defs>
  <clipPath id='cpMC4wMHw1MTAuMjR8NjUuMjB8MC4wMA=='>
    <rect x='0.00' y='0.00' width='510.24' height='65.20' />
  </clipPath>
</defs>
<defs>
  <clipPath id='cpMzgyLjQ4fDUxMC4yNHw2NS4yMHwxOC4wMA=='>
    <rect x='382.48' y='18.00' width='127.75' height='47.20' />
  </clipPath>
</defs>
<rect x='382.48' y='18.00' width='127.75' height='47.20' style='stroke-width: 0.78; stroke: #FFFFFF; fill: #FFFFFF;' clip-path='url(#cpMzgyLjQ4fDUxMC4yNHw2NS4yMHwxOC4wMA==)' />
<defs>
  <clipPath id='cpMzg2LjQ3fDUwNi4yNXw0Mi43MHwyMS45OQ=='>
    <rect x='386.47' y='21.99' width='119.78' height='20.71' />
  </clipPath>
</defs>
<rect x='386.47' y='21.99' width='119.78' height='20.71' style='stroke-width: 0.78; stroke: none; fill: #FFFFFF;' clip-path='url(#cpMzg2LjQ3fDUwNi4yNXw0Mi43MHwyMS45OQ==)' />
<polyline points='405.52,42.70 405.52,21.99 ' style='stroke-width: 0.39; stroke: #EBEBEB; stroke-linecap: butt;' clip-path='url(#cpMzg2LjQ3fDUwNi4yNXw0Mi43MHwyMS45OQ==)' />
<polyline points='432.75,42.70 432.75,21.99 ' style='stroke-width: 0.39; stroke: #EBEBEB; stroke-linecap: butt;' clip-path='url(#cpMzg2LjQ3fDUwNi4yNXw0Mi43MHwyMS45OQ==)' />
<polyline points='459.97,42.70 459.97,21.99 ' style='stroke-width: 0.39; stroke: #EBEBEB; stroke-linecap: butt;' clip-path='url(#cpMzg2LjQ3fDUwNi4yNXw0Mi43MHwyMS45OQ==)' />
<polyline points='487.19,42.70 487.19,21.99 ' style='stroke-width: 0.39; stroke: #EBEBEB; stroke-linecap: butt;' clip-path='url(#cpMzg2LjQ3fDUwNi4yNXw0Mi43MHwyMS45OQ==)' />
<polyline points='391.91,42.70 391.91,21.99 ' style='stroke-width: 0.78; stroke: #EBEBEB; stroke-linecap: butt;' clip-path='url(#cpMzg2LjQ3fDUwNi4yNXw0Mi43MHwyMS45OQ==)' />
<polyline points='419.14,42.70 419.14,21.99 ' style='stroke-width: 0.78; stroke: #EBEBEB; stroke-linecap: butt;' clip-path='url(#cpMzg2LjQ3fDUwNi4yNXw0Mi43MHwyMS45OQ==)' />
<polyline points='446.36,42.70 446.36,21.99 ' style='stroke-width: 0.78; stroke: #EBEBEB; stroke-linecap: butt;' clip-path='url(#cpMzg2LjQ3fDUwNi4yNXw0Mi43MHwyMS45OQ==)' />
<polyline points='473.58,42.70 473.58,21.99 ' style='stroke-width: 0.78; stroke: #EBEBEB; stroke-linecap: butt;' clip-path='url(#cpMzg2LjQ3fDUwNi4yNXw0Mi43MHwyMS45OQ==)' />
<polyline points='500.81,42.70 500.81,21.99 ' style='stroke-width: 0.78; stroke: #EBEBEB; stroke-linecap: butt;' clip-path='url(#cpMzg2LjQ3fDUwNi4yNXw0Mi43MHwyMS45OQ==)' />
<line x1='419.14' y1='42.70' x2='419.14' y2='21.99' style='stroke-width: 1.07; stroke: #BEBEBE; stroke-linecap: butt;' clip-path='url(#cpMzg2LjQ3fDUwNi4yNXw0Mi43MHwyMS45OQ==)' />
<line x1='446.36' y1='42.70' x2='446.36' y2='21.99' style='stroke-width: 1.07; stroke: #BEBEBE; stroke-linecap: butt;' clip-path='url(#cpMzg2LjQ3fDUwNi4yNXw0Mi43MHwyMS45OQ==)' />
<line x1='473.58' y1='42.70' x2='473.58' y2='21.99' style='stroke-width: 1.07; stroke: #BEBEBE; stroke-linecap: butt;' clip-path='url(#cpMzg2LjQ3fDUwNi4yNXw0Mi43MHwyMS45OQ==)' />
<polygon points='432.25,32.34 438.30,41.76 444.57,32.34 438.30,22.93 432.25,32.34 ' style='stroke-width: 2.13; fill: #4D5D5D; fill-opacity: 0.50;' clip-path='url(#cpMzg2LjQ3fDUwNi4yNXw0Mi43MHwyMS45OQ==)' />
<rect x='386.47' y='21.99' width='119.78' height='20.71' style='stroke-width: 0.78; stroke: #333333;' clip-path='url(#cpMzg2LjQ3fDUwNi4yNXw0Mi43MHwyMS45OQ==)' />
<defs>
  <clipPath id='cpMzgyLjQ4fDUxMC4yNHw2NS4yMHwxOC4wMA=='>
    <rect x='382.48' y='18.00' width='127.75' height='47.20' />
  </clipPath>
</defs>
<defs>
  <clipPath id='cpMC4wMHw1MTAuMjR8NjUuMjB8MC4wMA=='>
    <rect x='0.00' y='0.00' width='510.24' height='65.20' />
  </clipPath>
</defs>
<defs>
  <clipPath id='cpMzgyLjQ4fDUxMC4yNHw2NS4yMHwxOC4wMA=='>
    <rect x='382.48' y='18.00' width='127.75' height='47.20' />
  </clipPath>
</defs>
<defs>
  <clipPath id='cpMC4wMHw1MTAuMjR8NjUuMjB8MC4wMA=='>
    <rect x='0.00' y='0.00' width='510.24' height='65.20' />
  </clipPath>
</defs>
<defs>
  <clipPath id='cpMzgyLjQ4fDUxMC4yNHw2NS4yMHwxOC4wMA=='>
    <rect x='382.48' y='18.00' width='127.75' height='47.20' />
  </clipPath>
</defs>
<defs>
  <clipPath id='cpMC4wMHw1MTAuMjR8NjUuMjB8MC4wMA=='>
    <rect x='0.00' y='0.00' width='510.24' height='65.20' />
  </clipPath>
</defs>
<defs>
  <clipPath id='cpMzgyLjQ4fDUxMC4yNHw2NS4yMHwxOC4wMA=='>
    <rect x='382.48' y='18.00' width='127.75' height='47.20' />
  </clipPath>
</defs>
<defs>
  <clipPath id='cpMC4wMHw1MTAuMjR8NjUuMjB8MC4wMA=='>
    <rect x='0.00' y='0.00' width='510.24' height='65.20' />
  </clipPath>
</defs>
<defs>
  <clipPath id='cpMzgyLjQ4fDUxMC4yNHw2NS4yMHwxOC4wMA=='>
    <rect x='382.48' y='18.00' width='127.75' height='47.20' />
  </clipPath>
</defs>
<defs>
  <clipPath id='cpMC4wMHw1MTAuMjR8NjUuMjB8MC4wMA=='>
    <rect x='0.00' y='0.00' width='510.24' height='65.20' />
  </clipPath>
</defs>
<defs>
  <clipPath id='cpMzgyLjQ4fDUxMC4yNHw2NS4yMHwxOC4wMA=='>
    <rect x='382.48' y='18.00' width='127.75' height='47.20' />
  </clipPath>
</defs>
<defs>
  <clipPath id='cpMC4wMHw1MTAuMjR8NjUuMjB8MC4wMA=='>
    <rect x='0.00' y='0.00' width='510.24' height='65.20' />
  </clipPath>
</defs>
<defs>
  <clipPath id='cpMzgyLjQ4fDUxMC4yNHw2NS4yMHwxOC4wMA=='>
    <rect x='382.48' y='18.00' width='127.75' height='47.20' />
  </clipPath>
</defs>
<defs>
  <clipPath id='cpMC4wMHw1MTAuMjR8NjUuMjB8MC4wMA=='>
    <rect x='0.00' y='0.00' width='510.24' height='65.20' />
  </clipPath>
</defs>
<defs>
  <clipPath id='cpMzgyLjQ4fDUxMC4yNHw2NS4yMHwxOC4wMA=='>
    <rect x='382.48' y='18.00' width='127.75' height='47.20' />
  </clipPath>
</defs>
<defs>
  <clipPath id='cpMC4wMHw1MTAuMjR8NjUuMjB8MC4wMA=='>
    <rect x='0.00' y='0.00' width='510.24' height='65.20' />
  </clipPath>
</defs>
<polyline points='391.91,44.69 391.91,42.70 ' style='stroke-width: 0.78; stroke: #333333; stroke-linecap: butt;' clip-path='url(#cpMC4wMHw1MTAuMjR8NjUuMjB8MC4wMA==)' />
<polyline points='419.14,44.69 419.14,42.70 ' style='stroke-width: 0.78; stroke: #333333; stroke-linecap: butt;' clip-path='url(#cpMC4wMHw1MTAuMjR8NjUuMjB8MC4wMA==)' />
<polyline points='446.36,44.69 446.36,42.70 ' style='stroke-width: 0.78; stroke: #333333; stroke-linecap: butt;' clip-path='url(#cpMC4wMHw1MTAuMjR8NjUuMjB8MC4wMA==)' />
<polyline points='473.58,44.69 473.58,42.70 ' style='stroke-width: 0.78; stroke: #333333; stroke-linecap: butt;' clip-path='url(#cpMC4wMHw1MTAuMjR8NjUuMjB8MC4wMA==)' />
<polyline points='500.81,44.69 500.81,42.70 ' style='stroke-width: 0.78; stroke: #333333; stroke-linecap: butt;' clip-path='url(#cpMC4wMHw1MTAuMjR8NjUuMjB8MC4wMA==)' />
<g clip-path='url(#cpMC4wMHw1MTAuMjR8NjUuMjB8MC4wMA==)'><text x='386.40' y='50.87' style='font-size: 6.40px; fill: #4D4D4D; font-family: Arial;' textLength='11.03px' lengthAdjust='spacingAndGlyphs'>-1.0</text></g>
<g clip-path='url(#cpMC4wMHw1MTAuMjR8NjUuMjB8MC4wMA==)'><text x='413.62' y='50.87' style='font-size: 6.40px; fill: #4D4D4D; font-family: Arial;' textLength='11.03px' lengthAdjust='spacingAndGlyphs'>-0.5</text></g>
<g clip-path='url(#cpMC4wMHw1MTAuMjR8NjUuMjB8MC4wMA==)'><text x='441.91' y='50.87' style='font-size: 6.40px; fill: #4D4D4D; font-family: Arial;' textLength='8.90px' lengthAdjust='spacingAndGlyphs'>0.0</text></g>
<g clip-path='url(#cpMC4wMHw1MTAuMjR8NjUuMjB8MC4wMA==)'><text x='469.13' y='50.87' style='font-size: 6.40px; fill: #4D4D4D; font-family: Arial;' textLength='8.90px' lengthAdjust='spacingAndGlyphs'>0.5</text></g>
<g clip-path='url(#cpMC4wMHw1MTAuMjR8NjUuMjB8MC4wMA==)'><text x='496.36' y='50.87' style='font-size: 6.40px; fill: #4D4D4D; font-family: Arial;' textLength='8.90px' lengthAdjust='spacingAndGlyphs'>1.0</text></g>
<defs>
  <clipPath id='cpMzgyLjQ4fDUxMC4yNHw2NS4yMHwxOC4wMA=='>
    <rect x='382.48' y='18.00' width='127.75' height='47.20' />
  </clipPath>
</defs>
<defs>
  <clipPath id='cpMC4wMHw1MTAuMjR8NjUuMjB8MC4wMA=='>
    <rect x='0.00' y='0.00' width='510.24' height='65.20' />
  </clipPath>
</defs>
<defs>
  <clipPath id='cpMzgyLjQ4fDUxMC4yNHw2NS4yMHwxOC4wMA=='>
    <rect x='382.48' y='18.00' width='127.75' height='47.20' />
  </clipPath>
</defs>
<defs>
  <clipPath id='cpMC4wMHw1MTAuMjR8NjUuMjB8MC4wMA=='>
    <rect x='0.00' y='0.00' width='510.24' height='65.20' />
  </clipPath>
</defs>
<g clip-path='url(#cpMC4wMHw1MTAuMjR8NjUuMjB8MC4wMA==)'><text x='403.67' y='59.71' style='font-size: 8.00px; font-family: Arial;' textLength='85.38px' lengthAdjust='spacingAndGlyphs'>95% CIs of associations</text></g>
<defs>
  <clipPath id='cpMzgyLjQ4fDUxMC4yNHw2NS4yMHwxOC4wMA=='>
    <rect x='382.48' y='18.00' width='127.75' height='47.20' />
  </clipPath>
</defs>
<defs>
  <clipPath id='cpMC4wMHw1MTAuMjR8NjUuMjB8MC4wMA=='>
    <rect x='0.00' y='0.00' width='510.24' height='65.20' />
  </clipPath>
</defs>
<defs>
  <clipPath id='cpMzgyLjQ4fDUxMC4yNHw2NS4yMHwxOC4wMA=='>
    <rect x='382.48' y='18.00' width='127.75' height='47.20' />
  </clipPath>
</defs>
<defs>
  <clipPath id='cpMC4wMHw1MTAuMjR8NjUuMjB8MC4wMA=='>
    <rect x='0.00' y='0.00' width='510.24' height='65.20' />
  </clipPath>
</defs>
<defs>
  <clipPath id='cpMzgyLjQ4fDUxMC4yNHw2NS4yMHwxOC4wMA=='>
    <rect x='382.48' y='18.00' width='127.75' height='47.20' />
  </clipPath>
</defs>
<defs>
  <clipPath id='cpMC4wMHw1MTAuMjR8NjUuMjB8MC4wMA=='>
    <rect x='0.00' y='0.00' width='510.24' height='65.20' />
  </clipPath>
</defs>
<defs>
  <clipPath id='cpMzgyLjQ4fDUxMC4yNHw2NS4yMHwxOC4wMA=='>
    <rect x='382.48' y='18.00' width='127.75' height='47.20' />
  </clipPath>
</defs>
<defs>
  <clipPath id='cpMC4wMHw1MTAuMjR8NjUuMjB8MC4wMA=='>
    <rect x='0.00' y='0.00' width='510.24' height='65.20' />
  </clipPath>
</defs>
<defs>
  <clipPath id='cpMzgyLjQ4fDUxMC4yNHw2NS4yMHwxOC4wMA=='>
    <rect x='382.48' y='18.00' width='127.75' height='47.20' />
  </clipPath>
</defs>
<defs>
  <clipPath id='cpMC4wMHw1MTAuMjR8NjUuMjB8MC4wMA=='>
    <rect x='0.00' y='0.00' width='510.24' height='65.20' />
  </clipPath>
</defs>
<defs>
  <clipPath id='cpMzgyLjQ4fDUxMC4yNHw2NS4yMHwxOC4wMA=='>
    <rect x='382.48' y='18.00' width='127.75' height='47.20' />
  </clipPath>
</defs>
<defs>
  <clipPath id='cpMC4wMHw1MTAuMjR8NjUuMjB8MC4wMA=='>
    <rect x='0.00' y='0.00' width='510.24' height='65.20' />
  </clipPath>
</defs>
<defs>
  <clipPath id='cpMzgyLjQ4fDUxMC4yNHw2NS4yMHwxOC4wMA=='>
    <rect x='382.48' y='18.00' width='127.75' height='47.20' />
  </clipPath>
</defs>
<defs>
  <clipPath id='cpMC4wMHw1MTAuMjR8NjUuMjB8MC4wMA=='>
    <rect x='0.00' y='0.00' width='510.24' height='65.20' />
  </clipPath>
</defs>
<g clip-path='url(#cpMC4wMHw1MTAuMjR8NjUuMjB8MC4wMA==)'><text x='2.30' y='8.78' style='font-size: 9.60px; font-weight: bold; font-family: Arial;' textLength='147.76px' lengthAdjust='spacingAndGlyphs'>Means and associations (r) with </text></g>
<g clip-path='url(#cpMC4wMHw1MTAuMjR8NjUuMjB8MC4wMA==)'><text x='150.07' y='8.78' style='font-size: 9.60px; font-weight: bold; font-family: Arial;' textLength='43.21px' lengthAdjust='spacingAndGlyphs'>proximity</text></g>
<g clip-path='url(#cpMC4wMHw1MTAuMjR8NjUuMjB8MC4wMA==)'><text x='193.28' y='8.78' style='font-size: 9.60px; font-weight: bold; font-family: Arial;' textLength='2.67px' lengthAdjust='spacingAndGlyphs'> </text></g>
</svg>
