<?xml version='1.0' encoding='UTF-8' ?>
<svg xmlns='http://www.w3.org/2000/svg' xmlns:xlink='http://www.w3.org/1999/xlink' viewBox='0 0 510.24 221.10'>
<defs>
  <style type='text/css'><![CDATA[
    line, polyline, polygon, path, rect, circle {
      fill: none;
      stroke: #000000;
      stroke-linecap: round;
      stroke-linejoin: round;
      stroke-miterlimit: 10.00;
    }
  ]]></style>
</defs>
<rect width='100%' height='100%' style='stroke: none; fill: none;'/>
<defs>
  <clipPath id='cpMTcwLjMyfDQxNC43MnwyMjEuMTB8MTguMDA='>
    <rect x='170.32' y='18.00' width='244.41' height='203.10' />
  </clipPath>
</defs>
<rect x='170.32' y='18.00' width='244.41' height='203.10' style='stroke-width: 0.78; stroke: #FFFFFF; fill: #FFFFFF;' clip-path='url(#cpMTcwLjMyfDQxNC43MnwyMjEuMTB8MTguMDA=)' />
<defs>
  <clipPath id='cpMC4wMHw1MTAuMjR8MjIxLjEwfDAuMDA='>
    <rect x='0.00' y='0.00' width='510.24' height='221.10' />
  </clipPath>
</defs>
<defs>
  <clipPath id='cpMjQ3LjI2fDM0Mi43N3wxOTguNjF8MjEuOTk='>
    <rect x='247.26' y='21.99' width='95.51' height='176.62' />
  </clipPath>
</defs>
<rect x='247.26' y='21.99' width='95.51' height='176.62' style='stroke-width: 0.78; stroke: none; fill: #FFFFFF;' clip-path='url(#cpMjQ3LjI2fDM0Mi43N3wxOTguNjF8MjEuOTk=)' />
<polyline points='254.19,198.61 254.19,21.99 ' style='stroke-width: 0.39; stroke: #EBEBEB; stroke-linecap: butt;' clip-path='url(#cpMjQ3LjI2fDM0Mi43N3wxOTguNjF8MjEuOTk=)' />
<polyline points='270.63,198.61 270.63,21.99 ' style='stroke-width: 0.39; stroke: #EBEBEB; stroke-linecap: butt;' clip-path='url(#cpMjQ3LjI2fDM0Mi43N3wxOTguNjF8MjEuOTk=)' />
<polyline points='287.08,198.61 287.08,21.99 ' style='stroke-width: 0.39; stroke: #EBEBEB; stroke-linecap: butt;' clip-path='url(#cpMjQ3LjI2fDM0Mi43N3wxOTguNjF8MjEuOTk=)' />
<polyline points='303.52,198.61 303.52,21.99 ' style='stroke-width: 0.39; stroke: #EBEBEB; stroke-linecap: butt;' clip-path='url(#cpMjQ3LjI2fDM0Mi43N3wxOTguNjF8MjEuOTk=)' />
<polyline points='319.97,198.61 319.97,21.99 ' style='stroke-width: 0.39; stroke: #EBEBEB; stroke-linecap: butt;' clip-path='url(#cpMjQ3LjI2fDM0Mi43N3wxOTguNjF8MjEuOTk=)' />
<polyline points='336.41,198.61 336.41,21.99 ' style='stroke-width: 0.39; stroke: #EBEBEB; stroke-linecap: butt;' clip-path='url(#cpMjQ3LjI2fDM0Mi43N3wxOTguNjF8MjEuOTk=)' />
<polyline points='247.26,184.91 342.77,184.91 ' style='stroke-width: 0.78; stroke: #EBEBEB; stroke-linecap: butt;' clip-path='url(#cpMjQ3LjI2fDM0Mi43N3wxOTguNjF8MjEuOTk=)' />
<polyline points='247.26,160.25 342.77,160.25 ' style='stroke-width: 0.78; stroke: #EBEBEB; stroke-linecap: butt;' clip-path='url(#cpMjQ3LjI2fDM0Mi43N3wxOTguNjF8MjEuOTk=)' />
<polyline points='247.26,135.59 342.77,135.59 ' style='stroke-width: 0.78; stroke: #EBEBEB; stroke-linecap: butt;' clip-path='url(#cpMjQ3LjI2fDM0Mi43N3wxOTguNjF8MjEuOTk=)' />
<polyline points='247.26,110.93 342.77,110.93 ' style='stroke-width: 0.78; stroke: #EBEBEB; stroke-linecap: butt;' clip-path='url(#cpMjQ3LjI2fDM0Mi43N3wxOTguNjF8MjEuOTk=)' />
<polyline points='247.26,86.27 342.77,86.27 ' style='stroke-width: 0.78; stroke: #EBEBEB; stroke-linecap: butt;' clip-path='url(#cpMjQ3LjI2fDM0Mi43N3wxOTguNjF8MjEuOTk=)' />
<polyline points='247.26,61.61 342.77,61.61 ' style='stroke-width: 0.78; stroke: #EBEBEB; stroke-linecap: butt;' clip-path='url(#cpMjQ3LjI2fDM0Mi43N3wxOTguNjF8MjEuOTk=)' />
<polyline points='247.26,36.95 342.77,36.95 ' style='stroke-width: 0.78; stroke: #EBEBEB; stroke-linecap: butt;' clip-path='url(#cpMjQ3LjI2fDM0Mi43N3wxOTguNjF8MjEuOTk=)' />
<polyline points='262.41,198.61 262.41,21.99 ' style='stroke-width: 0.78; stroke: #EBEBEB; stroke-linecap: butt;' clip-path='url(#cpMjQ3LjI2fDM0Mi43N3wxOTguNjF8MjEuOTk=)' />
<polyline points='278.86,198.61 278.86,21.99 ' style='stroke-width: 0.78; stroke: #EBEBEB; stroke-linecap: butt;' clip-path='url(#cpMjQ3LjI2fDM0Mi43N3wxOTguNjF8MjEuOTk=)' />
<polyline points='295.30,198.61 295.30,21.99 ' style='stroke-width: 0.78; stroke: #EBEBEB; stroke-linecap: butt;' clip-path='url(#cpMjQ3LjI2fDM0Mi43N3wxOTguNjF8MjEuOTk=)' />
<polyline points='311.75,198.61 311.75,21.99 ' style='stroke-width: 0.78; stroke: #EBEBEB; stroke-linecap: butt;' clip-path='url(#cpMjQ3LjI2fDM0Mi43N3wxOTguNjF8MjEuOTk=)' />
<polyline points='328.19,198.61 328.19,21.99 ' style='stroke-width: 0.78; stroke: #EBEBEB; stroke-linecap: butt;' clip-path='url(#cpMjQ3LjI2fDM0Mi43N3wxOTguNjF8MjEuOTk=)' />
<circle cx='324.93' cy='190.58' r='2.13' style='stroke-width: 0.00; stroke: #444444; stroke-opacity: 0.10; fill: #444444; fill-opacity: 0.10;' clip-path='url(#cpMjQ3LjI2fDM0Mi43N3wxOTguNjF8MjEuOTk=)' />
<circle cx='327.65' cy='183.32' r='2.13' style='stroke-width: 0.00; stroke: #444444; stroke-opacity: 0.10; fill: #444444; fill-opacity: 0.10;' clip-path='url(#cpMjQ3LjI2fDM0Mi43N3wxOTguNjF8MjEuOTk=)' />
<circle cx='327.58' cy='188.23' r='2.13' style='stroke-width: 0.00; stroke: #444444; stroke-opacity: 0.10; fill: #444444; fill-opacity: 0.10;' clip-path='url(#cpMjQ3LjI2fDM0Mi43N3wxOTguNjF8MjEuOTk=)' />
<circle cx='312.49' cy='188.07' r='2.13' style='stroke-width: 0.00; stroke: #444444; stroke-opacity: 0.10; fill: #444444; fill-opacity: 0.10;' clip-path='url(#cpMjQ3LjI2fDM0Mi43N3wxOTguNjF8MjEuOTk=)' />
<circle cx='328.73' cy='180.74' r='2.13' style='stroke-width: 0.00; stroke: #444444; stroke-opacity: 0.10; fill: #444444; fill-opacity: 0.10;' clip-path='url(#cpMjQ3LjI2fDM0Mi43N3wxOTguNjF8MjEuOTk=)' />
<circle cx='334.79' cy='178.89' r='2.13' style='stroke-width: 0.00; stroke: #444444; stroke-opacity: 0.10; fill: #444444; fill-opacity: 0.10;' clip-path='url(#cpMjQ3LjI2fDM0Mi43N3wxOTguNjF8MjEuOTk=)' />
<circle cx='329.27' cy='182.02' r='2.13' style='stroke-width: 0.00; stroke: #444444; stroke-opacity: 0.10; fill: #444444; fill-opacity: 0.10;' clip-path='url(#cpMjQ3LjI2fDM0Mi43N3wxOTguNjF8MjEuOTk=)' />
<circle cx='324.05' cy='189.74' r='2.13' style='stroke-width: 0.00; stroke: #444444; stroke-opacity: 0.10; fill: #444444; fill-opacity: 0.10;' clip-path='url(#cpMjQ3LjI2fDM0Mi43N3wxOTguNjF8MjEuOTk=)' />
<circle cx='323.56' cy='181.18' r='2.13' style='stroke-width: 0.00; stroke: #444444; stroke-opacity: 0.10; fill: #444444; fill-opacity: 0.10;' clip-path='url(#cpMjQ3LjI2fDM0Mi43N3wxOTguNjF8MjEuOTk=)' />
<circle cx='323.14' cy='183.94' r='2.13' style='stroke-width: 0.00; stroke: #444444; stroke-opacity: 0.10; fill: #444444; fill-opacity: 0.10;' clip-path='url(#cpMjQ3LjI2fDM0Mi43N3wxOTguNjF8MjEuOTk=)' />
<circle cx='326.25' cy='179.86' r='2.13' style='stroke-width: 0.00; stroke: #444444; stroke-opacity: 0.10; fill: #444444; fill-opacity: 0.10;' clip-path='url(#cpMjQ3LjI2fDM0Mi43N3wxOTguNjF8MjEuOTk=)' />
<circle cx='327.94' cy='179.75' r='2.13' style='stroke-width: 0.00; stroke: #444444; stroke-opacity: 0.10; fill: #444444; fill-opacity: 0.10;' clip-path='url(#cpMjQ3LjI2fDM0Mi43N3wxOTguNjF8MjEuOTk=)' />
<circle cx='324.69' cy='180.12' r='2.13' style='stroke-width: 0.00; stroke: #444444; stroke-opacity: 0.10; fill: #444444; fill-opacity: 0.10;' clip-path='url(#cpMjQ3LjI2fDM0Mi43N3wxOTguNjF8MjEuOTk=)' />
<circle cx='325.50' cy='177.74' r='2.13' style='stroke-width: 0.00; stroke: #444444; stroke-opacity: 0.10; fill: #444444; fill-opacity: 0.10;' clip-path='url(#cpMjQ3LjI2fDM0Mi43N3wxOTguNjF8MjEuOTk=)' />
<circle cx='333.80' cy='189.36' r='2.13' style='stroke-width: 0.00; stroke: #444444; stroke-opacity: 0.10; fill: #444444; fill-opacity: 0.10;' clip-path='url(#cpMjQ3LjI2fDM0Mi43N3wxOTguNjF8MjEuOTk=)' />
<circle cx='333.10' cy='183.20' r='2.13' style='stroke-width: 0.00; stroke: #444444; stroke-opacity: 0.10; fill: #444444; fill-opacity: 0.10;' clip-path='url(#cpMjQ3LjI2fDM0Mi43N3wxOTguNjF8MjEuOTk=)' />
<circle cx='334.48' cy='185.03' r='2.13' style='stroke-width: 0.00; stroke: #444444; stroke-opacity: 0.10; fill: #444444; fill-opacity: 0.10;' clip-path='url(#cpMjQ3LjI2fDM0Mi43N3wxOTguNjF8MjEuOTk=)' />
<circle cx='332.72' cy='188.34' r='2.13' style='stroke-width: 0.00; stroke: #444444; stroke-opacity: 0.10; fill: #444444; fill-opacity: 0.10;' clip-path='url(#cpMjQ3LjI2fDM0Mi43N3wxOTguNjF8MjEuOTk=)' />
<circle cx='325.00' cy='186.82' r='2.13' style='stroke-width: 0.00; stroke: #444444; stroke-opacity: 0.10; fill: #444444; fill-opacity: 0.10;' clip-path='url(#cpMjQ3LjI2fDM0Mi43N3wxOTguNjF8MjEuOTk=)' />
<circle cx='328.02' cy='178.65' r='2.13' style='stroke-width: 0.00; stroke: #444444; stroke-opacity: 0.10; fill: #444444; fill-opacity: 0.10;' clip-path='url(#cpMjQ3LjI2fDM0Mi43N3wxOTguNjF8MjEuOTk=)' />
<circle cx='333.56' cy='187.84' r='2.13' style='stroke-width: 0.00; stroke: #444444; stroke-opacity: 0.10; fill: #444444; fill-opacity: 0.10;' clip-path='url(#cpMjQ3LjI2fDM0Mi43N3wxOTguNjF8MjEuOTk=)' />
<circle cx='328.78' cy='184.44' r='2.13' style='stroke-width: 0.00; stroke: #444444; stroke-opacity: 0.10; fill: #444444; fill-opacity: 0.10;' clip-path='url(#cpMjQ3LjI2fDM0Mi43N3wxOTguNjF8MjEuOTk=)' />
<circle cx='258.55' cy='187.41' r='2.13' style='stroke-width: 0.00; stroke: #444444; stroke-opacity: 0.10; fill: #444444; fill-opacity: 0.10;' clip-path='url(#cpMjQ3LjI2fDM0Mi43N3wxOTguNjF8MjEuOTk=)' />
<circle cx='331.10' cy='164.97' r='2.13' style='stroke-width: 0.00; stroke: #444444; stroke-opacity: 0.10; fill: #444444; fill-opacity: 0.10;' clip-path='url(#cpMjQ3LjI2fDM0Mi43N3wxOTguNjF8MjEuOTk=)' />
<circle cx='280.17' cy='159.70' r='2.13' style='stroke-width: 0.00; stroke: #444444; stroke-opacity: 0.10; fill: #444444; fill-opacity: 0.10;' clip-path='url(#cpMjQ3LjI2fDM0Mi43N3wxOTguNjF8MjEuOTk=)' />
<circle cx='273.82' cy='162.11' r='2.13' style='stroke-width: 0.00; stroke: #444444; stroke-opacity: 0.10; fill: #444444; fill-opacity: 0.10;' clip-path='url(#cpMjQ3LjI2fDM0Mi43N3wxOTguNjF8MjEuOTk=)' />
<circle cx='295.82' cy='164.44' r='2.13' style='stroke-width: 0.00; stroke: #444444; stroke-opacity: 0.10; fill: #444444; fill-opacity: 0.10;' clip-path='url(#cpMjQ3LjI2fDM0Mi43N3wxOTguNjF8MjEuOTk=)' />
<circle cx='275.22' cy='154.79' r='2.13' style='stroke-width: 0.00; stroke: #444444; stroke-opacity: 0.10; fill: #444444; fill-opacity: 0.10;' clip-path='url(#cpMjQ3LjI2fDM0Mi43N3wxOTguNjF8MjEuOTk=)' />
<circle cx='295.79' cy='165.86' r='2.13' style='stroke-width: 0.00; stroke: #444444; stroke-opacity: 0.10; fill: #444444; fill-opacity: 0.10;' clip-path='url(#cpMjQ3LjI2fDM0Mi43N3wxOTguNjF8MjEuOTk=)' />
<circle cx='330.04' cy='153.63' r='2.13' style='stroke-width: 0.00; stroke: #444444; stroke-opacity: 0.10; fill: #444444; fill-opacity: 0.10;' clip-path='url(#cpMjQ3LjI2fDM0Mi43N3wxOTguNjF8MjEuOTk=)' />
<circle cx='328.57' cy='159.60' r='2.13' style='stroke-width: 0.00; stroke: #444444; stroke-opacity: 0.10; fill: #444444; fill-opacity: 0.10;' clip-path='url(#cpMjQ3LjI2fDM0Mi43N3wxOTguNjF8MjEuOTk=)' />
<circle cx='296.72' cy='155.38' r='2.13' style='stroke-width: 0.00; stroke: #444444; stroke-opacity: 0.10; fill: #444444; fill-opacity: 0.10;' clip-path='url(#cpMjQ3LjI2fDM0Mi43N3wxOTguNjF8MjEuOTk=)' />
<circle cx='263.53' cy='155.24' r='2.13' style='stroke-width: 0.00; stroke: #444444; stroke-opacity: 0.10; fill: #444444; fill-opacity: 0.10;' clip-path='url(#cpMjQ3LjI2fDM0Mi43N3wxOTguNjF8MjEuOTk=)' />
<circle cx='318.24' cy='166.58' r='2.13' style='stroke-width: 0.00; stroke: #444444; stroke-opacity: 0.10; fill: #444444; fill-opacity: 0.10;' clip-path='url(#cpMjQ3LjI2fDM0Mi43N3wxOTguNjF8MjEuOTk=)' />
<circle cx='326.99' cy='164.89' r='2.13' style='stroke-width: 0.00; stroke: #444444; stroke-opacity: 0.10; fill: #444444; fill-opacity: 0.10;' clip-path='url(#cpMjQ3LjI2fDM0Mi43N3wxOTguNjF8MjEuOTk=)' />
<circle cx='332.89' cy='158.44' r='2.13' style='stroke-width: 0.00; stroke: #444444; stroke-opacity: 0.10; fill: #444444; fill-opacity: 0.10;' clip-path='url(#cpMjQ3LjI2fDM0Mi43N3wxOTguNjF8MjEuOTk=)' />
<circle cx='321.28' cy='156.02' r='2.13' style='stroke-width: 0.00; stroke: #444444; stroke-opacity: 0.10; fill: #444444; fill-opacity: 0.10;' clip-path='url(#cpMjQ3LjI2fDM0Mi43N3wxOTguNjF8MjEuOTk=)' />
<circle cx='262.29' cy='154.91' r='2.13' style='stroke-width: 0.00; stroke: #444444; stroke-opacity: 0.10; fill: #444444; fill-opacity: 0.10;' clip-path='url(#cpMjQ3LjI2fDM0Mi43N3wxOTguNjF8MjEuOTk=)' />
<circle cx='301.47' cy='165.86' r='2.13' style='stroke-width: 0.00; stroke: #444444; stroke-opacity: 0.10; fill: #444444; fill-opacity: 0.10;' clip-path='url(#cpMjQ3LjI2fDM0Mi43N3wxOTguNjF8MjEuOTk=)' />
<circle cx='266.79' cy='154.87' r='2.13' style='stroke-width: 0.00; stroke: #444444; stroke-opacity: 0.10; fill: #444444; fill-opacity: 0.10;' clip-path='url(#cpMjQ3LjI2fDM0Mi43N3wxOTguNjF8MjEuOTk=)' />
<circle cx='295.03' cy='164.58' r='2.13' style='stroke-width: 0.00; stroke: #444444; stroke-opacity: 0.10; fill: #444444; fill-opacity: 0.10;' clip-path='url(#cpMjQ3LjI2fDM0Mi43N3wxOTguNjF8MjEuOTk=)' />
<circle cx='256.15' cy='161.66' r='2.13' style='stroke-width: 0.00; stroke: #444444; stroke-opacity: 0.10; fill: #444444; fill-opacity: 0.10;' clip-path='url(#cpMjQ3LjI2fDM0Mi43N3wxOTguNjF8MjEuOTk=)' />
<circle cx='330.25' cy='153.93' r='2.13' style='stroke-width: 0.00; stroke: #444444; stroke-opacity: 0.10; fill: #444444; fill-opacity: 0.10;' clip-path='url(#cpMjQ3LjI2fDM0Mi43N3wxOTguNjF8MjEuOTk=)' />
<circle cx='327.04' cy='159.38' r='2.13' style='stroke-width: 0.00; stroke: #444444; stroke-opacity: 0.10; fill: #444444; fill-opacity: 0.10;' clip-path='url(#cpMjQ3LjI2fDM0Mi43N3wxOTguNjF8MjEuOTk=)' />
<circle cx='334.80' cy='131.16' r='2.13' style='stroke-width: 0.00; stroke: #444444; stroke-opacity: 0.10; fill: #444444; fill-opacity: 0.10;' clip-path='url(#cpMjQ3LjI2fDM0Mi43N3wxOTguNjF8MjEuOTk=)' />
<circle cx='322.38' cy='141.22' r='2.13' style='stroke-width: 0.00; stroke: #444444; stroke-opacity: 0.10; fill: #444444; fill-opacity: 0.10;' clip-path='url(#cpMjQ3LjI2fDM0Mi43N3wxOTguNjF8MjEuOTk=)' />
<circle cx='330.11' cy='129.49' r='2.13' style='stroke-width: 0.00; stroke: #444444; stroke-opacity: 0.10; fill: #444444; fill-opacity: 0.10;' clip-path='url(#cpMjQ3LjI2fDM0Mi43N3wxOTguNjF8MjEuOTk=)' />
<circle cx='322.36' cy='137.28' r='2.13' style='stroke-width: 0.00; stroke: #444444; stroke-opacity: 0.10; fill: #444444; fill-opacity: 0.10;' clip-path='url(#cpMjQ3LjI2fDM0Mi43N3wxOTguNjF8MjEuOTk=)' />
<circle cx='329.92' cy='130.12' r='2.13' style='stroke-width: 0.00; stroke: #444444; stroke-opacity: 0.10; fill: #444444; fill-opacity: 0.10;' clip-path='url(#cpMjQ3LjI2fDM0Mi43N3wxOTguNjF8MjEuOTk=)' />
<circle cx='321.96' cy='142.01' r='2.13' style='stroke-width: 0.00; stroke: #444444; stroke-opacity: 0.10; fill: #444444; fill-opacity: 0.10;' clip-path='url(#cpMjQ3LjI2fDM0Mi43N3wxOTguNjF8MjEuOTk=)' />
<circle cx='332.97' cy='136.74' r='2.13' style='stroke-width: 0.00; stroke: #444444; stroke-opacity: 0.10; fill: #444444; fill-opacity: 0.10;' clip-path='url(#cpMjQ3LjI2fDM0Mi43N3wxOTguNjF8MjEuOTk=)' />
<circle cx='330.24' cy='134.15' r='2.13' style='stroke-width: 0.00; stroke: #444444; stroke-opacity: 0.10; fill: #444444; fill-opacity: 0.10;' clip-path='url(#cpMjQ3LjI2fDM0Mi43N3wxOTguNjF8MjEuOTk=)' />
<circle cx='333.68' cy='140.47' r='2.13' style='stroke-width: 0.00; stroke: #444444; stroke-opacity: 0.10; fill: #444444; fill-opacity: 0.10;' clip-path='url(#cpMjQ3LjI2fDM0Mi43N3wxOTguNjF8MjEuOTk=)' />
<circle cx='334.81' cy='135.92' r='2.13' style='stroke-width: 0.00; stroke: #444444; stroke-opacity: 0.10; fill: #444444; fill-opacity: 0.10;' clip-path='url(#cpMjQ3LjI2fDM0Mi43N3wxOTguNjF8MjEuOTk=)' />
<circle cx='292.64' cy='137.46' r='2.13' style='stroke-width: 0.00; stroke: #444444; stroke-opacity: 0.10; fill: #444444; fill-opacity: 0.10;' clip-path='url(#cpMjQ3LjI2fDM0Mi43N3wxOTguNjF8MjEuOTk=)' />
<circle cx='301.28' cy='141.56' r='2.13' style='stroke-width: 0.00; stroke: #444444; stroke-opacity: 0.10; fill: #444444; fill-opacity: 0.10;' clip-path='url(#cpMjQ3LjI2fDM0Mi43N3wxOTguNjF8MjEuOTk=)' />
<circle cx='317.00' cy='135.61' r='2.13' style='stroke-width: 0.00; stroke: #444444; stroke-opacity: 0.10; fill: #444444; fill-opacity: 0.10;' clip-path='url(#cpMjQ3LjI2fDM0Mi43N3wxOTguNjF8MjEuOTk=)' />
<circle cx='326.16' cy='141.09' r='2.13' style='stroke-width: 0.00; stroke: #444444; stroke-opacity: 0.10; fill: #444444; fill-opacity: 0.10;' clip-path='url(#cpMjQ3LjI2fDM0Mi43N3wxOTguNjF8MjEuOTk=)' />
<circle cx='327.47' cy='140.84' r='2.13' style='stroke-width: 0.00; stroke: #444444; stroke-opacity: 0.10; fill: #444444; fill-opacity: 0.10;' clip-path='url(#cpMjQ3LjI2fDM0Mi43N3wxOTguNjF8MjEuOTk=)' />
<circle cx='323.50' cy='139.65' r='2.13' style='stroke-width: 0.00; stroke: #444444; stroke-opacity: 0.10; fill: #444444; fill-opacity: 0.10;' clip-path='url(#cpMjQ3LjI2fDM0Mi43N3wxOTguNjF8MjEuOTk=)' />
<circle cx='330.12' cy='138.96' r='2.13' style='stroke-width: 0.00; stroke: #444444; stroke-opacity: 0.10; fill: #444444; fill-opacity: 0.10;' clip-path='url(#cpMjQ3LjI2fDM0Mi43N3wxOTguNjF8MjEuOTk=)' />
<circle cx='322.28' cy='134.72' r='2.13' style='stroke-width: 0.00; stroke: #444444; stroke-opacity: 0.10; fill: #444444; fill-opacity: 0.10;' clip-path='url(#cpMjQ3LjI2fDM0Mi43N3wxOTguNjF8MjEuOTk=)' />
<circle cx='306.71' cy='133.59' r='2.13' style='stroke-width: 0.00; stroke: #444444; stroke-opacity: 0.10; fill: #444444; fill-opacity: 0.10;' clip-path='url(#cpMjQ3LjI2fDM0Mi43N3wxOTguNjF8MjEuOTk=)' />
<circle cx='326.29' cy='136.26' r='2.13' style='stroke-width: 0.00; stroke: #444444; stroke-opacity: 0.10; fill: #444444; fill-opacity: 0.10;' clip-path='url(#cpMjQ3LjI2fDM0Mi43N3wxOTguNjF8MjEuOTk=)' />
<circle cx='330.15' cy='134.76' r='2.13' style='stroke-width: 0.00; stroke: #444444; stroke-opacity: 0.10; fill: #444444; fill-opacity: 0.10;' clip-path='url(#cpMjQ3LjI2fDM0Mi43N3wxOTguNjF8MjEuOTk=)' />
<circle cx='318.34' cy='110.11' r='2.13' style='stroke-width: 0.00; stroke: #444444; stroke-opacity: 0.10; fill: #444444; fill-opacity: 0.10;' clip-path='url(#cpMjQ3LjI2fDM0Mi43N3wxOTguNjF8MjEuOTk=)' />
<circle cx='332.27' cy='111.84' r='2.13' style='stroke-width: 0.00; stroke: #444444; stroke-opacity: 0.10; fill: #444444; fill-opacity: 0.10;' clip-path='url(#cpMjQ3LjI2fDM0Mi43N3wxOTguNjF8MjEuOTk=)' />
<circle cx='322.70' cy='106.04' r='2.13' style='stroke-width: 0.00; stroke: #444444; stroke-opacity: 0.10; fill: #444444; fill-opacity: 0.10;' clip-path='url(#cpMjQ3LjI2fDM0Mi43N3wxOTguNjF8MjEuOTk=)' />
<circle cx='325.77' cy='109.16' r='2.13' style='stroke-width: 0.00; stroke: #444444; stroke-opacity: 0.10; fill: #444444; fill-opacity: 0.10;' clip-path='url(#cpMjQ3LjI2fDM0Mi43N3wxOTguNjF8MjEuOTk=)' />
<circle cx='321.11' cy='117.05' r='2.13' style='stroke-width: 0.00; stroke: #444444; stroke-opacity: 0.10; fill: #444444; fill-opacity: 0.10;' clip-path='url(#cpMjQ3LjI2fDM0Mi43N3wxOTguNjF8MjEuOTk=)' />
<circle cx='335.50' cy='111.11' r='2.13' style='stroke-width: 0.00; stroke: #444444; stroke-opacity: 0.10; fill: #444444; fill-opacity: 0.10;' clip-path='url(#cpMjQ3LjI2fDM0Mi43N3wxOTguNjF8MjEuOTk=)' />
<circle cx='326.73' cy='106.36' r='2.13' style='stroke-width: 0.00; stroke: #444444; stroke-opacity: 0.10; fill: #444444; fill-opacity: 0.10;' clip-path='url(#cpMjQ3LjI2fDM0Mi43N3wxOTguNjF8MjEuOTk=)' />
<circle cx='321.70' cy='111.74' r='2.13' style='stroke-width: 0.00; stroke: #444444; stroke-opacity: 0.10; fill: #444444; fill-opacity: 0.10;' clip-path='url(#cpMjQ3LjI2fDM0Mi43N3wxOTguNjF8MjEuOTk=)' />
<circle cx='308.84' cy='103.99' r='2.13' style='stroke-width: 0.00; stroke: #444444; stroke-opacity: 0.10; fill: #444444; fill-opacity: 0.10;' clip-path='url(#cpMjQ3LjI2fDM0Mi43N3wxOTguNjF8MjEuOTk=)' />
<circle cx='324.34' cy='106.98' r='2.13' style='stroke-width: 0.00; stroke: #444444; stroke-opacity: 0.10; fill: #444444; fill-opacity: 0.10;' clip-path='url(#cpMjQ3LjI2fDM0Mi43N3wxOTguNjF8MjEuOTk=)' />
<circle cx='335.02' cy='105.33' r='2.13' style='stroke-width: 0.00; stroke: #444444; stroke-opacity: 0.10; fill: #444444; fill-opacity: 0.10;' clip-path='url(#cpMjQ3LjI2fDM0Mi43N3wxOTguNjF8MjEuOTk=)' />
<circle cx='327.60' cy='111.38' r='2.13' style='stroke-width: 0.00; stroke: #444444; stroke-opacity: 0.10; fill: #444444; fill-opacity: 0.10;' clip-path='url(#cpMjQ3LjI2fDM0Mi43N3wxOTguNjF8MjEuOTk=)' />
<circle cx='304.79' cy='117.69' r='2.13' style='stroke-width: 0.00; stroke: #444444; stroke-opacity: 0.10; fill: #444444; fill-opacity: 0.10;' clip-path='url(#cpMjQ3LjI2fDM0Mi43N3wxOTguNjF8MjEuOTk=)' />
<circle cx='333.96' cy='103.70' r='2.13' style='stroke-width: 0.00; stroke: #444444; stroke-opacity: 0.10; fill: #444444; fill-opacity: 0.10;' clip-path='url(#cpMjQ3LjI2fDM0Mi43N3wxOTguNjF8MjEuOTk=)' />
<circle cx='331.85' cy='105.84' r='2.13' style='stroke-width: 0.00; stroke: #444444; stroke-opacity: 0.10; fill: #444444; fill-opacity: 0.10;' clip-path='url(#cpMjQ3LjI2fDM0Mi43N3wxOTguNjF8MjEuOTk=)' />
<circle cx='323.72' cy='104.76' r='2.13' style='stroke-width: 0.00; stroke: #444444; stroke-opacity: 0.10; fill: #444444; fill-opacity: 0.10;' clip-path='url(#cpMjQ3LjI2fDM0Mi43N3wxOTguNjF8MjEuOTk=)' />
<circle cx='325.84' cy='104.65' r='2.13' style='stroke-width: 0.00; stroke: #444444; stroke-opacity: 0.10; fill: #444444; fill-opacity: 0.10;' clip-path='url(#cpMjQ3LjI2fDM0Mi43N3wxOTguNjF8MjEuOTk=)' />
<circle cx='323.05' cy='109.02' r='2.13' style='stroke-width: 0.00; stroke: #444444; stroke-opacity: 0.10; fill: #444444; fill-opacity: 0.10;' clip-path='url(#cpMjQ3LjI2fDM0Mi43N3wxOTguNjF8MjEuOTk=)' />
<circle cx='324.46' cy='105.15' r='2.13' style='stroke-width: 0.00; stroke: #444444; stroke-opacity: 0.10; fill: #444444; fill-opacity: 0.10;' clip-path='url(#cpMjQ3LjI2fDM0Mi43N3wxOTguNjF8MjEuOTk=)' />
<circle cx='332.23' cy='105.53' r='2.13' style='stroke-width: 0.00; stroke: #444444; stroke-opacity: 0.10; fill: #444444; fill-opacity: 0.10;' clip-path='url(#cpMjQ3LjI2fDM0Mi43N3wxOTguNjF8MjEuOTk=)' />
<circle cx='324.88' cy='113.19' r='2.13' style='stroke-width: 0.00; stroke: #444444; stroke-opacity: 0.10; fill: #444444; fill-opacity: 0.10;' clip-path='url(#cpMjQ3LjI2fDM0Mi43N3wxOTguNjF8MjEuOTk=)' />
<circle cx='331.43' cy='108.08' r='2.13' style='stroke-width: 0.00; stroke: #444444; stroke-opacity: 0.10; fill: #444444; fill-opacity: 0.10;' clip-path='url(#cpMjQ3LjI2fDM0Mi43N3wxOTguNjF8MjEuOTk=)' />
<circle cx='329.02' cy='104.73' r='2.13' style='stroke-width: 0.00; stroke: #444444; stroke-opacity: 0.10; fill: #444444; fill-opacity: 0.10;' clip-path='url(#cpMjQ3LjI2fDM0Mi43N3wxOTguNjF8MjEuOTk=)' />
<circle cx='321.71' cy='103.84' r='2.13' style='stroke-width: 0.00; stroke: #444444; stroke-opacity: 0.10; fill: #444444; fill-opacity: 0.10;' clip-path='url(#cpMjQ3LjI2fDM0Mi43N3wxOTguNjF8MjEuOTk=)' />
<circle cx='283.16' cy='88.95' r='2.13' style='stroke-width: 0.00; stroke: #444444; stroke-opacity: 0.10; fill: #444444; fill-opacity: 0.10;' clip-path='url(#cpMjQ3LjI2fDM0Mi43N3wxOTguNjF8MjEuOTk=)' />
<circle cx='307.39' cy='80.66' r='2.13' style='stroke-width: 0.00; stroke: #444444; stroke-opacity: 0.10; fill: #444444; fill-opacity: 0.10;' clip-path='url(#cpMjQ3LjI2fDM0Mi43N3wxOTguNjF8MjEuOTk=)' />
<circle cx='260.66' cy='93.35' r='2.13' style='stroke-width: 0.00; stroke: #444444; stroke-opacity: 0.10; fill: #444444; fill-opacity: 0.10;' clip-path='url(#cpMjQ3LjI2fDM0Mi43N3wxOTguNjF8MjEuOTk=)' />
<circle cx='322.48' cy='79.92' r='2.13' style='stroke-width: 0.00; stroke: #444444; stroke-opacity: 0.10; fill: #444444; fill-opacity: 0.10;' clip-path='url(#cpMjQ3LjI2fDM0Mi43N3wxOTguNjF8MjEuOTk=)' />
<circle cx='305.92' cy='79.52' r='2.13' style='stroke-width: 0.00; stroke: #444444; stroke-opacity: 0.10; fill: #444444; fill-opacity: 0.10;' clip-path='url(#cpMjQ3LjI2fDM0Mi43N3wxOTguNjF8MjEuOTk=)' />
<circle cx='326.11' cy='91.97' r='2.13' style='stroke-width: 0.00; stroke: #444444; stroke-opacity: 0.10; fill: #444444; fill-opacity: 0.10;' clip-path='url(#cpMjQ3LjI2fDM0Mi43N3wxOTguNjF8MjEuOTk=)' />
<circle cx='315.00' cy='83.87' r='2.13' style='stroke-width: 0.00; stroke: #444444; stroke-opacity: 0.10; fill: #444444; fill-opacity: 0.10;' clip-path='url(#cpMjQ3LjI2fDM0Mi43N3wxOTguNjF8MjEuOTk=)' />
<circle cx='327.06' cy='89.74' r='2.13' style='stroke-width: 0.00; stroke: #444444; stroke-opacity: 0.10; fill: #444444; fill-opacity: 0.10;' clip-path='url(#cpMjQ3LjI2fDM0Mi43N3wxOTguNjF8MjEuOTk=)' />
<circle cx='264.15' cy='79.64' r='2.13' style='stroke-width: 0.00; stroke: #444444; stroke-opacity: 0.10; fill: #444444; fill-opacity: 0.10;' clip-path='url(#cpMjQ3LjI2fDM0Mi43N3wxOTguNjF8MjEuOTk=)' />
<circle cx='326.04' cy='87.81' r='2.13' style='stroke-width: 0.00; stroke: #444444; stroke-opacity: 0.10; fill: #444444; fill-opacity: 0.10;' clip-path='url(#cpMjQ3LjI2fDM0Mi43N3wxOTguNjF8MjEuOTk=)' />
<circle cx='307.92' cy='91.02' r='2.13' style='stroke-width: 0.00; stroke: #444444; stroke-opacity: 0.10; fill: #444444; fill-opacity: 0.10;' clip-path='url(#cpMjQ3LjI2fDM0Mi43N3wxOTguNjF8MjEuOTk=)' />
<circle cx='330.87' cy='90.17' r='2.13' style='stroke-width: 0.00; stroke: #444444; stroke-opacity: 0.10; fill: #444444; fill-opacity: 0.10;' clip-path='url(#cpMjQ3LjI2fDM0Mi43N3wxOTguNjF8MjEuOTk=)' />
<circle cx='334.13' cy='84.53' r='2.13' style='stroke-width: 0.00; stroke: #444444; stroke-opacity: 0.10; fill: #444444; fill-opacity: 0.10;' clip-path='url(#cpMjQ3LjI2fDM0Mi43N3wxOTguNjF8MjEuOTk=)' />
<circle cx='332.38' cy='82.86' r='2.13' style='stroke-width: 0.00; stroke: #444444; stroke-opacity: 0.10; fill: #444444; fill-opacity: 0.10;' clip-path='url(#cpMjQ3LjI2fDM0Mi43N3wxOTguNjF8MjEuOTk=)' />
<circle cx='335.55' cy='88.00' r='2.13' style='stroke-width: 0.00; stroke: #444444; stroke-opacity: 0.10; fill: #444444; fill-opacity: 0.10;' clip-path='url(#cpMjQ3LjI2fDM0Mi43N3wxOTguNjF8MjEuOTk=)' />
<circle cx='328.75' cy='86.26' r='2.13' style='stroke-width: 0.00; stroke: #444444; stroke-opacity: 0.10; fill: #444444; fill-opacity: 0.10;' clip-path='url(#cpMjQ3LjI2fDM0Mi43N3wxOTguNjF8MjEuOTk=)' />
<circle cx='313.33' cy='84.82' r='2.13' style='stroke-width: 0.00; stroke: #444444; stroke-opacity: 0.10; fill: #444444; fill-opacity: 0.10;' clip-path='url(#cpMjQ3LjI2fDM0Mi43N3wxOTguNjF8MjEuOTk=)' />
<circle cx='272.08' cy='89.95' r='2.13' style='stroke-width: 0.00; stroke: #444444; stroke-opacity: 0.10; fill: #444444; fill-opacity: 0.10;' clip-path='url(#cpMjQ3LjI2fDM0Mi43N3wxOTguNjF8MjEuOTk=)' />
<circle cx='297.39' cy='79.72' r='2.13' style='stroke-width: 0.00; stroke: #444444; stroke-opacity: 0.10; fill: #444444; fill-opacity: 0.10;' clip-path='url(#cpMjQ3LjI2fDM0Mi43N3wxOTguNjF8MjEuOTk=)' />
<circle cx='317.19' cy='86.82' r='2.13' style='stroke-width: 0.00; stroke: #444444; stroke-opacity: 0.10; fill: #444444; fill-opacity: 0.10;' clip-path='url(#cpMjQ3LjI2fDM0Mi43N3wxOTguNjF8MjEuOTk=)' />
<circle cx='288.72' cy='83.96' r='2.13' style='stroke-width: 0.00; stroke: #444444; stroke-opacity: 0.10; fill: #444444; fill-opacity: 0.10;' clip-path='url(#cpMjQ3LjI2fDM0Mi43N3wxOTguNjF8MjEuOTk=)' />
<circle cx='295.03' cy='88.99' r='2.13' style='stroke-width: 0.00; stroke: #444444; stroke-opacity: 0.10; fill: #444444; fill-opacity: 0.10;' clip-path='url(#cpMjQ3LjI2fDM0Mi43N3wxOTguNjF8MjEuOTk=)' />
<circle cx='321.05' cy='90.51' r='2.13' style='stroke-width: 0.00; stroke: #444444; stroke-opacity: 0.10; fill: #444444; fill-opacity: 0.10;' clip-path='url(#cpMjQ3LjI2fDM0Mi43N3wxOTguNjF8MjEuOTk=)' />
<circle cx='269.02' cy='57.15' r='2.13' style='stroke-width: 0.00; stroke: #444444; stroke-opacity: 0.10; fill: #444444; fill-opacity: 0.10;' clip-path='url(#cpMjQ3LjI2fDM0Mi43N3wxOTguNjF8MjEuOTk=)' />
<circle cx='268.63' cy='61.84' r='2.13' style='stroke-width: 0.00; stroke: #444444; stroke-opacity: 0.10; fill: #444444; fill-opacity: 0.10;' clip-path='url(#cpMjQ3LjI2fDM0Mi43N3wxOTguNjF8MjEuOTk=)' />
<circle cx='263.04' cy='54.98' r='2.13' style='stroke-width: 0.00; stroke: #444444; stroke-opacity: 0.10; fill: #444444; fill-opacity: 0.10;' clip-path='url(#cpMjQ3LjI2fDM0Mi43N3wxOTguNjF8MjEuOTk=)' />
<circle cx='255.90' cy='55.77' r='2.13' style='stroke-width: 0.00; stroke: #444444; stroke-opacity: 0.10; fill: #444444; fill-opacity: 0.10;' clip-path='url(#cpMjQ3LjI2fDM0Mi43N3wxOTguNjF8MjEuOTk=)' />
<circle cx='317.60' cy='56.49' r='2.13' style='stroke-width: 0.00; stroke: #444444; stroke-opacity: 0.10; fill: #444444; fill-opacity: 0.10;' clip-path='url(#cpMjQ3LjI2fDM0Mi43N3wxOTguNjF8MjEuOTk=)' />
<circle cx='264.13' cy='60.48' r='2.13' style='stroke-width: 0.00; stroke: #444444; stroke-opacity: 0.10; fill: #444444; fill-opacity: 0.10;' clip-path='url(#cpMjQ3LjI2fDM0Mi43N3wxOTguNjF8MjEuOTk=)' />
<circle cx='259.53' cy='55.77' r='2.13' style='stroke-width: 0.00; stroke: #444444; stroke-opacity: 0.10; fill: #444444; fill-opacity: 0.10;' clip-path='url(#cpMjQ3LjI2fDM0Mi43N3wxOTguNjF8MjEuOTk=)' />
<circle cx='321.35' cy='63.25' r='2.13' style='stroke-width: 0.00; stroke: #444444; stroke-opacity: 0.10; fill: #444444; fill-opacity: 0.10;' clip-path='url(#cpMjQ3LjI2fDM0Mi43N3wxOTguNjF8MjEuOTk=)' />
<circle cx='323.13' cy='56.16' r='2.13' style='stroke-width: 0.00; stroke: #444444; stroke-opacity: 0.10; fill: #444444; fill-opacity: 0.10;' clip-path='url(#cpMjQ3LjI2fDM0Mi43N3wxOTguNjF8MjEuOTk=)' />
<circle cx='296.30' cy='55.57' r='2.13' style='stroke-width: 0.00; stroke: #444444; stroke-opacity: 0.10; fill: #444444; fill-opacity: 0.10;' clip-path='url(#cpMjQ3LjI2fDM0Mi43N3wxOTguNjF8MjEuOTk=)' />
<circle cx='255.99' cy='67.25' r='2.13' style='stroke-width: 0.00; stroke: #444444; stroke-opacity: 0.10; fill: #444444; fill-opacity: 0.10;' clip-path='url(#cpMjQ3LjI2fDM0Mi43N3wxOTguNjF8MjEuOTk=)' />
<circle cx='260.79' cy='68.58' r='2.13' style='stroke-width: 0.00; stroke: #444444; stroke-opacity: 0.10; fill: #444444; fill-opacity: 0.10;' clip-path='url(#cpMjQ3LjI2fDM0Mi43N3wxOTguNjF8MjEuOTk=)' />
<circle cx='334.47' cy='62.16' r='2.13' style='stroke-width: 0.00; stroke: #444444; stroke-opacity: 0.10; fill: #444444; fill-opacity: 0.10;' clip-path='url(#cpMjQ3LjI2fDM0Mi43N3wxOTguNjF8MjEuOTk=)' />
<circle cx='267.24' cy='57.79' r='2.13' style='stroke-width: 0.00; stroke: #444444; stroke-opacity: 0.10; fill: #444444; fill-opacity: 0.10;' clip-path='url(#cpMjQ3LjI2fDM0Mi43N3wxOTguNjF8MjEuOTk=)' />
<circle cx='262.67' cy='59.45' r='2.13' style='stroke-width: 0.00; stroke: #444444; stroke-opacity: 0.10; fill: #444444; fill-opacity: 0.10;' clip-path='url(#cpMjQ3LjI2fDM0Mi43N3wxOTguNjF8MjEuOTk=)' />
<circle cx='266.06' cy='66.63' r='2.13' style='stroke-width: 0.00; stroke: #444444; stroke-opacity: 0.10; fill: #444444; fill-opacity: 0.10;' clip-path='url(#cpMjQ3LjI2fDM0Mi43N3wxOTguNjF8MjEuOTk=)' />
<circle cx='261.68' cy='54.49' r='2.13' style='stroke-width: 0.00; stroke: #444444; stroke-opacity: 0.10; fill: #444444; fill-opacity: 0.10;' clip-path='url(#cpMjQ3LjI2fDM0Mi43N3wxOTguNjF8MjEuOTk=)' />
<circle cx='267.49' cy='63.15' r='2.13' style='stroke-width: 0.00; stroke: #444444; stroke-opacity: 0.10; fill: #444444; fill-opacity: 0.10;' clip-path='url(#cpMjQ3LjI2fDM0Mi43N3wxOTguNjF8MjEuOTk=)' />
<circle cx='259.71' cy='59.81' r='2.13' style='stroke-width: 0.00; stroke: #444444; stroke-opacity: 0.10; fill: #444444; fill-opacity: 0.10;' clip-path='url(#cpMjQ3LjI2fDM0Mi43N3wxOTguNjF8MjEuOTk=)' />
<circle cx='314.01' cy='55.02' r='2.13' style='stroke-width: 0.00; stroke: #444444; stroke-opacity: 0.10; fill: #444444; fill-opacity: 0.10;' clip-path='url(#cpMjQ3LjI2fDM0Mi43N3wxOTguNjF8MjEuOTk=)' />
<circle cx='259.12' cy='63.14' r='2.13' style='stroke-width: 0.00; stroke: #444444; stroke-opacity: 0.10; fill: #444444; fill-opacity: 0.10;' clip-path='url(#cpMjQ3LjI2fDM0Mi43N3wxOTguNjF8MjEuOTk=)' />
<circle cx='261.08' cy='67.39' r='2.13' style='stroke-width: 0.00; stroke: #444444; stroke-opacity: 0.10; fill: #444444; fill-opacity: 0.10;' clip-path='url(#cpMjQ3LjI2fDM0Mi43N3wxOTguNjF8MjEuOTk=)' />
<circle cx='261.39' cy='56.02' r='2.13' style='stroke-width: 0.00; stroke: #444444; stroke-opacity: 0.10; fill: #444444; fill-opacity: 0.10;' clip-path='url(#cpMjQ3LjI2fDM0Mi43N3wxOTguNjF8MjEuOTk=)' />
<circle cx='312.49' cy='37.98' r='2.13' style='stroke-width: 0.00; stroke: #444444; stroke-opacity: 0.10; fill: #444444; fill-opacity: 0.10;' clip-path='url(#cpMjQ3LjI2fDM0Mi43N3wxOTguNjF8MjEuOTk=)' />
<circle cx='331.14' cy='31.02' r='2.13' style='stroke-width: 0.00; stroke: #444444; stroke-opacity: 0.10; fill: #444444; fill-opacity: 0.10;' clip-path='url(#cpMjQ3LjI2fDM0Mi43N3wxOTguNjF8MjEuOTk=)' />
<circle cx='334.62' cy='35.55' r='2.13' style='stroke-width: 0.00; stroke: #444444; stroke-opacity: 0.10; fill: #444444; fill-opacity: 0.10;' clip-path='url(#cpMjQ3LjI2fDM0Mi43N3wxOTguNjF8MjEuOTk=)' />
<circle cx='331.42' cy='32.80' r='2.13' style='stroke-width: 0.00; stroke: #444444; stroke-opacity: 0.10; fill: #444444; fill-opacity: 0.10;' clip-path='url(#cpMjQ3LjI2fDM0Mi43N3wxOTguNjF8MjEuOTk=)' />
<circle cx='328.76' cy='36.69' r='2.13' style='stroke-width: 0.00; stroke: #444444; stroke-opacity: 0.10; fill: #444444; fill-opacity: 0.10;' clip-path='url(#cpMjQ3LjI2fDM0Mi43N3wxOTguNjF8MjEuOTk=)' />
<circle cx='329.25' cy='39.20' r='2.13' style='stroke-width: 0.00; stroke: #444444; stroke-opacity: 0.10; fill: #444444; fill-opacity: 0.10;' clip-path='url(#cpMjQ3LjI2fDM0Mi43N3wxOTguNjF8MjEuOTk=)' />
<circle cx='330.78' cy='34.18' r='2.13' style='stroke-width: 0.00; stroke: #444444; stroke-opacity: 0.10; fill: #444444; fill-opacity: 0.10;' clip-path='url(#cpMjQ3LjI2fDM0Mi43N3wxOTguNjF8MjEuOTk=)' />
<circle cx='328.62' cy='31.54' r='2.13' style='stroke-width: 0.00; stroke: #444444; stroke-opacity: 0.10; fill: #444444; fill-opacity: 0.10;' clip-path='url(#cpMjQ3LjI2fDM0Mi43N3wxOTguNjF8MjEuOTk=)' />
<circle cx='332.49' cy='37.40' r='2.13' style='stroke-width: 0.00; stroke: #444444; stroke-opacity: 0.10; fill: #444444; fill-opacity: 0.10;' clip-path='url(#cpMjQ3LjI2fDM0Mi43N3wxOTguNjF8MjEuOTk=)' />
<circle cx='324.69' cy='39.71' r='2.13' style='stroke-width: 0.00; stroke: #444444; stroke-opacity: 0.10; fill: #444444; fill-opacity: 0.10;' clip-path='url(#cpMjQ3LjI2fDM0Mi43N3wxOTguNjF8MjEuOTk=)' />
<circle cx='260.55' cy='37.52' r='2.13' style='stroke-width: 0.00; stroke: #444444; stroke-opacity: 0.10; fill: #444444; fill-opacity: 0.10;' clip-path='url(#cpMjQ3LjI2fDM0Mi43N3wxOTguNjF8MjEuOTk=)' />
<circle cx='304.40' cy='34.08' r='2.13' style='stroke-width: 0.00; stroke: #444444; stroke-opacity: 0.10; fill: #444444; fill-opacity: 0.10;' clip-path='url(#cpMjQ3LjI2fDM0Mi43N3wxOTguNjF8MjEuOTk=)' />
<circle cx='329.13' cy='30.45' r='2.13' style='stroke-width: 0.00; stroke: #444444; stroke-opacity: 0.10; fill: #444444; fill-opacity: 0.10;' clip-path='url(#cpMjQ3LjI2fDM0Mi43N3wxOTguNjF8MjEuOTk=)' />
<circle cx='331.79' cy='39.73' r='2.13' style='stroke-width: 0.00; stroke: #444444; stroke-opacity: 0.10; fill: #444444; fill-opacity: 0.10;' clip-path='url(#cpMjQ3LjI2fDM0Mi43N3wxOTguNjF8MjEuOTk=)' />
<circle cx='335.36' cy='39.84' r='2.13' style='stroke-width: 0.00; stroke: #444444; stroke-opacity: 0.10; fill: #444444; fill-opacity: 0.10;' clip-path='url(#cpMjQ3LjI2fDM0Mi43N3wxOTguNjF8MjEuOTk=)' />
<circle cx='328.93' cy='31.39' r='2.13' style='stroke-width: 0.00; stroke: #444444; stroke-opacity: 0.10; fill: #444444; fill-opacity: 0.10;' clip-path='url(#cpMjQ3LjI2fDM0Mi43N3wxOTguNjF8MjEuOTk=)' />
<circle cx='322.95' cy='37.44' r='2.13' style='stroke-width: 0.00; stroke: #444444; stroke-opacity: 0.10; fill: #444444; fill-opacity: 0.10;' clip-path='url(#cpMjQ3LjI2fDM0Mi43N3wxOTguNjF8MjEuOTk=)' />
<circle cx='310.68' cy='32.99' r='2.13' style='stroke-width: 0.00; stroke: #444444; stroke-opacity: 0.10; fill: #444444; fill-opacity: 0.10;' clip-path='url(#cpMjQ3LjI2fDM0Mi43N3wxOTguNjF8MjEuOTk=)' />
<circle cx='325.61' cy='39.41' r='2.13' style='stroke-width: 0.00; stroke: #444444; stroke-opacity: 0.10; fill: #444444; fill-opacity: 0.10;' clip-path='url(#cpMjQ3LjI2fDM0Mi43N3wxOTguNjF8MjEuOTk=)' />
<circle cx='334.94' cy='37.00' r='2.13' style='stroke-width: 0.00; stroke: #444444; stroke-opacity: 0.10; fill: #444444; fill-opacity: 0.10;' clip-path='url(#cpMjQ3LjI2fDM0Mi43N3wxOTguNjF8MjEuOTk=)' />
<circle cx='327.49' cy='30.01' r='2.13' style='stroke-width: 0.00; stroke: #444444; stroke-opacity: 0.10; fill: #444444; fill-opacity: 0.10;' clip-path='url(#cpMjQ3LjI2fDM0Mi43N3wxOTguNjF8MjEuOTk=)' />
<circle cx='331.21' cy='39.08' r='2.13' style='stroke-width: 0.00; stroke: #444444; stroke-opacity: 0.10; fill: #444444; fill-opacity: 0.10;' clip-path='url(#cpMjQ3LjI2fDM0Mi43N3wxOTguNjF8MjEuOTk=)' />
<polygon points='310.80,184.91 324.62,188.60 338.43,184.91 324.62,181.21 310.80,184.91 ' style='stroke-width: 1.07; stroke: #450654; fill: #450654;' clip-path='url(#cpMjQ3LjI2fDM0Mi43N3wxOTguNjF8MjEuOTk=)' />
<polygon points='272.48,160.25 300.00,163.95 327.52,160.25 300.00,156.55 272.48,160.25 ' style='stroke-width: 1.07; stroke: #4D2A55; fill: #4D2A55;' clip-path='url(#cpMjQ3LjI2fDM0Mi43N3wxOTguNjF8MjEuOTk=)' />
<polygon points='312.32,135.59 323.49,139.29 334.67,135.59 323.49,131.89 312.32,135.59 ' style='stroke-width: 1.07; stroke: #450854; fill: #450854;' clip-path='url(#cpMjQ3LjI2fDM0Mi43N3wxOTguNjF8MjEuOTk=)' />
<polygon points='320.81,110.93 326.13,114.63 331.46,110.93 326.13,107.23 320.81,110.93 ' style='stroke-width: 1.07; stroke: #440454; fill: #440454;' clip-path='url(#cpMjQ3LjI2fDM0Mi43N3wxOTguNjF8MjEuOTk=)' />
<polygon points='288.09,86.27 309.60,89.97 331.11,86.27 309.60,82.57 288.09,86.27 ' style='stroke-width: 1.07; stroke: #4A1C54; fill: #4A1C54;' clip-path='url(#cpMjQ3LjI2fDM0Mi43N3wxOTguNjF8MjEuOTk=)' />
<polygon points='251.60,61.61 276.71,65.31 301.82,61.61 276.71,57.91 251.60,61.61 ' style='stroke-width: 1.07; stroke: #524555; fill: #524555;' clip-path='url(#cpMjQ3LjI2fDM0Mi43N3wxOTguNjF8MjEuOTk=)' />
<polygon points='307.97,36.95 322.96,40.65 337.95,36.95 322.96,33.26 307.97,36.95 ' style='stroke-width: 1.07; stroke: #450954; fill: #450954;' clip-path='url(#cpMjQ3LjI2fDM0Mi43N3wxOTguNjF8MjEuOTk=)' />
<rect x='247.26' y='21.99' width='95.51' height='176.62' style='stroke-width: 0.78; stroke: #333333;' clip-path='url(#cpMjQ3LjI2fDM0Mi43N3wxOTguNjF8MjEuOTk=)' />
<defs>
  <clipPath id='cpMC4wMHw1MTAuMjR8MjIxLjEwfDAuMDA='>
    <rect x='0.00' y='0.00' width='510.24' height='221.10' />
  </clipPath>
</defs>
<g clip-path='url(#cpMC4wMHw1MTAuMjR8MjIxLjEwfDAuMDA=)'><text x='174.30' y='187.20' style='font-size: 6.40px; fill: #4D4D4D; font-family: Arial;' textLength='69.37px' lengthAdjust='spacingAndGlyphs'>not particularly desirable</text></g>
<g clip-path='url(#cpMC4wMHw1MTAuMjR8MjIxLjEwfDAuMDA=)'><text x='183.54' y='162.54' style='font-size: 6.40px; fill: #4D4D4D; font-family: Arial;' textLength='60.13px' lengthAdjust='spacingAndGlyphs'>definitely not infected</text></g>
<g clip-path='url(#cpMC4wMHw1MTAuMjR8MjIxLjEwfDAuMDA=)'><text x='174.30' y='137.88' style='font-size: 6.40px; fill: #4D4D4D; font-family: Arial;' textLength='69.37px' lengthAdjust='spacingAndGlyphs'>not particularly desirable</text></g>
<g clip-path='url(#cpMC4wMHw1MTAuMjR8MjIxLjEwfDAuMDA=)'><text x='174.30' y='113.22' style='font-size: 6.40px; fill: #4D4D4D; font-family: Arial;' textLength='69.37px' lengthAdjust='spacingAndGlyphs'>not particularly desirable</text></g>
<g clip-path='url(#cpMC4wMHw1MTAuMjR8MjIxLjEwfDAuMDA=)'><text x='191.01' y='88.56' style='font-size: 6.40px; fill: #4D4D4D; font-family: Arial;' textLength='52.66px' lengthAdjust='spacingAndGlyphs'>very unreasonable</text></g>
<g clip-path='url(#cpMC4wMHw1MTAuMjR8MjIxLjEwfDAuMDA=)'><text x='184.27' y='60.45' style='font-size: 6.40px; fill: #4D4D4D; font-family: Arial;' textLength='59.40px' lengthAdjust='spacingAndGlyphs'>I will certainly not get</text></g>
<g clip-path='url(#cpMC4wMHw1MTAuMjR8MjIxLjEwfDAuMDA=)'><text x='229.79' y='67.36' style='font-size: 6.40px; fill: #4D4D4D; font-family: Arial;' textLength='13.88px' lengthAdjust='spacingAndGlyphs'>fined</text></g>
<g clip-path='url(#cpMC4wMHw1MTAuMjR8MjIxLjEwfDAuMDA=)'><text x='174.30' y='39.24' style='font-size: 6.40px; fill: #4D4D4D; font-family: Arial;' textLength='69.37px' lengthAdjust='spacingAndGlyphs'>not particularly desirable</text></g>
<polyline points='245.26,184.91 247.26,184.91 ' style='stroke-width: 0.78; stroke: #333333; stroke-linecap: butt;' clip-path='url(#cpMC4wMHw1MTAuMjR8MjIxLjEwfDAuMDA=)' />
<polyline points='245.26,160.25 247.26,160.25 ' style='stroke-width: 0.78; stroke: #333333; stroke-linecap: butt;' clip-path='url(#cpMC4wMHw1MTAuMjR8MjIxLjEwfDAuMDA=)' />
<polyline points='245.26,135.59 247.26,135.59 ' style='stroke-width: 0.78; stroke: #333333; stroke-linecap: butt;' clip-path='url(#cpMC4wMHw1MTAuMjR8MjIxLjEwfDAuMDA=)' />
<polyline points='245.26,110.93 247.26,110.93 ' style='stroke-width: 0.78; stroke: #333333; stroke-linecap: butt;' clip-path='url(#cpMC4wMHw1MTAuMjR8MjIxLjEwfDAuMDA=)' />
<polyline points='245.26,86.27 247.26,86.27 ' style='stroke-width: 0.78; stroke: #333333; stroke-linecap: butt;' clip-path='url(#cpMC4wMHw1MTAuMjR8MjIxLjEwfDAuMDA=)' />
<polyline points='245.26,61.61 247.26,61.61 ' style='stroke-width: 0.78; stroke: #333333; stroke-linecap: butt;' clip-path='url(#cpMC4wMHw1MTAuMjR8MjIxLjEwfDAuMDA=)' />
<polyline points='245.26,36.95 247.26,36.95 ' style='stroke-width: 0.78; stroke: #333333; stroke-linecap: butt;' clip-path='url(#cpMC4wMHw1MTAuMjR8MjIxLjEwfDAuMDA=)' />
<polyline points='342.77,184.99 344.76,184.99 ' style='stroke-width: 0.78; stroke: #333333; stroke-linecap: butt;' clip-path='url(#cpMC4wMHw1MTAuMjR8MjIxLjEwfDAuMDA=)' />
<polyline points='342.77,160.24 344.76,160.24 ' style='stroke-width: 0.78; stroke: #333333; stroke-linecap: butt;' clip-path='url(#cpMC4wMHw1MTAuMjR8MjIxLjEwfDAuMDA=)' />
<polyline points='342.77,135.67 344.76,135.67 ' style='stroke-width: 0.78; stroke: #333333; stroke-linecap: butt;' clip-path='url(#cpMC4wMHw1MTAuMjR8MjIxLjEwfDAuMDA=)' />
<polyline points='342.77,110.91 344.76,110.91 ' style='stroke-width: 0.78; stroke: #333333; stroke-linecap: butt;' clip-path='url(#cpMC4wMHw1MTAuMjR8MjIxLjEwfDAuMDA=)' />
<polyline points='342.77,86.34 344.76,86.34 ' style='stroke-width: 0.78; stroke: #333333; stroke-linecap: butt;' clip-path='url(#cpMC4wMHw1MTAuMjR8MjIxLjEwfDAuMDA=)' />
<polyline points='342.77,61.59 344.76,61.59 ' style='stroke-width: 0.78; stroke: #333333; stroke-linecap: butt;' clip-path='url(#cpMC4wMHw1MTAuMjR8MjIxLjEwfDAuMDA=)' />
<polyline points='342.77,37.01 344.76,37.01 ' style='stroke-width: 0.78; stroke: #333333; stroke-linecap: butt;' clip-path='url(#cpMC4wMHw1MTAuMjR8MjIxLjEwfDAuMDA=)' />
<g clip-path='url(#cpMC4wMHw1MTAuMjR8MjIxLjEwfDAuMDA=)'><text x='346.36' y='187.28' style='font-size: 6.40px; fill: #4D4D4D; font-family: Arial;' textLength='55.49px' lengthAdjust='spacingAndGlyphs'>extremely desirable</text></g>
<g clip-path='url(#cpMC4wMHw1MTAuMjR8MjIxLjEwfDAuMDA=)'><text x='346.36' y='162.53' style='font-size: 6.40px; fill: #4D4D4D; font-family: Arial;' textLength='49.45px' lengthAdjust='spacingAndGlyphs'>definitely infected</text></g>
<g clip-path='url(#cpMC4wMHw1MTAuMjR8MjIxLjEwfDAuMDA=)'><text x='346.36' y='137.96' style='font-size: 6.40px; fill: #4D4D4D; font-family: Arial;' textLength='55.49px' lengthAdjust='spacingAndGlyphs'>extremely desirable</text></g>
<g clip-path='url(#cpMC4wMHw1MTAuMjR8MjIxLjEwfDAuMDA=)'><text x='346.36' y='113.20' style='font-size: 6.40px; fill: #4D4D4D; font-family: Arial;' textLength='55.49px' lengthAdjust='spacingAndGlyphs'>extremely desirable</text></g>
<g clip-path='url(#cpMC4wMHw1MTAuMjR8MjIxLjEwfDAuMDA=)'><text x='346.36' y='88.63' style='font-size: 6.40px; fill: #4D4D4D; font-family: Arial;' textLength='45.54px' lengthAdjust='spacingAndGlyphs'>very reasonable</text></g>
<g clip-path='url(#cpMC4wMHw1MTAuMjR8MjIxLjEwfDAuMDA=)'><text x='346.36' y='63.88' style='font-size: 6.40px; fill: #4D4D4D; font-family: Arial;' textLength='64.38px' lengthAdjust='spacingAndGlyphs'>I will certainly get fined</text></g>
<g clip-path='url(#cpMC4wMHw1MTAuMjR8MjIxLjEwfDAuMDA=)'><text x='346.36' y='39.30' style='font-size: 6.40px; fill: #4D4D4D; font-family: Arial;' textLength='55.49px' lengthAdjust='spacingAndGlyphs'>extremely desirable</text></g>
<polyline points='262.41,200.60 262.41,198.61 ' style='stroke-width: 0.78; stroke: #333333; stroke-linecap: butt;' clip-path='url(#cpMC4wMHw1MTAuMjR8MjIxLjEwfDAuMDA=)' />
<polyline points='278.86,200.60 278.86,198.61 ' style='stroke-width: 0.78; stroke: #333333; stroke-linecap: butt;' clip-path='url(#cpMC4wMHw1MTAuMjR8MjIxLjEwfDAuMDA=)' />
<polyline points='295.30,200.60 295.30,198.61 ' style='stroke-width: 0.78; stroke: #333333; stroke-linecap: butt;' clip-path='url(#cpMC4wMHw1MTAuMjR8MjIxLjEwfDAuMDA=)' />
<polyline points='311.75,200.60 311.75,198.61 ' style='stroke-width: 0.78; stroke: #333333; stroke-linecap: butt;' clip-path='url(#cpMC4wMHw1MTAuMjR8MjIxLjEwfDAuMDA=)' />
<polyline points='328.19,200.60 328.19,198.61 ' style='stroke-width: 0.78; stroke: #333333; stroke-linecap: butt;' clip-path='url(#cpMC4wMHw1MTAuMjR8MjIxLjEwfDAuMDA=)' />
<g clip-path='url(#cpMC4wMHw1MTAuMjR8MjIxLjEwfDAuMDA=)'><text x='260.63' y='206.77' style='font-size: 6.40px; fill: #4D4D4D; font-family: Arial;' textLength='3.56px' lengthAdjust='spacingAndGlyphs'>1</text></g>
<g clip-path='url(#cpMC4wMHw1MTAuMjR8MjIxLjEwfDAuMDA=)'><text x='277.08' y='206.77' style='font-size: 6.40px; fill: #4D4D4D; font-family: Arial;' textLength='3.56px' lengthAdjust='spacingAndGlyphs'>2</text></g>
<g clip-path='url(#cpMC4wMHw1MTAuMjR8MjIxLjEwfDAuMDA=)'><text x='293.52' y='206.77' style='font-size: 6.40px; fill: #4D4D4D; font-family: Arial;' textLength='3.56px' lengthAdjust='spacingAndGlyphs'>3</text></g>
<g clip-path='url(#cpMC4wMHw1MTAuMjR8MjIxLjEwfDAuMDA=)'><text x='309.97' y='206.77' style='font-size: 6.40px; fill: #4D4D4D; font-family: Arial;' textLength='3.56px' lengthAdjust='spacingAndGlyphs'>4</text></g>
<g clip-path='url(#cpMC4wMHw1MTAuMjR8MjIxLjEwfDAuMDA=)'><text x='326.41' y='206.77' style='font-size: 6.40px; fill: #4D4D4D; font-family: Arial;' textLength='3.56px' lengthAdjust='spacingAndGlyphs'>5</text></g>
<g clip-path='url(#cpMC4wMHw1MTAuMjR8MjIxLjEwfDAuMDA=)'><text x='252.99' y='215.62' style='font-size: 8.00px; font-family: Arial;' textLength='84.05px' lengthAdjust='spacingAndGlyphs'>Scores and 99.99% CIs</text></g>
<defs>
  <clipPath id='cpMC4wMHwxNzAuMzJ8MTk4LjYxfDIxLjk5'>
    <rect x='0.00' y='21.99' width='170.32' height='176.62' />
  </clipPath>
</defs>
<defs>
  <clipPath id='cpMC4wMHw1MTAuMjR8MjIxLjEwfDAuMDA='>
    <rect x='0.00' y='0.00' width='510.24' height='221.10' />
  </clipPath>
</defs>
<g clip-path='url(#cpMC4wMHw1MTAuMjR8MjIxLjEwfDAuMDA=)'><text x='3.59' y='187.32' style='font-size: 8.00px; font-family: Arial;' textLength='152.07px' lengthAdjust='spacingAndGlyphs'>For me, avoiding coronavirus infection is ...</text></g>
<g clip-path='url(#cpMC4wMHw1MTAuMjR8MjIxLjEwfDAuMDA=)'><text x='3.59' y='162.40' style='font-size: 8.00px; font-family: Arial;' textLength='146.74px' lengthAdjust='spacingAndGlyphs'>I prefer that other people will think I am ...</text></g>
<g clip-path='url(#cpMC4wMHw1MTAuMjR8MjIxLjEwfDAuMDA=)'><text x='3.59' y='133.32' style='font-size: 8.00px; font-family: Arial;' textLength='154.75px' lengthAdjust='spacingAndGlyphs'>For me, avoiding that I infect people like me</text></g>
<g clip-path='url(#cpMC4wMHw1MTAuMjR8MjIxLjEwfDAuMDA=)'><text x='3.59' y='141.96' style='font-size: 8.00px; font-family: Arial;' textLength='88.04px' lengthAdjust='spacingAndGlyphs'>with the coronavirus is ...</text></g>
<g clip-path='url(#cpMC4wMHw1MTAuMjR8MjIxLjEwfDAuMDA=)'><text x='3.59' y='108.57' style='font-size: 8.00px; font-family: Arial;' textLength='166.73px' lengthAdjust='spacingAndGlyphs'>For me, avoiding that I infect my family with the</text></g>
<g clip-path='url(#cpMC4wMHw1MTAuMjR8MjIxLjEwfDAuMDA=)'><text x='3.59' y='117.21' style='font-size: 8.00px; font-family: Arial;' textLength='58.24px' lengthAdjust='spacingAndGlyphs'>coronavirus is ...</text></g>
<g clip-path='url(#cpMC4wMHw1MTAuMjR8MjIxLjEwfDAuMDA=)'><text x='3.59' y='87.96' style='font-size: 8.00px; font-family: Arial;' textLength='120.05px' lengthAdjust='spacingAndGlyphs'>I prefer others to think that I am ...</text></g>
<g clip-path='url(#cpMC4wMHw1MTAuMjR8MjIxLjEwfDAuMDA=)'><text x='3.59' y='63.21' style='font-size: 8.00px; font-family: Arial;' textLength='49.80px' lengthAdjust='spacingAndGlyphs'>I prefer that ...</text></g>
<g clip-path='url(#cpMC4wMHw1MTAuMjR8MjIxLjEwfDAuMDA=)'><text x='3.59' y='33.96' style='font-size: 8.00px; font-family: Arial;' textLength='143.19px' lengthAdjust='spacingAndGlyphs'>For me, avoiding that I infect the general</text></g>
<g clip-path='url(#cpMC4wMHw1MTAuMjR8MjIxLjEwfDAuMDA=)'><text x='3.59' y='42.60' style='font-size: 8.00px; font-family: Arial;' textLength='127.18px' lengthAdjust='spacingAndGlyphs'>population with the coronavirus is ...</text></g>
<defs>
  <clipPath id='cpMC4wMHwxNzAuMzJ8MTk4LjYxfDIxLjk5'>
    <rect x='0.00' y='21.99' width='170.32' height='176.62' />
  </clipPath>
</defs>
<defs>
  <clipPath id='cpMC4wMHw1MTAuMjR8MjIxLjEwfDAuMDA='>
    <rect x='0.00' y='0.00' width='510.24' height='221.10' />
  </clipPath>
</defs>
<defs>
  <clipPath id='cpNDE0LjcyfDUxMC4yNHwyMjEuMTB8MTguMDA='>
    <rect x='414.72' y='18.00' width='95.51' height='203.10' />
  </clipPath>
</defs>
<rect x='414.72' y='18.00' width='95.51' height='203.10' style='stroke-width: 0.78; stroke: #FFFFFF; fill: #FFFFFF;' clip-path='url(#cpNDE0LjcyfDUxMC4yNHwyMjEuMTB8MTguMDA=)' />
<defs>
  <clipPath id='cpNDE4LjcxfDUwNi4yNXwxOTguNjF8MjEuOTk='>
    <rect x='418.71' y='21.99' width='87.54' height='176.62' />
  </clipPath>
</defs>
<rect x='418.71' y='21.99' width='87.54' height='176.62' style='stroke-width: 0.78; stroke: none; fill: #FFFFFF;' clip-path='url(#cpNDE4LjcxfDUwNi4yNXwxOTguNjF8MjEuOTk=)' />
<polyline points='432.64,198.61 432.64,21.99 ' style='stroke-width: 0.39; stroke: #EBEBEB; stroke-linecap: butt;' clip-path='url(#cpNDE4LjcxfDUwNi4yNXwxOTguNjF8MjEuOTk=)' />
<polyline points='452.53,198.61 452.53,21.99 ' style='stroke-width: 0.39; stroke: #EBEBEB; stroke-linecap: butt;' clip-path='url(#cpNDE4LjcxfDUwNi4yNXwxOTguNjF8MjEuOTk=)' />
<polyline points='472.43,198.61 472.43,21.99 ' style='stroke-width: 0.39; stroke: #EBEBEB; stroke-linecap: butt;' clip-path='url(#cpNDE4LjcxfDUwNi4yNXwxOTguNjF8MjEuOTk=)' />
<polyline points='492.32,198.61 492.32,21.99 ' style='stroke-width: 0.39; stroke: #EBEBEB; stroke-linecap: butt;' clip-path='url(#cpNDE4LjcxfDUwNi4yNXwxOTguNjF8MjEuOTk=)' />
<polyline points='422.69,198.61 422.69,21.99 ' style='stroke-width: 0.78; stroke: #EBEBEB; stroke-linecap: butt;' clip-path='url(#cpNDE4LjcxfDUwNi4yNXwxOTguNjF8MjEuOTk=)' />
<polyline points='442.58,198.61 442.58,21.99 ' style='stroke-width: 0.78; stroke: #EBEBEB; stroke-linecap: butt;' clip-path='url(#cpNDE4LjcxfDUwNi4yNXwxOTguNjF8MjEuOTk=)' />
<polyline points='462.48,198.61 462.48,21.99 ' style='stroke-width: 0.78; stroke: #EBEBEB; stroke-linecap: butt;' clip-path='url(#cpNDE4LjcxfDUwNi4yNXwxOTguNjF8MjEuOTk=)' />
<polyline points='482.38,198.61 482.38,21.99 ' style='stroke-width: 0.78; stroke: #EBEBEB; stroke-linecap: butt;' clip-path='url(#cpNDE4LjcxfDUwNi4yNXwxOTguNjF8MjEuOTk=)' />
<polyline points='502.27,198.61 502.27,21.99 ' style='stroke-width: 0.78; stroke: #EBEBEB; stroke-linecap: butt;' clip-path='url(#cpNDE4LjcxfDUwNi4yNXwxOTguNjF8MjEuOTk=)' />
<line x1='442.58' y1='198.61' x2='442.58' y2='21.99' style='stroke-width: 1.07; stroke: #BEBEBE; stroke-linecap: butt;' clip-path='url(#cpNDE4LjcxfDUwNi4yNXwxOTguNjF8MjEuOTk=)' />
<line x1='462.48' y1='198.61' x2='462.48' y2='21.99' style='stroke-width: 1.07; stroke: #BEBEBE; stroke-linecap: butt;' clip-path='url(#cpNDE4LjcxfDUwNi4yNXwxOTguNjF8MjEuOTk=)' />
<line x1='482.38' y1='198.61' x2='482.38' y2='21.99' style='stroke-width: 1.07; stroke: #BEBEBE; stroke-linecap: butt;' clip-path='url(#cpNDE4LjcxfDUwNi4yNXwxOTguNjF8MjEuOTk=)' />
<polygon points='438.39,186.75 452.23,190.58 469.36,186.75 452.23,182.93 438.39,186.75 ' style='stroke-width: 2.13; fill: #476463; fill-opacity: 0.50;' clip-path='url(#cpNDE4LjcxfDUwNi4yNXwxOTguNjF8MjEuOTk=)' />
<polygon points='447.40,161.27 464.99,165.09 481.64,161.27 464.99,157.44 447.40,161.27 ' style='stroke-width: 2.13; fill: #544F55; fill-opacity: 0.50;' clip-path='url(#cpNDE4LjcxfDUwNi4yNXwxOTguNjF8MjEuOTk=)' />
<polygon points='449.11,135.78 466.93,139.60 483.11,135.78 466.93,131.96 449.11,135.78 ' style='stroke-width: 2.13; fill: #534B55; fill-opacity: 0.50;' clip-path='url(#cpNDE4LjcxfDUwNi4yNXwxOTguNjF8MjEuOTk=)' />
<polygon points='450.56,110.30 467.17,114.12 482.28,110.30 467.17,106.47 450.56,110.30 ' style='stroke-width: 2.13; fill: #534B55; fill-opacity: 0.50;' clip-path='url(#cpNDE4LjcxfDUwNi4yNXwxOTguNjF8MjEuOTk=)' />
<polygon points='451.00,84.81 468.07,88.63 483.27,84.81 468.07,80.99 451.00,84.81 ' style='stroke-width: 2.13; fill: #524955; fill-opacity: 0.50;' clip-path='url(#cpNDE4LjcxfDUwNi4yNXwxOTguNjF8MjEuOTk=)' />
<polygon points='451.52,59.32 468.62,63.15 483.67,59.32 468.62,55.50 451.52,59.32 ' style='stroke-width: 2.13; fill: #524855; fill-opacity: 0.50;' clip-path='url(#cpNDE4LjcxfDUwNi4yNXwxOTguNjF8MjEuOTk=)' />
<polygon points='454.10,33.84 471.69,37.66 486.16,33.84 471.69,30.01 454.10,33.84 ' style='stroke-width: 2.13; fill: #514154; fill-opacity: 0.50;' clip-path='url(#cpNDE4LjcxfDUwNi4yNXwxOTguNjF8MjEuOTk=)' />
<rect x='418.71' y='21.99' width='87.54' height='176.62' style='stroke-width: 0.78; stroke: #333333;' clip-path='url(#cpNDE4LjcxfDUwNi4yNXwxOTguNjF8MjEuOTk=)' />
<defs>
  <clipPath id='cpNDE0LjcyfDUxMC4yNHwyMjEuMTB8MTguMDA='>
    <rect x='414.72' y='18.00' width='95.51' height='203.10' />
  </clipPath>
</defs>
<defs>
  <clipPath id='cpMC4wMHw1MTAuMjR8MjIxLjEwfDAuMDA='>
    <rect x='0.00' y='0.00' width='510.24' height='221.10' />
  </clipPath>
</defs>
<defs>
  <clipPath id='cpNDE0LjcyfDUxMC4yNHwyMjEuMTB8MTguMDA='>
    <rect x='414.72' y='18.00' width='95.51' height='203.10' />
  </clipPath>
</defs>
<defs>
  <clipPath id='cpMC4wMHw1MTAuMjR8MjIxLjEwfDAuMDA='>
    <rect x='0.00' y='0.00' width='510.24' height='221.10' />
  </clipPath>
</defs>
<defs>
  <clipPath id='cpNDE0LjcyfDUxMC4yNHwyMjEuMTB8MTguMDA='>
    <rect x='414.72' y='18.00' width='95.51' height='203.10' />
  </clipPath>
</defs>
<defs>
  <clipPath id='cpMC4wMHw1MTAuMjR8MjIxLjEwfDAuMDA='>
    <rect x='0.00' y='0.00' width='510.24' height='221.10' />
  </clipPath>
</defs>
<defs>
  <clipPath id='cpNDE0LjcyfDUxMC4yNHwyMjEuMTB8MTguMDA='>
    <rect x='414.72' y='18.00' width='95.51' height='203.10' />
  </clipPath>
</defs>
<defs>
  <clipPath id='cpMC4wMHw1MTAuMjR8MjIxLjEwfDAuMDA='>
    <rect x='0.00' y='0.00' width='510.24' height='221.10' />
  </clipPath>
</defs>
<defs>
  <clipPath id='cpNDE0LjcyfDUxMC4yNHwyMjEuMTB8MTguMDA='>
    <rect x='414.72' y='18.00' width='95.51' height='203.10' />
  </clipPath>
</defs>
<defs>
  <clipPath id='cpMC4wMHw1MTAuMjR8MjIxLjEwfDAuMDA='>
    <rect x='0.00' y='0.00' width='510.24' height='221.10' />
  </clipPath>
</defs>
<defs>
  <clipPath id='cpNDE0LjcyfDUxMC4yNHwyMjEuMTB8MTguMDA='>
    <rect x='414.72' y='18.00' width='95.51' height='203.10' />
  </clipPath>
</defs>
<defs>
  <clipPath id='cpMC4wMHw1MTAuMjR8MjIxLjEwfDAuMDA='>
    <rect x='0.00' y='0.00' width='510.24' height='221.10' />
  </clipPath>
</defs>
<defs>
  <clipPath id='cpNDE0LjcyfDUxMC4yNHwyMjEuMTB8MTguMDA='>
    <rect x='414.72' y='18.00' width='95.51' height='203.10' />
  </clipPath>
</defs>
<defs>
  <clipPath id='cpMC4wMHw1MTAuMjR8MjIxLjEwfDAuMDA='>
    <rect x='0.00' y='0.00' width='510.24' height='221.10' />
  </clipPath>
</defs>
<defs>
  <clipPath id='cpNDE0LjcyfDUxMC4yNHwyMjEuMTB8MTguMDA='>
    <rect x='414.72' y='18.00' width='95.51' height='203.10' />
  </clipPath>
</defs>
<defs>
  <clipPath id='cpMC4wMHw1MTAuMjR8MjIxLjEwfDAuMDA='>
    <rect x='0.00' y='0.00' width='510.24' height='221.10' />
  </clipPath>
</defs>
<polyline points='422.69,200.60 422.69,198.61 ' style='stroke-width: 0.78; stroke: #333333; stroke-linecap: butt;' clip-path='url(#cpMC4wMHw1MTAuMjR8MjIxLjEwfDAuMDA=)' />
<polyline points='442.58,200.60 442.58,198.61 ' style='stroke-width: 0.78; stroke: #333333; stroke-linecap: butt;' clip-path='url(#cpMC4wMHw1MTAuMjR8MjIxLjEwfDAuMDA=)' />
<polyline points='462.48,200.60 462.48,198.61 ' style='stroke-width: 0.78; stroke: #333333; stroke-linecap: butt;' clip-path='url(#cpMC4wMHw1MTAuMjR8MjIxLjEwfDAuMDA=)' />
<polyline points='482.38,200.60 482.38,198.61 ' style='stroke-width: 0.78; stroke: #333333; stroke-linecap: butt;' clip-path='url(#cpMC4wMHw1MTAuMjR8MjIxLjEwfDAuMDA=)' />
<polyline points='502.27,200.60 502.27,198.61 ' style='stroke-width: 0.78; stroke: #333333; stroke-linecap: butt;' clip-path='url(#cpMC4wMHw1MTAuMjR8MjIxLjEwfDAuMDA=)' />
<g clip-path='url(#cpMC4wMHw1MTAuMjR8MjIxLjEwfDAuMDA=)'><text x='417.17' y='206.77' style='font-size: 6.40px; fill: #4D4D4D; font-family: Arial;' textLength='11.03px' lengthAdjust='spacingAndGlyphs'>-1.0</text></g>
<g clip-path='url(#cpMC4wMHw1MTAuMjR8MjIxLjEwfDAuMDA=)'><text x='437.07' y='206.77' style='font-size: 6.40px; fill: #4D4D4D; font-family: Arial;' textLength='11.03px' lengthAdjust='spacingAndGlyphs'>-0.5</text></g>
<g clip-path='url(#cpMC4wMHw1MTAuMjR8MjIxLjEwfDAuMDA=)'><text x='458.03' y='206.77' style='font-size: 6.40px; fill: #4D4D4D; font-family: Arial;' textLength='8.90px' lengthAdjust='spacingAndGlyphs'>0.0</text></g>
<g clip-path='url(#cpMC4wMHw1MTAuMjR8MjIxLjEwfDAuMDA=)'><text x='477.93' y='206.77' style='font-size: 6.40px; fill: #4D4D4D; font-family: Arial;' textLength='8.90px' lengthAdjust='spacingAndGlyphs'>0.5</text></g>
<g clip-path='url(#cpMC4wMHw1MTAuMjR8MjIxLjEwfDAuMDA=)'><text x='497.82' y='206.77' style='font-size: 6.40px; fill: #4D4D4D; font-family: Arial;' textLength='8.90px' lengthAdjust='spacingAndGlyphs'>1.0</text></g>
<defs>
  <clipPath id='cpNDE0LjcyfDUxMC4yNHwyMjEuMTB8MTguMDA='>
    <rect x='414.72' y='18.00' width='95.51' height='203.10' />
  </clipPath>
</defs>
<defs>
  <clipPath id='cpMC4wMHw1MTAuMjR8MjIxLjEwfDAuMDA='>
    <rect x='0.00' y='0.00' width='510.24' height='221.10' />
  </clipPath>
</defs>
<defs>
  <clipPath id='cpNDE0LjcyfDUxMC4yNHwyMjEuMTB8MTguMDA='>
    <rect x='414.72' y='18.00' width='95.51' height='203.10' />
  </clipPath>
</defs>
<defs>
  <clipPath id='cpMC4wMHw1MTAuMjR8MjIxLjEwfDAuMDA='>
    <rect x='0.00' y='0.00' width='510.24' height='221.10' />
  </clipPath>
</defs>
<g clip-path='url(#cpMC4wMHw1MTAuMjR8MjIxLjEwfDAuMDA=)'><text x='419.79' y='215.62' style='font-size: 8.00px; font-family: Arial;' textLength='85.38px' lengthAdjust='spacingAndGlyphs'>95% CIs of associations</text></g>
<defs>
  <clipPath id='cpNDE0LjcyfDUxMC4yNHwyMjEuMTB8MTguMDA='>
    <rect x='414.72' y='18.00' width='95.51' height='203.10' />
  </clipPath>
</defs>
<defs>
  <clipPath id='cpMC4wMHw1MTAuMjR8MjIxLjEwfDAuMDA='>
    <rect x='0.00' y='0.00' width='510.24' height='221.10' />
  </clipPath>
</defs>
<defs>
  <clipPath id='cpNDE0LjcyfDUxMC4yNHwyMjEuMTB8MTguMDA='>
    <rect x='414.72' y='18.00' width='95.51' height='203.10' />
  </clipPath>
</defs>
<defs>
  <clipPath id='cpMC4wMHw1MTAuMjR8MjIxLjEwfDAuMDA='>
    <rect x='0.00' y='0.00' width='510.24' height='221.10' />
  </clipPath>
</defs>
<defs>
  <clipPath id='cpNDE0LjcyfDUxMC4yNHwyMjEuMTB8MTguMDA='>
    <rect x='414.72' y='18.00' width='95.51' height='203.10' />
  </clipPath>
</defs>
<defs>
  <clipPath id='cpMC4wMHw1MTAuMjR8MjIxLjEwfDAuMDA='>
    <rect x='0.00' y='0.00' width='510.24' height='221.10' />
  </clipPath>
</defs>
<defs>
  <clipPath id='cpNDE0LjcyfDUxMC4yNHwyMjEuMTB8MTguMDA='>
    <rect x='414.72' y='18.00' width='95.51' height='203.10' />
  </clipPath>
</defs>
<defs>
  <clipPath id='cpMC4wMHw1MTAuMjR8MjIxLjEwfDAuMDA='>
    <rect x='0.00' y='0.00' width='510.24' height='221.10' />
  </clipPath>
</defs>
<defs>
  <clipPath id='cpNDE0LjcyfDUxMC4yNHwyMjEuMTB8MTguMDA='>
    <rect x='414.72' y='18.00' width='95.51' height='203.10' />
  </clipPath>
</defs>
<defs>
  <clipPath id='cpMC4wMHw1MTAuMjR8MjIxLjEwfDAuMDA='>
    <rect x='0.00' y='0.00' width='510.24' height='221.10' />
  </clipPath>
</defs>
<defs>
  <clipPath id='cpNDE0LjcyfDUxMC4yNHwyMjEuMTB8MTguMDA='>
    <rect x='414.72' y='18.00' width='95.51' height='203.10' />
  </clipPath>
</defs>
<defs>
  <clipPath id='cpMC4wMHw1MTAuMjR8MjIxLjEwfDAuMDA='>
    <rect x='0.00' y='0.00' width='510.24' height='221.10' />
  </clipPath>
</defs>
<defs>
  <clipPath id='cpNDE0LjcyfDUxMC4yNHwyMjEuMTB8MTguMDA='>
    <rect x='414.72' y='18.00' width='95.51' height='203.10' />
  </clipPath>
</defs>
<defs>
  <clipPath id='cpMC4wMHw1MTAuMjR8MjIxLjEwfDAuMDA='>
    <rect x='0.00' y='0.00' width='510.24' height='221.10' />
  </clipPath>
</defs>
<g clip-path='url(#cpMC4wMHw1MTAuMjR8MjIxLjEwfDAuMDA=)'><text x='2.30' y='8.78' style='font-size: 9.60px; font-weight: bold; font-family: Arial;' textLength='147.76px' lengthAdjust='spacingAndGlyphs'>Means and associations (r) with </text></g>
<g clip-path='url(#cpMC4wMHw1MTAuMjR8MjIxLjEwfDAuMDA=)'><text x='150.07' y='8.78' style='font-size: 9.60px; font-weight: bold; font-family: Arial;' textLength='43.21px' lengthAdjust='spacingAndGlyphs'>proximity</text></g>
<g clip-path='url(#cpMC4wMHw1MTAuMjR8MjIxLjEwfDAuMDA=)'><text x='193.28' y='8.78' style='font-size: 9.60px; font-weight: bold; font-family: Arial;' textLength='2.67px' lengthAdjust='spacingAndGlyphs'> </text></g>
</svg>
