<?xml version='1.0' encoding='UTF-8' ?>
<svg xmlns='http://www.w3.org/2000/svg' xmlns:xlink='http://www.w3.org/1999/xlink' viewBox='0 0 510.24 136.06'>
<defs>
  <style type='text/css'><![CDATA[
    line, polyline, polygon, path, rect, circle {
      fill: none;
      stroke: #000000;
      stroke-linecap: round;
      stroke-linejoin: round;
      stroke-miterlimit: 10.00;
    }
  ]]></style>
</defs>
<rect width='100%' height='100%' style='stroke: none; fill: none;'/>
<defs>
  <clipPath id='cpMTY5LjkwfDM5OS45M3wxMzYuMDZ8MTguMDA='>
    <rect x='169.90' y='18.00' width='230.02' height='118.06' />
  </clipPath>
</defs>
<rect x='169.90' y='18.00' width='230.02' height='118.06' style='stroke-width: 0.78; stroke: #FFFFFF; fill: #FFFFFF;' clip-path='url(#cpMTY5LjkwfDM5OS45M3wxMzYuMDZ8MTguMDA=)' />
<defs>
  <clipPath id='cpMC4wMHw1MTAuMjR8MTM2LjA2fDAuMDA='>
    <rect x='0.00' y='0.00' width='510.24' height='136.06' />
  </clipPath>
</defs>
<defs>
  <clipPath id='cpMjI0Ljc4fDMzNS4wOXwxMTMuNTd8MjEuOTk='>
    <rect x='224.78' y='21.99' width='110.31' height='91.58' />
  </clipPath>
</defs>
<rect x='224.78' y='21.99' width='110.31' height='91.58' style='stroke-width: 0.78; stroke: none; fill: #FFFFFF;' clip-path='url(#cpMjI0Ljc4fDMzNS4wOXwxMTMuNTd8MjEuOTk=)' />
<polyline points='230.06,113.57 230.06,21.99 ' style='stroke-width: 0.39; stroke: #EBEBEB; stroke-linecap: butt;' clip-path='url(#cpMjI0Ljc4fDMzNS4wOXwxMTMuNTd8MjEuOTk=)' />
<polyline points='244.64,113.57 244.64,21.99 ' style='stroke-width: 0.39; stroke: #EBEBEB; stroke-linecap: butt;' clip-path='url(#cpMjI0Ljc4fDMzNS4wOXwxMTMuNTd8MjEuOTk=)' />
<polyline points='259.23,113.57 259.23,21.99 ' style='stroke-width: 0.39; stroke: #EBEBEB; stroke-linecap: butt;' clip-path='url(#cpMjI0Ljc4fDMzNS4wOXwxMTMuNTd8MjEuOTk=)' />
<polyline points='273.82,113.57 273.82,21.99 ' style='stroke-width: 0.39; stroke: #EBEBEB; stroke-linecap: butt;' clip-path='url(#cpMjI0Ljc4fDMzNS4wOXwxMTMuNTd8MjEuOTk=)' />
<polyline points='288.41,113.57 288.41,21.99 ' style='stroke-width: 0.39; stroke: #EBEBEB; stroke-linecap: butt;' clip-path='url(#cpMjI0Ljc4fDMzNS4wOXwxMTMuNTd8MjEuOTk=)' />
<polyline points='302.99,113.57 302.99,21.99 ' style='stroke-width: 0.39; stroke: #EBEBEB; stroke-linecap: butt;' clip-path='url(#cpMjI0Ljc4fDMzNS4wOXwxMTMuNTd8MjEuOTk=)' />
<polyline points='317.58,113.57 317.58,21.99 ' style='stroke-width: 0.39; stroke: #EBEBEB; stroke-linecap: butt;' clip-path='url(#cpMjI0Ljc4fDMzNS4wOXwxMTMuNTd8MjEuOTk=)' />
<polyline points='332.17,113.57 332.17,21.99 ' style='stroke-width: 0.39; stroke: #EBEBEB; stroke-linecap: butt;' clip-path='url(#cpMjI0Ljc4fDMzNS4wOXwxMTMuNTd8MjEuOTk=)' />
<polyline points='224.78,103.69 335.09,103.69 ' style='stroke-width: 0.78; stroke: #EBEBEB; stroke-linecap: butt;' clip-path='url(#cpMjI0Ljc4fDMzNS4wOXwxMTMuNTd8MjEuOTk=)' />
<polyline points='224.78,80.09 335.09,80.09 ' style='stroke-width: 0.78; stroke: #EBEBEB; stroke-linecap: butt;' clip-path='url(#cpMjI0Ljc4fDMzNS4wOXwxMTMuNTd8MjEuOTk=)' />
<polyline points='224.78,56.49 335.09,56.49 ' style='stroke-width: 0.78; stroke: #EBEBEB; stroke-linecap: butt;' clip-path='url(#cpMjI0Ljc4fDMzNS4wOXwxMTMuNTd8MjEuOTk=)' />
<polyline points='224.78,32.89 335.09,32.89 ' style='stroke-width: 0.78; stroke: #EBEBEB; stroke-linecap: butt;' clip-path='url(#cpMjI0Ljc4fDMzNS4wOXwxMTMuNTd8MjEuOTk=)' />
<polyline points='237.35,113.57 237.35,21.99 ' style='stroke-width: 0.78; stroke: #EBEBEB; stroke-linecap: butt;' clip-path='url(#cpMjI0Ljc4fDMzNS4wOXwxMTMuNTd8MjEuOTk=)' />
<polyline points='251.94,113.57 251.94,21.99 ' style='stroke-width: 0.78; stroke: #EBEBEB; stroke-linecap: butt;' clip-path='url(#cpMjI0Ljc4fDMzNS4wOXwxMTMuNTd8MjEuOTk=)' />
<polyline points='266.53,113.57 266.53,21.99 ' style='stroke-width: 0.78; stroke: #EBEBEB; stroke-linecap: butt;' clip-path='url(#cpMjI0Ljc4fDMzNS4wOXwxMTMuNTd8MjEuOTk=)' />
<polyline points='281.11,113.57 281.11,21.99 ' style='stroke-width: 0.78; stroke: #EBEBEB; stroke-linecap: butt;' clip-path='url(#cpMjI0Ljc4fDMzNS4wOXwxMTMuNTd8MjEuOTk=)' />
<polyline points='295.70,113.57 295.70,21.99 ' style='stroke-width: 0.78; stroke: #EBEBEB; stroke-linecap: butt;' clip-path='url(#cpMjI0Ljc4fDMzNS4wOXwxMTMuNTd8MjEuOTk=)' />
<polyline points='310.29,113.57 310.29,21.99 ' style='stroke-width: 0.78; stroke: #EBEBEB; stroke-linecap: butt;' clip-path='url(#cpMjI0Ljc4fDMzNS4wOXwxMTMuNTd8MjEuOTk=)' />
<polyline points='324.88,113.57 324.88,21.99 ' style='stroke-width: 0.78; stroke: #EBEBEB; stroke-linecap: butt;' clip-path='url(#cpMjI0Ljc4fDMzNS4wOXwxMTMuNTd8MjEuOTk=)' />
<circle cx='270.61' cy='100.05' r='2.13' style='stroke-width: 0.00; stroke: #444444; stroke-opacity: 0.10; fill: #444444; fill-opacity: 0.10;' clip-path='url(#cpMjI0Ljc4fDMzNS4wOXwxMTMuNTd8MjEuOTk=)' />
<circle cx='284.72' cy='108.23' r='2.13' style='stroke-width: 0.00; stroke: #444444; stroke-opacity: 0.10; fill: #444444; fill-opacity: 0.10;' clip-path='url(#cpMjI0Ljc4fDMzNS4wOXwxMTMuNTd8MjEuOTk=)' />
<circle cx='275.75' cy='101.32' r='2.13' style='stroke-width: 0.00; stroke: #444444; stroke-opacity: 0.10; fill: #444444; fill-opacity: 0.10;' clip-path='url(#cpMjI0Ljc4fDMzNS4wOXwxMTMuNTd8MjEuOTk=)' />
<circle cx='290.49' cy='106.62' r='2.13' style='stroke-width: 0.00; stroke: #444444; stroke-opacity: 0.10; fill: #444444; fill-opacity: 0.10;' clip-path='url(#cpMjI0Ljc4fDMzNS4wOXwxMTMuNTd8MjEuOTk=)' />
<circle cx='287.25' cy='100.63' r='2.13' style='stroke-width: 0.00; stroke: #444444; stroke-opacity: 0.10; fill: #444444; fill-opacity: 0.10;' clip-path='url(#cpMjI0Ljc4fDMzNS4wOXwxMTMuNTd8MjEuOTk=)' />
<circle cx='278.35' cy='105.64' r='2.13' style='stroke-width: 0.00; stroke: #444444; stroke-opacity: 0.10; fill: #444444; fill-opacity: 0.10;' clip-path='url(#cpMjI0Ljc4fDMzNS4wOXwxMTMuNTd8MjEuOTk=)' />
<circle cx='269.06' cy='106.07' r='2.13' style='stroke-width: 0.00; stroke: #444444; stroke-opacity: 0.10; fill: #444444; fill-opacity: 0.10;' clip-path='url(#cpMjI0Ljc4fDMzNS4wOXwxMTMuNTd8MjEuOTk=)' />
<circle cx='280.22' cy='103.28' r='2.13' style='stroke-width: 0.00; stroke: #444444; stroke-opacity: 0.10; fill: #444444; fill-opacity: 0.10;' clip-path='url(#cpMjI0Ljc4fDMzNS4wOXwxMTMuNTd8MjEuOTk=)' />
<circle cx='282.46' cy='98.76' r='2.13' style='stroke-width: 0.00; stroke: #444444; stroke-opacity: 0.10; fill: #444444; fill-opacity: 0.10;' clip-path='url(#cpMjI0Ljc4fDMzNS4wOXwxMTMuNTd8MjEuOTk=)' />
<circle cx='278.35' cy='108.98' r='2.13' style='stroke-width: 0.00; stroke: #444444; stroke-opacity: 0.10; fill: #444444; fill-opacity: 0.10;' clip-path='url(#cpMjI0Ljc4fDMzNS4wOXwxMTMuNTd8MjEuOTk=)' />
<circle cx='290.87' cy='105.57' r='2.13' style='stroke-width: 0.00; stroke: #444444; stroke-opacity: 0.10; fill: #444444; fill-opacity: 0.10;' clip-path='url(#cpMjI0Ljc4fDMzNS4wOXwxMTMuNTd8MjEuOTk=)' />
<circle cx='308.92' cy='106.95' r='2.13' style='stroke-width: 0.00; stroke: #444444; stroke-opacity: 0.10; fill: #444444; fill-opacity: 0.10;' clip-path='url(#cpMjI0Ljc4fDMzNS4wOXwxMTMuNTd8MjEuOTk=)' />
<circle cx='299.92' cy='97.02' r='2.13' style='stroke-width: 0.00; stroke: #444444; stroke-opacity: 0.10; fill: #444444; fill-opacity: 0.10;' clip-path='url(#cpMjI0Ljc4fDMzNS4wOXwxMTMuNTd8MjEuOTk=)' />
<circle cx='287.23' cy='102.72' r='2.13' style='stroke-width: 0.00; stroke: #444444; stroke-opacity: 0.10; fill: #444444; fill-opacity: 0.10;' clip-path='url(#cpMjI0Ljc4fDMzNS4wOXwxMTMuNTd8MjEuOTk=)' />
<circle cx='238.81' cy='109.40' r='2.13' style='stroke-width: 0.00; stroke: #444444; stroke-opacity: 0.10; fill: #444444; fill-opacity: 0.10;' clip-path='url(#cpMjI0Ljc4fDMzNS4wOXwxMTMuNTd8MjEuOTk=)' />
<circle cx='285.57' cy='98.85' r='2.13' style='stroke-width: 0.00; stroke: #444444; stroke-opacity: 0.10; fill: #444444; fill-opacity: 0.10;' clip-path='url(#cpMjI0Ljc4fDMzNS4wOXwxMTMuNTd8MjEuOTk=)' />
<circle cx='282.90' cy='105.21' r='2.13' style='stroke-width: 0.00; stroke: #444444; stroke-opacity: 0.10; fill: #444444; fill-opacity: 0.10;' clip-path='url(#cpMjI0Ljc4fDMzNS4wOXwxMTMuNTd8MjEuOTk=)' />
<circle cx='275.31' cy='99.26' r='2.13' style='stroke-width: 0.00; stroke: #444444; stroke-opacity: 0.10; fill: #444444; fill-opacity: 0.10;' clip-path='url(#cpMjI0Ljc4fDMzNS4wOXwxMTMuNTd8MjEuOTk=)' />
<circle cx='263.93' cy='98.40' r='2.13' style='stroke-width: 0.00; stroke: #444444; stroke-opacity: 0.10; fill: #444444; fill-opacity: 0.10;' clip-path='url(#cpMjI0Ljc4fDMzNS4wOXwxMTMuNTd8MjEuOTk=)' />
<circle cx='285.14' cy='98.31' r='2.13' style='stroke-width: 0.00; stroke: #444444; stroke-opacity: 0.10; fill: #444444; fill-opacity: 0.10;' clip-path='url(#cpMjI0Ljc4fDMzNS4wOXwxMTMuNTd8MjEuOTk=)' />
<circle cx='284.82' cy='96.70' r='2.13' style='stroke-width: 0.00; stroke: #444444; stroke-opacity: 0.10; fill: #444444; fill-opacity: 0.10;' clip-path='url(#cpMjI0Ljc4fDMzNS4wOXwxMTMuNTd8MjEuOTk=)' />
<circle cx='281.91' cy='102.36' r='2.13' style='stroke-width: 0.00; stroke: #444444; stroke-opacity: 0.10; fill: #444444; fill-opacity: 0.10;' clip-path='url(#cpMjI0Ljc4fDMzNS4wOXwxMTMuNTd8MjEuOTk=)' />
<circle cx='245.60' cy='108.22' r='2.13' style='stroke-width: 0.00; stroke: #444444; stroke-opacity: 0.10; fill: #444444; fill-opacity: 0.10;' clip-path='url(#cpMjI0Ljc4fDMzNS4wOXwxMTMuNTd8MjEuOTk=)' />
<circle cx='283.34' cy='107.13' r='2.13' style='stroke-width: 0.00; stroke: #444444; stroke-opacity: 0.10; fill: #444444; fill-opacity: 0.10;' clip-path='url(#cpMjI0Ljc4fDMzNS4wOXwxMTMuNTd8MjEuOTk=)' />
<circle cx='249.75' cy='87.02' r='2.13' style='stroke-width: 0.00; stroke: #444444; stroke-opacity: 0.10; fill: #444444; fill-opacity: 0.10;' clip-path='url(#cpMjI0Ljc4fDMzNS4wOXwxMTMuNTd8MjEuOTk=)' />
<circle cx='266.38' cy='75.66' r='2.13' style='stroke-width: 0.00; stroke: #444444; stroke-opacity: 0.10; fill: #444444; fill-opacity: 0.10;' clip-path='url(#cpMjI0Ljc4fDMzNS4wOXwxMTMuNTd8MjEuOTk=)' />
<circle cx='311.87' cy='73.87' r='2.13' style='stroke-width: 0.00; stroke: #444444; stroke-opacity: 0.10; fill: #444444; fill-opacity: 0.10;' clip-path='url(#cpMjI0Ljc4fDMzNS4wOXwxMTMuNTd8MjEuOTk=)' />
<circle cx='252.20' cy='86.37' r='2.13' style='stroke-width: 0.00; stroke: #444444; stroke-opacity: 0.10; fill: #444444; fill-opacity: 0.10;' clip-path='url(#cpMjI0Ljc4fDMzNS4wOXwxMTMuNTd8MjEuOTk=)' />
<circle cx='268.60' cy='81.34' r='2.13' style='stroke-width: 0.00; stroke: #444444; stroke-opacity: 0.10; fill: #444444; fill-opacity: 0.10;' clip-path='url(#cpMjI0Ljc4fDMzNS4wOXwxMTMuNTd8MjEuOTk=)' />
<circle cx='238.01' cy='83.94' r='2.13' style='stroke-width: 0.00; stroke: #444444; stroke-opacity: 0.10; fill: #444444; fill-opacity: 0.10;' clip-path='url(#cpMjI0Ljc4fDMzNS4wOXwxMTMuNTd8MjEuOTk=)' />
<circle cx='262.34' cy='74.17' r='2.13' style='stroke-width: 0.00; stroke: #444444; stroke-opacity: 0.10; fill: #444444; fill-opacity: 0.10;' clip-path='url(#cpMjI0Ljc4fDMzNS4wOXwxMTMuNTd8MjEuOTk=)' />
<circle cx='254.67' cy='74.37' r='2.13' style='stroke-width: 0.00; stroke: #444444; stroke-opacity: 0.10; fill: #444444; fill-opacity: 0.10;' clip-path='url(#cpMjI0Ljc4fDMzNS4wOXwxMTMuNTd8MjEuOTk=)' />
<circle cx='243.89' cy='79.73' r='2.13' style='stroke-width: 0.00; stroke: #444444; stroke-opacity: 0.10; fill: #444444; fill-opacity: 0.10;' clip-path='url(#cpMjI0Ljc4fDMzNS4wOXwxMTMuNTd8MjEuOTk=)' />
<circle cx='269.46' cy='78.12' r='2.13' style='stroke-width: 0.00; stroke: #444444; stroke-opacity: 0.10; fill: #444444; fill-opacity: 0.10;' clip-path='url(#cpMjI0Ljc4fDMzNS4wOXwxMTMuNTd8MjEuOTk=)' />
<circle cx='257.49' cy='81.31' r='2.13' style='stroke-width: 0.00; stroke: #444444; stroke-opacity: 0.10; fill: #444444; fill-opacity: 0.10;' clip-path='url(#cpMjI0Ljc4fDMzNS4wOXwxMTMuNTd8MjEuOTk=)' />
<circle cx='294.10' cy='79.38' r='2.13' style='stroke-width: 0.00; stroke: #444444; stroke-opacity: 0.10; fill: #444444; fill-opacity: 0.10;' clip-path='url(#cpMjI0Ljc4fDMzNS4wOXwxMTMuNTd8MjEuOTk=)' />
<circle cx='236.55' cy='84.76' r='2.13' style='stroke-width: 0.00; stroke: #444444; stroke-opacity: 0.10; fill: #444444; fill-opacity: 0.10;' clip-path='url(#cpMjI0Ljc4fDMzNS4wOXwxMTMuNTd8MjEuOTk=)' />
<circle cx='239.75' cy='76.05' r='2.13' style='stroke-width: 0.00; stroke: #444444; stroke-opacity: 0.10; fill: #444444; fill-opacity: 0.10;' clip-path='url(#cpMjI0Ljc4fDMzNS4wOXwxMTMuNTd8MjEuOTk=)' />
<circle cx='234.17' cy='79.62' r='2.13' style='stroke-width: 0.00; stroke: #444444; stroke-opacity: 0.10; fill: #444444; fill-opacity: 0.10;' clip-path='url(#cpMjI0Ljc4fDMzNS4wOXwxMTMuNTd8MjEuOTk=)' />
<circle cx='292.29' cy='73.74' r='2.13' style='stroke-width: 0.00; stroke: #444444; stroke-opacity: 0.10; fill: #444444; fill-opacity: 0.10;' clip-path='url(#cpMjI0Ljc4fDMzNS4wOXwxMTMuNTd8MjEuOTk=)' />
<circle cx='277.51' cy='76.93' r='2.13' style='stroke-width: 0.00; stroke: #444444; stroke-opacity: 0.10; fill: #444444; fill-opacity: 0.10;' clip-path='url(#cpMjI0Ljc4fDMzNS4wOXwxMTMuNTd8MjEuOTk=)' />
<circle cx='254.92' cy='75.24' r='2.13' style='stroke-width: 0.00; stroke: #444444; stroke-opacity: 0.10; fill: #444444; fill-opacity: 0.10;' clip-path='url(#cpMjI0Ljc4fDMzNS4wOXwxMTMuNTd8MjEuOTk=)' />
<circle cx='236.13' cy='86.10' r='2.13' style='stroke-width: 0.00; stroke: #444444; stroke-opacity: 0.10; fill: #444444; fill-opacity: 0.10;' clip-path='url(#cpMjI0Ljc4fDMzNS4wOXwxMTMuNTd8MjEuOTk=)' />
<circle cx='282.83' cy='80.53' r='2.13' style='stroke-width: 0.00; stroke: #444444; stroke-opacity: 0.10; fill: #444444; fill-opacity: 0.10;' clip-path='url(#cpMjI0Ljc4fDMzNS4wOXwxMTMuNTd8MjEuOTk=)' />
<circle cx='236.93' cy='52.72' r='2.13' style='stroke-width: 0.00; stroke: #444444; stroke-opacity: 0.10; fill: #444444; fill-opacity: 0.10;' clip-path='url(#cpMjI0Ljc4fDMzNS4wOXwxMTMuNTd8MjEuOTk=)' />
<circle cx='235.13' cy='56.89' r='2.13' style='stroke-width: 0.00; stroke: #444444; stroke-opacity: 0.10; fill: #444444; fill-opacity: 0.10;' clip-path='url(#cpMjI0Ljc4fDMzNS4wOXwxMTMuNTd8MjEuOTk=)' />
<circle cx='233.63' cy='57.71' r='2.13' style='stroke-width: 0.00; stroke: #444444; stroke-opacity: 0.10; fill: #444444; fill-opacity: 0.10;' clip-path='url(#cpMjI0Ljc4fDMzNS4wOXwxMTMuNTd8MjEuOTk=)' />
<circle cx='270.38' cy='55.17' r='2.13' style='stroke-width: 0.00; stroke: #444444; stroke-opacity: 0.10; fill: #444444; fill-opacity: 0.10;' clip-path='url(#cpMjI0Ljc4fDMzNS4wOXwxMTMuNTd8MjEuOTk=)' />
<circle cx='287.10' cy='61.70' r='2.13' style='stroke-width: 0.00; stroke: #444444; stroke-opacity: 0.10; fill: #444444; fill-opacity: 0.10;' clip-path='url(#cpMjI0Ljc4fDMzNS4wOXwxMTMuNTd8MjEuOTk=)' />
<circle cx='243.03' cy='57.02' r='2.13' style='stroke-width: 0.00; stroke: #444444; stroke-opacity: 0.10; fill: #444444; fill-opacity: 0.10;' clip-path='url(#cpMjI0Ljc4fDMzNS4wOXwxMTMuNTd8MjEuOTk=)' />
<circle cx='284.08' cy='58.44' r='2.13' style='stroke-width: 0.00; stroke: #444444; stroke-opacity: 0.10; fill: #444444; fill-opacity: 0.10;' clip-path='url(#cpMjI0Ljc4fDMzNS4wOXwxMTMuNTd8MjEuOTk=)' />
<circle cx='242.68' cy='59.99' r='2.13' style='stroke-width: 0.00; stroke: #444444; stroke-opacity: 0.10; fill: #444444; fill-opacity: 0.10;' clip-path='url(#cpMjI0Ljc4fDMzNS4wOXwxMTMuNTd8MjEuOTk=)' />
<circle cx='243.46' cy='51.17' r='2.13' style='stroke-width: 0.00; stroke: #444444; stroke-opacity: 0.10; fill: #444444; fill-opacity: 0.10;' clip-path='url(#cpMjI0Ljc4fDMzNS4wOXwxMTMuNTd8MjEuOTk=)' />
<circle cx='256.09' cy='60.01' r='2.13' style='stroke-width: 0.00; stroke: #444444; stroke-opacity: 0.10; fill: #444444; fill-opacity: 0.10;' clip-path='url(#cpMjI0Ljc4fDMzNS4wOXwxMTMuNTd8MjEuOTk=)' />
<circle cx='285.09' cy='53.17' r='2.13' style='stroke-width: 0.00; stroke: #444444; stroke-opacity: 0.10; fill: #444444; fill-opacity: 0.10;' clip-path='url(#cpMjI0Ljc4fDMzNS4wOXwxMTMuNTd8MjEuOTk=)' />
<circle cx='231.19' cy='56.40' r='2.13' style='stroke-width: 0.00; stroke: #444444; stroke-opacity: 0.10; fill: #444444; fill-opacity: 0.10;' clip-path='url(#cpMjI0Ljc4fDMzNS4wOXwxMTMuNTd8MjEuOTk=)' />
<circle cx='270.97' cy='58.30' r='2.13' style='stroke-width: 0.00; stroke: #444444; stroke-opacity: 0.10; fill: #444444; fill-opacity: 0.10;' clip-path='url(#cpMjI0Ljc4fDMzNS4wOXwxMTMuNTd8MjEuOTk=)' />
<circle cx='296.40' cy='63.02' r='2.13' style='stroke-width: 0.00; stroke: #444444; stroke-opacity: 0.10; fill: #444444; fill-opacity: 0.10;' clip-path='url(#cpMjI0Ljc4fDMzNS4wOXwxMTMuNTd8MjEuOTk=)' />
<circle cx='232.99' cy='49.71' r='2.13' style='stroke-width: 0.00; stroke: #444444; stroke-opacity: 0.10; fill: #444444; fill-opacity: 0.10;' clip-path='url(#cpMjI0Ljc4fDMzNS4wOXwxMTMuNTd8MjEuOTk=)' />
<circle cx='279.95' cy='58.82' r='2.13' style='stroke-width: 0.00; stroke: #444444; stroke-opacity: 0.10; fill: #444444; fill-opacity: 0.10;' clip-path='url(#cpMjI0Ljc4fDMzNS4wOXwxMTMuNTd8MjEuOTk=)' />
<circle cx='235.01' cy='54.84' r='2.13' style='stroke-width: 0.00; stroke: #444444; stroke-opacity: 0.10; fill: #444444; fill-opacity: 0.10;' clip-path='url(#cpMjI0Ljc4fDMzNS4wOXwxMTMuNTd8MjEuOTk=)' />
<circle cx='237.47' cy='60.15' r='2.13' style='stroke-width: 0.00; stroke: #444444; stroke-opacity: 0.10; fill: #444444; fill-opacity: 0.10;' clip-path='url(#cpMjI0Ljc4fDMzNS4wOXwxMTMuNTd8MjEuOTk=)' />
<circle cx='240.67' cy='60.57' r='2.13' style='stroke-width: 0.00; stroke: #444444; stroke-opacity: 0.10; fill: #444444; fill-opacity: 0.10;' clip-path='url(#cpMjI0Ljc4fDMzNS4wOXwxMTMuNTd8MjEuOTk=)' />
<circle cx='237.43' cy='53.53' r='2.13' style='stroke-width: 0.00; stroke: #444444; stroke-opacity: 0.10; fill: #444444; fill-opacity: 0.10;' clip-path='url(#cpMjI0Ljc4fDMzNS4wOXwxMTMuNTd8MjEuOTk=)' />
<circle cx='280.97' cy='36.73' r='2.13' style='stroke-width: 0.00; stroke: #444444; stroke-opacity: 0.10; fill: #444444; fill-opacity: 0.10;' clip-path='url(#cpMjI0Ljc4fDMzNS4wOXwxMTMuNTd8MjEuOTk=)' />
<circle cx='319.82' cy='39.92' r='2.13' style='stroke-width: 0.00; stroke: #444444; stroke-opacity: 0.10; fill: #444444; fill-opacity: 0.10;' clip-path='url(#cpMjI0Ljc4fDMzNS4wOXwxMTMuNTd8MjEuOTk=)' />
<circle cx='330.08' cy='29.40' r='2.13' style='stroke-width: 0.00; stroke: #444444; stroke-opacity: 0.10; fill: #444444; fill-opacity: 0.10;' clip-path='url(#cpMjI0Ljc4fDMzNS4wOXwxMTMuNTd8MjEuOTk=)' />
<circle cx='323.82' cy='27.82' r='2.13' style='stroke-width: 0.00; stroke: #444444; stroke-opacity: 0.10; fill: #444444; fill-opacity: 0.10;' clip-path='url(#cpMjI0Ljc4fDMzNS4wOXwxMTMuNTd8MjEuOTk=)' />
<circle cx='305.03' cy='26.91' r='2.13' style='stroke-width: 0.00; stroke: #444444; stroke-opacity: 0.10; fill: #444444; fill-opacity: 0.10;' clip-path='url(#cpMjI0Ljc4fDMzNS4wOXwxMTMuNTd8MjEuOTk=)' />
<circle cx='314.63' cy='33.95' r='2.13' style='stroke-width: 0.00; stroke: #444444; stroke-opacity: 0.10; fill: #444444; fill-opacity: 0.10;' clip-path='url(#cpMjI0Ljc4fDMzNS4wOXwxMTMuNTd8MjEuOTk=)' />
<circle cx='326.28' cy='30.95' r='2.13' style='stroke-width: 0.00; stroke: #444444; stroke-opacity: 0.10; fill: #444444; fill-opacity: 0.10;' clip-path='url(#cpMjI0Ljc4fDMzNS4wOXwxMTMuNTd8MjEuOTk=)' />
<circle cx='311.14' cy='27.88' r='2.13' style='stroke-width: 0.00; stroke: #444444; stroke-opacity: 0.10; fill: #444444; fill-opacity: 0.10;' clip-path='url(#cpMjI0Ljc4fDMzNS4wOXwxMTMuNTd8MjEuOTk=)' />
<circle cx='262.57' cy='27.40' r='2.13' style='stroke-width: 0.00; stroke: #444444; stroke-opacity: 0.10; fill: #444444; fill-opacity: 0.10;' clip-path='url(#cpMjI0Ljc4fDMzNS4wOXwxMTMuNTd8MjEuOTk=)' />
<circle cx='328.90' cy='37.04' r='2.13' style='stroke-width: 0.00; stroke: #444444; stroke-opacity: 0.10; fill: #444444; fill-opacity: 0.10;' clip-path='url(#cpMjI0Ljc4fDMzNS4wOXwxMTMuNTd8MjEuOTk=)' />
<circle cx='314.15' cy='31.72' r='2.13' style='stroke-width: 0.00; stroke: #444444; stroke-opacity: 0.10; fill: #444444; fill-opacity: 0.10;' clip-path='url(#cpMjI0Ljc4fDMzNS4wOXwxMTMuNTd8MjEuOTk=)' />
<circle cx='296.80' cy='26.15' r='2.13' style='stroke-width: 0.00; stroke: #444444; stroke-opacity: 0.10; fill: #444444; fill-opacity: 0.10;' clip-path='url(#cpMjI0Ljc4fDMzNS4wOXwxMTMuNTd8MjEuOTk=)' />
<circle cx='313.01' cy='29.45' r='2.13' style='stroke-width: 0.00; stroke: #444444; stroke-opacity: 0.10; fill: #444444; fill-opacity: 0.10;' clip-path='url(#cpMjI0Ljc4fDMzNS4wOXwxMTMuNTd8MjEuOTk=)' />
<circle cx='263.73' cy='38.86' r='2.13' style='stroke-width: 0.00; stroke: #444444; stroke-opacity: 0.10; fill: #444444; fill-opacity: 0.10;' clip-path='url(#cpMjI0Ljc4fDMzNS4wOXwxMTMuNTd8MjEuOTk=)' />
<circle cx='313.85' cy='33.57' r='2.13' style='stroke-width: 0.00; stroke: #444444; stroke-opacity: 0.10; fill: #444444; fill-opacity: 0.10;' clip-path='url(#cpMjI0Ljc4fDMzNS4wOXwxMTMuNTd8MjEuOTk=)' />
<circle cx='321.85' cy='39.55' r='2.13' style='stroke-width: 0.00; stroke: #444444; stroke-opacity: 0.10; fill: #444444; fill-opacity: 0.10;' clip-path='url(#cpMjI0Ljc4fDMzNS4wOXwxMTMuNTd8MjEuOTk=)' />
<circle cx='287.34' cy='34.74' r='2.13' style='stroke-width: 0.00; stroke: #444444; stroke-opacity: 0.10; fill: #444444; fill-opacity: 0.10;' clip-path='url(#cpMjI0Ljc4fDMzNS4wOXwxMTMuNTd8MjEuOTk=)' />
<circle cx='295.59' cy='31.58' r='2.13' style='stroke-width: 0.00; stroke: #444444; stroke-opacity: 0.10; fill: #444444; fill-opacity: 0.10;' clip-path='url(#cpMjI0Ljc4fDMzNS4wOXwxMTMuNTd8MjEuOTk=)' />
<circle cx='315.85' cy='26.33' r='2.13' style='stroke-width: 0.00; stroke: #444444; stroke-opacity: 0.10; fill: #444444; fill-opacity: 0.10;' clip-path='url(#cpMjI0Ljc4fDMzNS4wOXwxMTMuNTd8MjEuOTk=)' />
<circle cx='318.48' cy='31.24' r='2.13' style='stroke-width: 0.00; stroke: #444444; stroke-opacity: 0.10; fill: #444444; fill-opacity: 0.10;' clip-path='url(#cpMjI0Ljc4fDMzNS4wOXwxMTMuNTd8MjEuOTk=)' />
<circle cx='327.89' cy='31.12' r='2.13' style='stroke-width: 0.00; stroke: #444444; stroke-opacity: 0.10; fill: #444444; fill-opacity: 0.10;' clip-path='url(#cpMjI0Ljc4fDMzNS4wOXwxMTMuNTd8MjEuOTk=)' />
<circle cx='327.15' cy='38.61' r='2.13' style='stroke-width: 0.00; stroke: #444444; stroke-opacity: 0.10; fill: #444444; fill-opacity: 0.10;' clip-path='url(#cpMjI0Ljc4fDMzNS4wOXwxMTMuNTd8MjEuOTk=)' />
<circle cx='320.10' cy='38.13' r='2.13' style='stroke-width: 0.00; stroke: #444444; stroke-opacity: 0.10; fill: #444444; fill-opacity: 0.10;' clip-path='url(#cpMjI0Ljc4fDMzNS4wOXwxMTMuNTd8MjEuOTk=)' />
<circle cx='328.97' cy='30.70' r='2.13' style='stroke-width: 0.00; stroke: #444444; stroke-opacity: 0.10; fill: #444444; fill-opacity: 0.10;' clip-path='url(#cpMjI0Ljc4fDMzNS4wOXwxMTMuNTd8MjEuOTk=)' />
<polygon points='265.43,103.69 279.29,107.23 293.15,103.69 279.29,100.15 265.43,103.69 ' style='stroke-width: 1.07; stroke: #535757; fill: #535757;' clip-path='url(#cpMjI0Ljc4fDMzNS4wOXwxMTMuNTd8MjEuOTk=)' />
<polygon points='236.16,80.09 260.69,83.63 285.22,80.09 260.69,76.55 236.16,80.09 ' style='stroke-width: 1.07; stroke: #3C706E; fill: #3C706E;' clip-path='url(#cpMjI0Ljc4fDMzNS4wOXwxMTMuNTd8MjEuOTk=)' />
<polygon points='229.79,56.49 252.67,60.03 275.54,56.49 252.67,52.95 229.79,56.49 ' style='stroke-width: 1.07; stroke: #337B78; fill: #337B78;' clip-path='url(#cpMjI0Ljc4fDMzNS4wOXwxMTMuNTd8MjEuOTk=)' />
<polygon points='291.49,32.89 309.68,36.43 327.87,32.89 309.68,29.35 291.49,32.89 ' style='stroke-width: 1.07; stroke: #4A1E54; fill: #4A1E54;' clip-path='url(#cpMjI0Ljc4fDMzNS4wOXwxMTMuNTd8MjEuOTk=)' />
<rect x='224.78' y='21.99' width='110.31' height='91.58' style='stroke-width: 0.78; stroke: #333333;' clip-path='url(#cpMjI0Ljc4fDMzNS4wOXwxMTMuNTd8MjEuOTk=)' />
<defs>
  <clipPath id='cpMC4wMHw1MTAuMjR8MTM2LjA2fDAuMDA='>
    <rect x='0.00' y='0.00' width='510.24' height='136.06' />
  </clipPath>
</defs>
<g clip-path='url(#cpMC4wMHw1MTAuMjR8MTM2LjA2fDAuMDA=)'><text x='183.84' y='105.98' style='font-size: 6.40px; fill: #4D4D4D; font-family: Arial;' textLength='37.35px' lengthAdjust='spacingAndGlyphs'>very sociable</text></g>
<g clip-path='url(#cpMC4wMHw1MTAuMjR8MTM2LjA2fDAuMDA=)'><text x='188.12' y='82.38' style='font-size: 6.40px; fill: #4D4D4D; font-family: Arial;' textLength='33.08px' lengthAdjust='spacingAndGlyphs'>very secure</text></g>
<g clip-path='url(#cpMC4wMHw1MTAuMjR8MTM2LjA2fDAuMDA=)'><text x='173.89' y='58.78' style='font-size: 6.40px; fill: #4D4D4D; font-family: Arial;' textLength='47.31px' lengthAdjust='spacingAndGlyphs'>very comfortable</text></g>
<g clip-path='url(#cpMC4wMHw1MTAuMjR8MTM2LjA2fDAuMDA=)'><text x='183.84' y='35.18' style='font-size: 6.40px; fill: #4D4D4D; font-family: Arial;' textLength='37.35px' lengthAdjust='spacingAndGlyphs'>very helpless</text></g>
<polyline points='222.79,103.69 224.78,103.69 ' style='stroke-width: 0.78; stroke: #333333; stroke-linecap: butt;' clip-path='url(#cpMC4wMHw1MTAuMjR8MTM2LjA2fDAuMDA=)' />
<polyline points='222.79,80.09 224.78,80.09 ' style='stroke-width: 0.78; stroke: #333333; stroke-linecap: butt;' clip-path='url(#cpMC4wMHw1MTAuMjR8MTM2LjA2fDAuMDA=)' />
<polyline points='222.79,56.49 224.78,56.49 ' style='stroke-width: 0.78; stroke: #333333; stroke-linecap: butt;' clip-path='url(#cpMC4wMHw1MTAuMjR8MTM2LjA2fDAuMDA=)' />
<polyline points='222.79,32.89 224.78,32.89 ' style='stroke-width: 0.78; stroke: #333333; stroke-linecap: butt;' clip-path='url(#cpMC4wMHw1MTAuMjR8MTM2LjA2fDAuMDA=)' />
<polyline points='335.09,103.67 337.08,103.67 ' style='stroke-width: 0.78; stroke: #333333; stroke-linecap: butt;' clip-path='url(#cpMC4wMHw1MTAuMjR8MTM2LjA2fDAuMDA=)' />
<polyline points='335.09,80.11 337.08,80.11 ' style='stroke-width: 0.78; stroke: #333333; stroke-linecap: butt;' clip-path='url(#cpMC4wMHw1MTAuMjR8MTM2LjA2fDAuMDA=)' />
<polyline points='335.09,56.45 337.08,56.45 ' style='stroke-width: 0.78; stroke: #333333; stroke-linecap: butt;' clip-path='url(#cpMC4wMHw1MTAuMjR8MTM2LjA2fDAuMDA=)' />
<polyline points='335.09,32.89 337.08,32.89 ' style='stroke-width: 0.78; stroke: #333333; stroke-linecap: butt;' clip-path='url(#cpMC4wMHw1MTAuMjR8MTM2LjA2fDAuMDA=)' />
<g clip-path='url(#cpMC4wMHw1MTAuMjR8MTM2LjA2fDAuMDA=)'><text x='338.68' y='105.96' style='font-size: 6.40px; fill: #4D4D4D; font-family: Arial;' textLength='30.59px' lengthAdjust='spacingAndGlyphs'>very lonely</text></g>
<g clip-path='url(#cpMC4wMHw1MTAuMjR8MTM2LjA2fDAuMDA=)'><text x='338.68' y='82.40' style='font-size: 6.40px; fill: #4D4D4D; font-family: Arial;' textLength='44.47px' lengthAdjust='spacingAndGlyphs'>very threatened</text></g>
<g clip-path='url(#cpMC4wMHw1MTAuMjR8MTM2LjA2fDAuMDA=)'><text x='338.68' y='58.74' style='font-size: 6.40px; fill: #4D4D4D; font-family: Arial;' textLength='54.43px' lengthAdjust='spacingAndGlyphs'>very uncomfortable</text></g>
<g clip-path='url(#cpMC4wMHw1MTAuMjR8MTM2LjA2fDAuMDA=)'><text x='338.68' y='35.18' style='font-size: 6.40px; fill: #4D4D4D; font-family: Arial;' textLength='57.27px' lengthAdjust='spacingAndGlyphs'>very much in control</text></g>
<polyline points='237.35,115.56 237.35,113.57 ' style='stroke-width: 0.78; stroke: #333333; stroke-linecap: butt;' clip-path='url(#cpMC4wMHw1MTAuMjR8MTM2LjA2fDAuMDA=)' />
<polyline points='251.94,115.56 251.94,113.57 ' style='stroke-width: 0.78; stroke: #333333; stroke-linecap: butt;' clip-path='url(#cpMC4wMHw1MTAuMjR8MTM2LjA2fDAuMDA=)' />
<polyline points='266.53,115.56 266.53,113.57 ' style='stroke-width: 0.78; stroke: #333333; stroke-linecap: butt;' clip-path='url(#cpMC4wMHw1MTAuMjR8MTM2LjA2fDAuMDA=)' />
<polyline points='281.11,115.56 281.11,113.57 ' style='stroke-width: 0.78; stroke: #333333; stroke-linecap: butt;' clip-path='url(#cpMC4wMHw1MTAuMjR8MTM2LjA2fDAuMDA=)' />
<polyline points='295.70,115.56 295.70,113.57 ' style='stroke-width: 0.78; stroke: #333333; stroke-linecap: butt;' clip-path='url(#cpMC4wMHw1MTAuMjR8MTM2LjA2fDAuMDA=)' />
<polyline points='310.29,115.56 310.29,113.57 ' style='stroke-width: 0.78; stroke: #333333; stroke-linecap: butt;' clip-path='url(#cpMC4wMHw1MTAuMjR8MTM2LjA2fDAuMDA=)' />
<polyline points='324.88,115.56 324.88,113.57 ' style='stroke-width: 0.78; stroke: #333333; stroke-linecap: butt;' clip-path='url(#cpMC4wMHw1MTAuMjR8MTM2LjA2fDAuMDA=)' />
<g clip-path='url(#cpMC4wMHw1MTAuMjR8MTM2LjA2fDAuMDA=)'><text x='234.51' y='121.73' style='font-size: 6.40px; fill: #4D4D4D; font-family: Arial;' textLength='5.69px' lengthAdjust='spacingAndGlyphs'>-3</text></g>
<g clip-path='url(#cpMC4wMHw1MTAuMjR8MTM2LjA2fDAuMDA=)'><text x='249.09' y='121.73' style='font-size: 6.40px; fill: #4D4D4D; font-family: Arial;' textLength='5.69px' lengthAdjust='spacingAndGlyphs'>-2</text></g>
<g clip-path='url(#cpMC4wMHw1MTAuMjR8MTM2LjA2fDAuMDA=)'><text x='263.68' y='121.73' style='font-size: 6.40px; fill: #4D4D4D; font-family: Arial;' textLength='5.69px' lengthAdjust='spacingAndGlyphs'>-1</text></g>
<g clip-path='url(#cpMC4wMHw1MTAuMjR8MTM2LjA2fDAuMDA=)'><text x='279.33' y='121.73' style='font-size: 6.40px; fill: #4D4D4D; font-family: Arial;' textLength='3.56px' lengthAdjust='spacingAndGlyphs'>0</text></g>
<g clip-path='url(#cpMC4wMHw1MTAuMjR8MTM2LjA2fDAuMDA=)'><text x='293.92' y='121.73' style='font-size: 6.40px; fill: #4D4D4D; font-family: Arial;' textLength='3.56px' lengthAdjust='spacingAndGlyphs'>1</text></g>
<g clip-path='url(#cpMC4wMHw1MTAuMjR8MTM2LjA2fDAuMDA=)'><text x='308.51' y='121.73' style='font-size: 6.40px; fill: #4D4D4D; font-family: Arial;' textLength='3.56px' lengthAdjust='spacingAndGlyphs'>2</text></g>
<g clip-path='url(#cpMC4wMHw1MTAuMjR8MTM2LjA2fDAuMDA=)'><text x='323.10' y='121.73' style='font-size: 6.40px; fill: #4D4D4D; font-family: Arial;' textLength='3.56px' lengthAdjust='spacingAndGlyphs'>3</text></g>
<g clip-path='url(#cpMC4wMHw1MTAuMjR8MTM2LjA2fDAuMDA=)'><text x='237.91' y='130.58' style='font-size: 8.00px; font-family: Arial;' textLength='84.05px' lengthAdjust='spacingAndGlyphs'>Scores and 99.99% CIs</text></g>
<defs>
  <clipPath id='cpMC4wMHwxNjkuOTB8MTEzLjU3fDIxLjk5'>
    <rect x='0.00' y='21.99' width='169.90' height='91.58' />
  </clipPath>
</defs>
<defs>
  <clipPath id='cpMC4wMHw1MTAuMjR8MTM2LjA2fDAuMDA='>
    <rect x='0.00' y='0.00' width='510.24' height='136.06' />
  </clipPath>
</defs>
<g clip-path='url(#cpMC4wMHw1MTAuMjR8MTM2LjA2fDAuMDA=)'><text x='3.59' y='104.04' style='font-size: 8.00px; font-family: Arial;' textLength='166.32px' lengthAdjust='spacingAndGlyphs'>Keeping at least {distRec} distance from others</text></g>
<g clip-path='url(#cpMC4wMHw1MTAuMjR8MTM2LjA2fDAuMDA=)'><text x='3.59' y='112.68' style='font-size: 8.00px; font-family: Arial;' textLength='62.24px' lengthAdjust='spacingAndGlyphs'>makes me feel …</text></g>
<g clip-path='url(#cpMC4wMHw1MTAuMjR8MTM2LjA2fDAuMDA=)'><text x='3.59' y='79.75' style='font-size: 8.00px; font-family: Arial;' textLength='166.32px' lengthAdjust='spacingAndGlyphs'>Keeping at least {distRec} distance from others</text></g>
<g clip-path='url(#cpMC4wMHw1MTAuMjR8MTM2LjA2fDAuMDA=)'><text x='3.59' y='88.39' style='font-size: 8.00px; font-family: Arial;' textLength='62.24px' lengthAdjust='spacingAndGlyphs'>makes me feel …</text></g>
<g clip-path='url(#cpMC4wMHw1MTAuMjR8MTM2LjA2fDAuMDA=)'><text x='3.59' y='55.46' style='font-size: 8.00px; font-family: Arial;' textLength='166.32px' lengthAdjust='spacingAndGlyphs'>Keeping at least {distRec} distance from others</text></g>
<g clip-path='url(#cpMC4wMHw1MTAuMjR8MTM2LjA2fDAuMDA=)'><text x='3.59' y='64.10' style='font-size: 8.00px; font-family: Arial;' textLength='62.24px' lengthAdjust='spacingAndGlyphs'>makes me feel …</text></g>
<g clip-path='url(#cpMC4wMHw1MTAuMjR8MTM2LjA2fDAuMDA=)'><text x='3.59' y='31.25' style='font-size: 8.00px; font-family: Arial;' textLength='166.32px' lengthAdjust='spacingAndGlyphs'>Keeping at least {distRec} distance from others</text></g>
<g clip-path='url(#cpMC4wMHw1MTAuMjR8MTM2LjA2fDAuMDA=)'><text x='3.59' y='39.89' style='font-size: 8.00px; font-family: Arial;' textLength='62.24px' lengthAdjust='spacingAndGlyphs'>makes me feel …</text></g>
<defs>
  <clipPath id='cpMC4wMHwxNjkuOTB8MTEzLjU3fDIxLjk5'>
    <rect x='0.00' y='21.99' width='169.90' height='91.58' />
  </clipPath>
</defs>
<defs>
  <clipPath id='cpMC4wMHw1MTAuMjR8MTM2LjA2fDAuMDA='>
    <rect x='0.00' y='0.00' width='510.24' height='136.06' />
  </clipPath>
</defs>
<defs>
  <clipPath id='cpMzk5LjkzfDUxMC4yNHwxMzYuMDZ8MTguMDA='>
    <rect x='399.93' y='18.00' width='110.31' height='118.06' />
  </clipPath>
</defs>
<rect x='399.93' y='18.00' width='110.31' height='118.06' style='stroke-width: 0.78; stroke: #FFFFFF; fill: #FFFFFF;' clip-path='url(#cpMzk5LjkzfDUxMC4yNHwxMzYuMDZ8MTguMDA=)' />
<defs>
  <clipPath id='cpNDAzLjkxfDUwNi4yNXwxMTMuNTd8MjEuOTk='>
    <rect x='403.91' y='21.99' width='102.34' height='91.58' />
  </clipPath>
</defs>
<rect x='403.91' y='21.99' width='102.34' height='91.58' style='stroke-width: 0.78; stroke: none; fill: #FFFFFF;' clip-path='url(#cpNDAzLjkxfDUwNi4yNXwxMTMuNTd8MjEuOTk=)' />
<polyline points='420.19,113.57 420.19,21.99 ' style='stroke-width: 0.39; stroke: #EBEBEB; stroke-linecap: butt;' clip-path='url(#cpNDAzLjkxfDUwNi4yNXwxMTMuNTd8MjEuOTk=)' />
<polyline points='443.45,113.57 443.45,21.99 ' style='stroke-width: 0.39; stroke: #EBEBEB; stroke-linecap: butt;' clip-path='url(#cpNDAzLjkxfDUwNi4yNXwxMTMuNTd8MjEuOTk=)' />
<polyline points='466.71,113.57 466.71,21.99 ' style='stroke-width: 0.39; stroke: #EBEBEB; stroke-linecap: butt;' clip-path='url(#cpNDAzLjkxfDUwNi4yNXwxMTMuNTd8MjEuOTk=)' />
<polyline points='489.97,113.57 489.97,21.99 ' style='stroke-width: 0.39; stroke: #EBEBEB; stroke-linecap: butt;' clip-path='url(#cpNDAzLjkxfDUwNi4yNXwxMTMuNTd8MjEuOTk=)' />
<polyline points='408.56,113.57 408.56,21.99 ' style='stroke-width: 0.78; stroke: #EBEBEB; stroke-linecap: butt;' clip-path='url(#cpNDAzLjkxfDUwNi4yNXwxMTMuNTd8MjEuOTk=)' />
<polyline points='431.82,113.57 431.82,21.99 ' style='stroke-width: 0.78; stroke: #EBEBEB; stroke-linecap: butt;' clip-path='url(#cpNDAzLjkxfDUwNi4yNXwxMTMuNTd8MjEuOTk=)' />
<polyline points='455.08,113.57 455.08,21.99 ' style='stroke-width: 0.78; stroke: #EBEBEB; stroke-linecap: butt;' clip-path='url(#cpNDAzLjkxfDUwNi4yNXwxMTMuNTd8MjEuOTk=)' />
<polyline points='478.34,113.57 478.34,21.99 ' style='stroke-width: 0.78; stroke: #EBEBEB; stroke-linecap: butt;' clip-path='url(#cpNDAzLjkxfDUwNi4yNXwxMTMuNTd8MjEuOTk=)' />
<polyline points='501.60,113.57 501.60,21.99 ' style='stroke-width: 0.78; stroke: #EBEBEB; stroke-linecap: butt;' clip-path='url(#cpNDAzLjkxfDUwNi4yNXwxMTMuNTd8MjEuOTk=)' />
<line x1='431.82' y1='113.57' x2='431.82' y2='21.99' style='stroke-width: 1.07; stroke: #BEBEBE; stroke-linecap: butt;' clip-path='url(#cpNDAzLjkxfDUwNi4yNXwxMTMuNTd8MjEuOTk=)' />
<line x1='455.08' y1='113.57' x2='455.08' y2='21.99' style='stroke-width: 1.07; stroke: #BEBEBE; stroke-linecap: butt;' clip-path='url(#cpNDAzLjkxfDUwNi4yNXwxMTMuNTd8MjEuOTk=)' />
<line x1='478.34' y1='113.57' x2='478.34' y2='21.99' style='stroke-width: 1.07; stroke: #BEBEBE; stroke-linecap: butt;' clip-path='url(#cpNDAzLjkxfDUwNi4yNXwxMTMuNTd8MjEuOTk=)' />
<polygon points='432.59,105.62 450.46,109.40 469.81,105.62 450.46,101.83 432.59,105.62 ' style='stroke-width: 2.13; fill: #505B5A; fill-opacity: 0.50;' clip-path='url(#cpNDAzLjkxfDUwNi4yNXwxMTMuNTd8MjEuOTk=)' />
<polygon points='431.20,80.39 450.81,84.17 472.09,80.39 450.81,76.61 431.20,80.39 ' style='stroke-width: 2.13; fill: #505A5A; fill-opacity: 0.50;' clip-path='url(#cpNDAzLjkxfDUwNi4yNXwxMTMuNTd8MjEuOTk=)' />
<polygon points='433.70,55.16 454.08,58.95 474.85,55.16 454.08,51.38 433.70,55.16 ' style='stroke-width: 2.13; fill: #545656; fill-opacity: 0.50;' clip-path='url(#cpNDAzLjkxfDUwNi4yNXwxMTMuNTd8MjEuOTk=)' />
<polygon points='438.61,29.93 457.76,33.72 476.04,29.93 457.76,26.15 438.61,29.93 ' style='stroke-width: 2.13; fill: #545055; fill-opacity: 0.50;' clip-path='url(#cpNDAzLjkxfDUwNi4yNXwxMTMuNTd8MjEuOTk=)' />
<rect x='403.91' y='21.99' width='102.34' height='91.58' style='stroke-width: 0.78; stroke: #333333;' clip-path='url(#cpNDAzLjkxfDUwNi4yNXwxMTMuNTd8MjEuOTk=)' />
<defs>
  <clipPath id='cpMzk5LjkzfDUxMC4yNHwxMzYuMDZ8MTguMDA='>
    <rect x='399.93' y='18.00' width='110.31' height='118.06' />
  </clipPath>
</defs>
<defs>
  <clipPath id='cpMC4wMHw1MTAuMjR8MTM2LjA2fDAuMDA='>
    <rect x='0.00' y='0.00' width='510.24' height='136.06' />
  </clipPath>
</defs>
<defs>
  <clipPath id='cpMzk5LjkzfDUxMC4yNHwxMzYuMDZ8MTguMDA='>
    <rect x='399.93' y='18.00' width='110.31' height='118.06' />
  </clipPath>
</defs>
<defs>
  <clipPath id='cpMC4wMHw1MTAuMjR8MTM2LjA2fDAuMDA='>
    <rect x='0.00' y='0.00' width='510.24' height='136.06' />
  </clipPath>
</defs>
<defs>
  <clipPath id='cpMzk5LjkzfDUxMC4yNHwxMzYuMDZ8MTguMDA='>
    <rect x='399.93' y='18.00' width='110.31' height='118.06' />
  </clipPath>
</defs>
<defs>
  <clipPath id='cpMC4wMHw1MTAuMjR8MTM2LjA2fDAuMDA='>
    <rect x='0.00' y='0.00' width='510.24' height='136.06' />
  </clipPath>
</defs>
<defs>
  <clipPath id='cpMzk5LjkzfDUxMC4yNHwxMzYuMDZ8MTguMDA='>
    <rect x='399.93' y='18.00' width='110.31' height='118.06' />
  </clipPath>
</defs>
<defs>
  <clipPath id='cpMC4wMHw1MTAuMjR8MTM2LjA2fDAuMDA='>
    <rect x='0.00' y='0.00' width='510.24' height='136.06' />
  </clipPath>
</defs>
<defs>
  <clipPath id='cpMzk5LjkzfDUxMC4yNHwxMzYuMDZ8MTguMDA='>
    <rect x='399.93' y='18.00' width='110.31' height='118.06' />
  </clipPath>
</defs>
<defs>
  <clipPath id='cpMC4wMHw1MTAuMjR8MTM2LjA2fDAuMDA='>
    <rect x='0.00' y='0.00' width='510.24' height='136.06' />
  </clipPath>
</defs>
<defs>
  <clipPath id='cpMzk5LjkzfDUxMC4yNHwxMzYuMDZ8MTguMDA='>
    <rect x='399.93' y='18.00' width='110.31' height='118.06' />
  </clipPath>
</defs>
<defs>
  <clipPath id='cpMC4wMHw1MTAuMjR8MTM2LjA2fDAuMDA='>
    <rect x='0.00' y='0.00' width='510.24' height='136.06' />
  </clipPath>
</defs>
<defs>
  <clipPath id='cpMzk5LjkzfDUxMC4yNHwxMzYuMDZ8MTguMDA='>
    <rect x='399.93' y='18.00' width='110.31' height='118.06' />
  </clipPath>
</defs>
<defs>
  <clipPath id='cpMC4wMHw1MTAuMjR8MTM2LjA2fDAuMDA='>
    <rect x='0.00' y='0.00' width='510.24' height='136.06' />
  </clipPath>
</defs>
<defs>
  <clipPath id='cpMzk5LjkzfDUxMC4yNHwxMzYuMDZ8MTguMDA='>
    <rect x='399.93' y='18.00' width='110.31' height='118.06' />
  </clipPath>
</defs>
<defs>
  <clipPath id='cpMC4wMHw1MTAuMjR8MTM2LjA2fDAuMDA='>
    <rect x='0.00' y='0.00' width='510.24' height='136.06' />
  </clipPath>
</defs>
<polyline points='408.56,115.56 408.56,113.57 ' style='stroke-width: 0.78; stroke: #333333; stroke-linecap: butt;' clip-path='url(#cpMC4wMHw1MTAuMjR8MTM2LjA2fDAuMDA=)' />
<polyline points='431.82,115.56 431.82,113.57 ' style='stroke-width: 0.78; stroke: #333333; stroke-linecap: butt;' clip-path='url(#cpMC4wMHw1MTAuMjR8MTM2LjA2fDAuMDA=)' />
<polyline points='455.08,115.56 455.08,113.57 ' style='stroke-width: 0.78; stroke: #333333; stroke-linecap: butt;' clip-path='url(#cpMC4wMHw1MTAuMjR8MTM2LjA2fDAuMDA=)' />
<polyline points='478.34,115.56 478.34,113.57 ' style='stroke-width: 0.78; stroke: #333333; stroke-linecap: butt;' clip-path='url(#cpMC4wMHw1MTAuMjR8MTM2LjA2fDAuMDA=)' />
<polyline points='501.60,115.56 501.60,113.57 ' style='stroke-width: 0.78; stroke: #333333; stroke-linecap: butt;' clip-path='url(#cpMC4wMHw1MTAuMjR8MTM2LjA2fDAuMDA=)' />
<g clip-path='url(#cpMC4wMHw1MTAuMjR8MTM2LjA2fDAuMDA=)'><text x='403.05' y='121.73' style='font-size: 6.40px; fill: #4D4D4D; font-family: Arial;' textLength='11.03px' lengthAdjust='spacingAndGlyphs'>-1.0</text></g>
<g clip-path='url(#cpMC4wMHw1MTAuMjR8MTM2LjA2fDAuMDA=)'><text x='426.31' y='121.73' style='font-size: 6.40px; fill: #4D4D4D; font-family: Arial;' textLength='11.03px' lengthAdjust='spacingAndGlyphs'>-0.5</text></g>
<g clip-path='url(#cpMC4wMHw1MTAuMjR8MTM2LjA2fDAuMDA=)'><text x='450.63' y='121.73' style='font-size: 6.40px; fill: #4D4D4D; font-family: Arial;' textLength='8.90px' lengthAdjust='spacingAndGlyphs'>0.0</text></g>
<g clip-path='url(#cpMC4wMHw1MTAuMjR8MTM2LjA2fDAuMDA=)'><text x='473.89' y='121.73' style='font-size: 6.40px; fill: #4D4D4D; font-family: Arial;' textLength='8.90px' lengthAdjust='spacingAndGlyphs'>0.5</text></g>
<g clip-path='url(#cpMC4wMHw1MTAuMjR8MTM2LjA2fDAuMDA=)'><text x='497.15' y='121.73' style='font-size: 6.40px; fill: #4D4D4D; font-family: Arial;' textLength='8.90px' lengthAdjust='spacingAndGlyphs'>1.0</text></g>
<defs>
  <clipPath id='cpMzk5LjkzfDUxMC4yNHwxMzYuMDZ8MTguMDA='>
    <rect x='399.93' y='18.00' width='110.31' height='118.06' />
  </clipPath>
</defs>
<defs>
  <clipPath id='cpMC4wMHw1MTAuMjR8MTM2LjA2fDAuMDA='>
    <rect x='0.00' y='0.00' width='510.24' height='136.06' />
  </clipPath>
</defs>
<defs>
  <clipPath id='cpMzk5LjkzfDUxMC4yNHwxMzYuMDZ8MTguMDA='>
    <rect x='399.93' y='18.00' width='110.31' height='118.06' />
  </clipPath>
</defs>
<defs>
  <clipPath id='cpMC4wMHw1MTAuMjR8MTM2LjA2fDAuMDA='>
    <rect x='0.00' y='0.00' width='510.24' height='136.06' />
  </clipPath>
</defs>
<g clip-path='url(#cpMC4wMHw1MTAuMjR8MTM2LjA2fDAuMDA=)'><text x='412.39' y='130.58' style='font-size: 8.00px; font-family: Arial;' textLength='85.38px' lengthAdjust='spacingAndGlyphs'>95% CIs of associations</text></g>
<defs>
  <clipPath id='cpMzk5LjkzfDUxMC4yNHwxMzYuMDZ8MTguMDA='>
    <rect x='399.93' y='18.00' width='110.31' height='118.06' />
  </clipPath>
</defs>
<defs>
  <clipPath id='cpMC4wMHw1MTAuMjR8MTM2LjA2fDAuMDA='>
    <rect x='0.00' y='0.00' width='510.24' height='136.06' />
  </clipPath>
</defs>
<defs>
  <clipPath id='cpMzk5LjkzfDUxMC4yNHwxMzYuMDZ8MTguMDA='>
    <rect x='399.93' y='18.00' width='110.31' height='118.06' />
  </clipPath>
</defs>
<defs>
  <clipPath id='cpMC4wMHw1MTAuMjR8MTM2LjA2fDAuMDA='>
    <rect x='0.00' y='0.00' width='510.24' height='136.06' />
  </clipPath>
</defs>
<defs>
  <clipPath id='cpMzk5LjkzfDUxMC4yNHwxMzYuMDZ8MTguMDA='>
    <rect x='399.93' y='18.00' width='110.31' height='118.06' />
  </clipPath>
</defs>
<defs>
  <clipPath id='cpMC4wMHw1MTAuMjR8MTM2LjA2fDAuMDA='>
    <rect x='0.00' y='0.00' width='510.24' height='136.06' />
  </clipPath>
</defs>
<defs>
  <clipPath id='cpMzk5LjkzfDUxMC4yNHwxMzYuMDZ8MTguMDA='>
    <rect x='399.93' y='18.00' width='110.31' height='118.06' />
  </clipPath>
</defs>
<defs>
  <clipPath id='cpMC4wMHw1MTAuMjR8MTM2LjA2fDAuMDA='>
    <rect x='0.00' y='0.00' width='510.24' height='136.06' />
  </clipPath>
</defs>
<defs>
  <clipPath id='cpMzk5LjkzfDUxMC4yNHwxMzYuMDZ8MTguMDA='>
    <rect x='399.93' y='18.00' width='110.31' height='118.06' />
  </clipPath>
</defs>
<defs>
  <clipPath id='cpMC4wMHw1MTAuMjR8MTM2LjA2fDAuMDA='>
    <rect x='0.00' y='0.00' width='510.24' height='136.06' />
  </clipPath>
</defs>
<defs>
  <clipPath id='cpMzk5LjkzfDUxMC4yNHwxMzYuMDZ8MTguMDA='>
    <rect x='399.93' y='18.00' width='110.31' height='118.06' />
  </clipPath>
</defs>
<defs>
  <clipPath id='cpMC4wMHw1MTAuMjR8MTM2LjA2fDAuMDA='>
    <rect x='0.00' y='0.00' width='510.24' height='136.06' />
  </clipPath>
</defs>
<defs>
  <clipPath id='cpMzk5LjkzfDUxMC4yNHwxMzYuMDZ8MTguMDA='>
    <rect x='399.93' y='18.00' width='110.31' height='118.06' />
  </clipPath>
</defs>
<defs>
  <clipPath id='cpMC4wMHw1MTAuMjR8MTM2LjA2fDAuMDA='>
    <rect x='0.00' y='0.00' width='510.24' height='136.06' />
  </clipPath>
</defs>
<g clip-path='url(#cpMC4wMHw1MTAuMjR8MTM2LjA2fDAuMDA=)'><text x='2.30' y='8.78' style='font-size: 9.60px; font-weight: bold; font-family: Arial;' textLength='147.76px' lengthAdjust='spacingAndGlyphs'>Means and associations (r) with </text></g>
<g clip-path='url(#cpMC4wMHw1MTAuMjR8MTM2LjA2fDAuMDA=)'><text x='150.07' y='8.78' style='font-size: 9.60px; font-weight: bold; font-family: Arial;' textLength='43.21px' lengthAdjust='spacingAndGlyphs'>proximity</text></g>
<g clip-path='url(#cpMC4wMHw1MTAuMjR8MTM2LjA2fDAuMDA=)'><text x='193.28' y='8.78' style='font-size: 9.60px; font-weight: bold; font-family: Arial;' textLength='2.67px' lengthAdjust='spacingAndGlyphs'> </text></g>
</svg>
