<?xml version='1.0' encoding='UTF-8' ?>
<svg xmlns='http://www.w3.org/2000/svg' xmlns:xlink='http://www.w3.org/1999/xlink' viewBox='0 0 510.24 79.37'>
<defs>
  <style type='text/css'><![CDATA[
    line, polyline, polygon, path, rect, circle {
      fill: none;
      stroke: #000000;
      stroke-linecap: round;
      stroke-linejoin: round;
      stroke-miterlimit: 10.00;
    }
  ]]></style>
</defs>
<rect width='100%' height='100%' style='stroke: none; fill: none;'/>
<defs>
  <clipPath id='cpMTc3LjAyfDM5OC41MXw3OS4zN3wxOC4wMA=='>
    <rect x='177.02' y='18.00' width='221.49' height='61.37' />
  </clipPath>
</defs>
<rect x='177.02' y='18.00' width='221.49' height='61.37' style='stroke-width: 0.78; stroke: #FFFFFF; fill: #FFFFFF;' clip-path='url(#cpMTc3LjAyfDM5OC41MXw3OS4zN3wxOC4wMA==)' />
<defs>
  <clipPath id='cpMC4wMHw1MTAuMjR8NzkuMzd8MC4wMA=='>
    <rect x='0.00' y='0.00' width='510.24' height='79.37' />
  </clipPath>
</defs>
<defs>
  <clipPath id='cpMjIxLjk0fDMzMy42N3w1Ni44N3wyMS45OQ=='>
    <rect x='221.94' y='21.99' width='111.73' height='34.89' />
  </clipPath>
</defs>
<rect x='221.94' y='21.99' width='111.73' height='34.89' style='stroke-width: 0.78; stroke: none; fill: #FFFFFF;' clip-path='url(#cpMjIxLjk0fDMzMy42N3w1Ni44N3wyMS45OQ==)' />
<polyline points='244.26,56.87 244.26,21.99 ' style='stroke-width: 0.39; stroke: #EBEBEB; stroke-linecap: butt;' clip-path='url(#cpMjIxLjk0fDMzMy42N3w1Ni44N3wyMS45OQ==)' />
<polyline points='266.63,56.87 266.63,21.99 ' style='stroke-width: 0.39; stroke: #EBEBEB; stroke-linecap: butt;' clip-path='url(#cpMjIxLjk0fDMzMy42N3w1Ni44N3wyMS45OQ==)' />
<polyline points='289.01,56.87 289.01,21.99 ' style='stroke-width: 0.39; stroke: #EBEBEB; stroke-linecap: butt;' clip-path='url(#cpMjIxLjk0fDMzMy42N3w1Ni44N3wyMS45OQ==)' />
<polyline points='311.39,56.87 311.39,21.99 ' style='stroke-width: 0.39; stroke: #EBEBEB; stroke-linecap: butt;' clip-path='url(#cpMjIxLjk0fDMzMy42N3w1Ni44N3wyMS45OQ==)' />
<polyline points='221.94,50.55 333.67,50.55 ' style='stroke-width: 0.78; stroke: #EBEBEB; stroke-linecap: butt;' clip-path='url(#cpMjIxLjk0fDMzMy42N3w1Ni44N3wyMS45OQ==)' />
<polyline points='221.94,29.75 333.67,29.75 ' style='stroke-width: 0.78; stroke: #EBEBEB; stroke-linecap: butt;' clip-path='url(#cpMjIxLjk0fDMzMy42N3w1Ni44N3wyMS45OQ==)' />
<polyline points='233.07,56.87 233.07,21.99 ' style='stroke-width: 0.78; stroke: #EBEBEB; stroke-linecap: butt;' clip-path='url(#cpMjIxLjk0fDMzMy42N3w1Ni44N3wyMS45OQ==)' />
<polyline points='255.44,56.87 255.44,21.99 ' style='stroke-width: 0.78; stroke: #EBEBEB; stroke-linecap: butt;' clip-path='url(#cpMjIxLjk0fDMzMy42N3w1Ni44N3wyMS45OQ==)' />
<polyline points='277.82,56.87 277.82,21.99 ' style='stroke-width: 0.78; stroke: #EBEBEB; stroke-linecap: butt;' clip-path='url(#cpMjIxLjk0fDMzMy42N3w1Ni44N3wyMS45OQ==)' />
<polyline points='300.20,56.87 300.20,21.99 ' style='stroke-width: 0.78; stroke: #EBEBEB; stroke-linecap: butt;' clip-path='url(#cpMjIxLjk0fDMzMy42N3w1Ni44N3wyMS45OQ==)' />
<polyline points='322.58,56.87 322.58,21.99 ' style='stroke-width: 0.78; stroke: #EBEBEB; stroke-linecap: butt;' clip-path='url(#cpMjIxLjk0fDMzMy42N3w1Ni44N3wyMS45OQ==)' />
<circle cx='247.50' cy='55.29' r='2.13' style='stroke-width: 0.00; stroke: #444444; stroke-opacity: 0.10; fill: #444444; fill-opacity: 0.10;' clip-path='url(#cpMjIxLjk0fDMzMy42N3w1Ni44N3wyMS45OQ==)' />
<circle cx='316.96' cy='45.83' r='2.13' style='stroke-width: 0.00; stroke: #444444; stroke-opacity: 0.10; fill: #444444; fill-opacity: 0.10;' clip-path='url(#cpMjIxLjk0fDMzMy42N3w1Ni44N3wyMS45OQ==)' />
<circle cx='324.98' cy='49.31' r='2.13' style='stroke-width: 0.00; stroke: #444444; stroke-opacity: 0.10; fill: #444444; fill-opacity: 0.10;' clip-path='url(#cpMjIxLjk0fDMzMy42N3w1Ni44N3wyMS45OQ==)' />
<circle cx='320.98' cy='50.22' r='2.13' style='stroke-width: 0.00; stroke: #444444; stroke-opacity: 0.10; fill: #444444; fill-opacity: 0.10;' clip-path='url(#cpMjIxLjk0fDMzMy42N3w1Ni44N3wyMS45OQ==)' />
<circle cx='290.70' cy='49.85' r='2.13' style='stroke-width: 0.00; stroke: #444444; stroke-opacity: 0.10; fill: #444444; fill-opacity: 0.10;' clip-path='url(#cpMjIxLjk0fDMzMy42N3w1Ni44N3wyMS45OQ==)' />
<circle cx='300.54' cy='51.08' r='2.13' style='stroke-width: 0.00; stroke: #444444; stroke-opacity: 0.10; fill: #444444; fill-opacity: 0.10;' clip-path='url(#cpMjIxLjk0fDMzMy42N3w1Ni44N3wyMS45OQ==)' />
<circle cx='315.78' cy='54.87' r='2.13' style='stroke-width: 0.00; stroke: #444444; stroke-opacity: 0.10; fill: #444444; fill-opacity: 0.10;' clip-path='url(#cpMjIxLjk0fDMzMy42N3w1Ni44N3wyMS45OQ==)' />
<circle cx='290.04' cy='53.00' r='2.13' style='stroke-width: 0.00; stroke: #444444; stroke-opacity: 0.10; fill: #444444; fill-opacity: 0.10;' clip-path='url(#cpMjIxLjk0fDMzMy42N3w1Ni44N3wyMS45OQ==)' />
<circle cx='227.02' cy='54.44' r='2.13' style='stroke-width: 0.00; stroke: #444444; stroke-opacity: 0.10; fill: #444444; fill-opacity: 0.10;' clip-path='url(#cpMjIxLjk0fDMzMy42N3w1Ni44N3wyMS45OQ==)' />
<circle cx='323.16' cy='48.00' r='2.13' style='stroke-width: 0.00; stroke: #444444; stroke-opacity: 0.10; fill: #444444; fill-opacity: 0.10;' clip-path='url(#cpMjIxLjk0fDMzMy42N3w1Ni44N3wyMS45OQ==)' />
<circle cx='295.35' cy='51.40' r='2.13' style='stroke-width: 0.00; stroke: #444444; stroke-opacity: 0.10; fill: #444444; fill-opacity: 0.10;' clip-path='url(#cpMjIxLjk0fDMzMy42N3w1Ni44N3wyMS45OQ==)' />
<circle cx='257.18' cy='48.62' r='2.13' style='stroke-width: 0.00; stroke: #444444; stroke-opacity: 0.10; fill: #444444; fill-opacity: 0.10;' clip-path='url(#cpMjIxLjk0fDMzMy42N3w1Ni44N3wyMS45OQ==)' />
<circle cx='305.60' cy='46.03' r='2.13' style='stroke-width: 0.00; stroke: #444444; stroke-opacity: 0.10; fill: #444444; fill-opacity: 0.10;' clip-path='url(#cpMjIxLjk0fDMzMy42N3w1Ni44N3wyMS45OQ==)' />
<circle cx='251.02' cy='53.26' r='2.13' style='stroke-width: 0.00; stroke: #444444; stroke-opacity: 0.10; fill: #444444; fill-opacity: 0.10;' clip-path='url(#cpMjIxLjk0fDMzMy42N3w1Ni44N3wyMS45OQ==)' />
<circle cx='290.43' cy='47.20' r='2.13' style='stroke-width: 0.00; stroke: #444444; stroke-opacity: 0.10; fill: #444444; fill-opacity: 0.10;' clip-path='url(#cpMjIxLjk0fDMzMy42N3w1Ni44N3wyMS45OQ==)' />
<circle cx='328.59' cy='51.71' r='2.13' style='stroke-width: 0.00; stroke: #444444; stroke-opacity: 0.10; fill: #444444; fill-opacity: 0.10;' clip-path='url(#cpMjIxLjk0fDMzMy42N3w1Ni44N3wyMS45OQ==)' />
<circle cx='254.85' cy='53.92' r='2.13' style='stroke-width: 0.00; stroke: #444444; stroke-opacity: 0.10; fill: #444444; fill-opacity: 0.10;' clip-path='url(#cpMjIxLjk0fDMzMy42N3w1Ni44N3wyMS45OQ==)' />
<circle cx='274.01' cy='54.59' r='2.13' style='stroke-width: 0.00; stroke: #444444; stroke-opacity: 0.10; fill: #444444; fill-opacity: 0.10;' clip-path='url(#cpMjIxLjk0fDMzMy42N3w1Ni44N3wyMS45OQ==)' />
<circle cx='275.59' cy='53.26' r='2.13' style='stroke-width: 0.00; stroke: #444444; stroke-opacity: 0.10; fill: #444444; fill-opacity: 0.10;' clip-path='url(#cpMjIxLjk0fDMzMy42N3w1Ni44N3wyMS45OQ==)' />
<circle cx='312.75' cy='46.09' r='2.13' style='stroke-width: 0.00; stroke: #444444; stroke-opacity: 0.10; fill: #444444; fill-opacity: 0.10;' clip-path='url(#cpMjIxLjk0fDMzMy42N3w1Ni44N3wyMS45OQ==)' />
<circle cx='324.15' cy='46.99' r='2.13' style='stroke-width: 0.00; stroke: #444444; stroke-opacity: 0.10; fill: #444444; fill-opacity: 0.10;' clip-path='url(#cpMjIxLjk0fDMzMy42N3w1Ni44N3wyMS45OQ==)' />
<circle cx='321.00' cy='49.83' r='2.13' style='stroke-width: 0.00; stroke: #444444; stroke-opacity: 0.10; fill: #444444; fill-opacity: 0.10;' clip-path='url(#cpMjIxLjk0fDMzMy42N3w1Ni44N3wyMS45OQ==)' />
<circle cx='320.26' cy='52.83' r='2.13' style='stroke-width: 0.00; stroke: #444444; stroke-opacity: 0.10; fill: #444444; fill-opacity: 0.10;' clip-path='url(#cpMjIxLjk0fDMzMy42N3w1Ni44N3wyMS45OQ==)' />
<circle cx='318.55' cy='44.45' r='2.13' style='stroke-width: 0.00; stroke: #444444; stroke-opacity: 0.10; fill: #444444; fill-opacity: 0.10;' clip-path='url(#cpMjIxLjk0fDMzMy42N3w1Ni44N3wyMS45OQ==)' />
<circle cx='257.61' cy='32.63' r='2.13' style='stroke-width: 0.00; stroke: #444444; stroke-opacity: 0.10; fill: #444444; fill-opacity: 0.10;' clip-path='url(#cpMjIxLjk0fDMzMy42N3w1Ni44N3wyMS45OQ==)' />
<circle cx='256.76' cy='29.63' r='2.13' style='stroke-width: 0.00; stroke: #444444; stroke-opacity: 0.10; fill: #444444; fill-opacity: 0.10;' clip-path='url(#cpMjIxLjk0fDMzMy42N3w1Ni44N3wyMS45OQ==)' />
<circle cx='248.84' cy='34.30' r='2.13' style='stroke-width: 0.00; stroke: #444444; stroke-opacity: 0.10; fill: #444444; fill-opacity: 0.10;' clip-path='url(#cpMjIxLjk0fDMzMy42N3w1Ni44N3wyMS45OQ==)' />
<circle cx='246.48' cy='25.16' r='2.13' style='stroke-width: 0.00; stroke: #444444; stroke-opacity: 0.10; fill: #444444; fill-opacity: 0.10;' clip-path='url(#cpMjIxLjk0fDMzMy42N3w1Ni44N3wyMS45OQ==)' />
<circle cx='258.86' cy='28.32' r='2.13' style='stroke-width: 0.00; stroke: #444444; stroke-opacity: 0.10; fill: #444444; fill-opacity: 0.10;' clip-path='url(#cpMjIxLjk0fDMzMy42N3w1Ni44N3wyMS45OQ==)' />
<circle cx='259.67' cy='29.78' r='2.13' style='stroke-width: 0.00; stroke: #444444; stroke-opacity: 0.10; fill: #444444; fill-opacity: 0.10;' clip-path='url(#cpMjIxLjk0fDMzMy42N3w1Ni44N3wyMS45OQ==)' />
<circle cx='273.66' cy='24.52' r='2.13' style='stroke-width: 0.00; stroke: #444444; stroke-opacity: 0.10; fill: #444444; fill-opacity: 0.10;' clip-path='url(#cpMjIxLjk0fDMzMy42N3w1Ni44N3wyMS45OQ==)' />
<circle cx='264.44' cy='28.40' r='2.13' style='stroke-width: 0.00; stroke: #444444; stroke-opacity: 0.10; fill: #444444; fill-opacity: 0.10;' clip-path='url(#cpMjIxLjk0fDMzMy42N3w1Ni44N3wyMS45OQ==)' />
<circle cx='263.90' cy='35.70' r='2.13' style='stroke-width: 0.00; stroke: #444444; stroke-opacity: 0.10; fill: #444444; fill-opacity: 0.10;' clip-path='url(#cpMjIxLjk0fDMzMy42N3w1Ni44N3wyMS45OQ==)' />
<circle cx='257.77' cy='23.57' r='2.13' style='stroke-width: 0.00; stroke: #444444; stroke-opacity: 0.10; fill: #444444; fill-opacity: 0.10;' clip-path='url(#cpMjIxLjk0fDMzMy42N3w1Ni44N3wyMS45OQ==)' />
<circle cx='247.91' cy='34.57' r='2.13' style='stroke-width: 0.00; stroke: #444444; stroke-opacity: 0.10; fill: #444444; fill-opacity: 0.10;' clip-path='url(#cpMjIxLjk0fDMzMy42N3w1Ni44N3wyMS45OQ==)' />
<circle cx='294.07' cy='25.31' r='2.13' style='stroke-width: 0.00; stroke: #444444; stroke-opacity: 0.10; fill: #444444; fill-opacity: 0.10;' clip-path='url(#cpMjIxLjk0fDMzMy42N3w1Ni44N3wyMS45OQ==)' />
<circle cx='253.92' cy='32.12' r='2.13' style='stroke-width: 0.00; stroke: #444444; stroke-opacity: 0.10; fill: #444444; fill-opacity: 0.10;' clip-path='url(#cpMjIxLjk0fDMzMy42N3w1Ni44N3wyMS45OQ==)' />
<circle cx='249.04' cy='33.52' r='2.13' style='stroke-width: 0.00; stroke: #444444; stroke-opacity: 0.10; fill: #444444; fill-opacity: 0.10;' clip-path='url(#cpMjIxLjk0fDMzMy42N3w1Ni44N3wyMS45OQ==)' />
<circle cx='320.97' cy='34.72' r='2.13' style='stroke-width: 0.00; stroke: #444444; stroke-opacity: 0.10; fill: #444444; fill-opacity: 0.10;' clip-path='url(#cpMjIxLjk0fDMzMy42N3w1Ni44N3wyMS45OQ==)' />
<circle cx='248.37' cy='24.89' r='2.13' style='stroke-width: 0.00; stroke: #444444; stroke-opacity: 0.10; fill: #444444; fill-opacity: 0.10;' clip-path='url(#cpMjIxLjk0fDMzMy42N3w1Ni44N3wyMS45OQ==)' />
<circle cx='254.21' cy='33.17' r='2.13' style='stroke-width: 0.00; stroke: #444444; stroke-opacity: 0.10; fill: #444444; fill-opacity: 0.10;' clip-path='url(#cpMjIxLjk0fDMzMy42N3w1Ni44N3wyMS45OQ==)' />
<circle cx='254.88' cy='29.37' r='2.13' style='stroke-width: 0.00; stroke: #444444; stroke-opacity: 0.10; fill: #444444; fill-opacity: 0.10;' clip-path='url(#cpMjIxLjk0fDMzMy42N3w1Ni44N3wyMS45OQ==)' />
<circle cx='253.37' cy='24.16' r='2.13' style='stroke-width: 0.00; stroke: #444444; stroke-opacity: 0.10; fill: #444444; fill-opacity: 0.10;' clip-path='url(#cpMjIxLjk0fDMzMy42N3w1Ni44N3wyMS45OQ==)' />
<circle cx='253.65' cy='27.45' r='2.13' style='stroke-width: 0.00; stroke: #444444; stroke-opacity: 0.10; fill: #444444; fill-opacity: 0.10;' clip-path='url(#cpMjIxLjk0fDMzMy42N3w1Ni44N3wyMS45OQ==)' />
<circle cx='248.58' cy='29.09' r='2.13' style='stroke-width: 0.00; stroke: #444444; stroke-opacity: 0.10; fill: #444444; fill-opacity: 0.10;' clip-path='url(#cpMjIxLjk0fDMzMy42N3w1Ni44N3wyMS45OQ==)' />
<circle cx='246.71' cy='30.25' r='2.13' style='stroke-width: 0.00; stroke: #444444; stroke-opacity: 0.10; fill: #444444; fill-opacity: 0.10;' clip-path='url(#cpMjIxLjk0fDMzMy42N3w1Ni44N3wyMS45OQ==)' />
<circle cx='289.62' cy='32.80' r='2.13' style='stroke-width: 0.00; stroke: #444444; stroke-opacity: 0.10; fill: #444444; fill-opacity: 0.10;' clip-path='url(#cpMjIxLjk0fDMzMy42N3w1Ni44N3wyMS45OQ==)' />
<circle cx='250.54' cy='35.92' r='2.13' style='stroke-width: 0.00; stroke: #444444; stroke-opacity: 0.10; fill: #444444; fill-opacity: 0.10;' clip-path='url(#cpMjIxLjk0fDMzMy42N3w1Ni44N3wyMS45OQ==)' />
<polygon points='270.59,50.55 297.71,53.67 324.84,50.55 297.71,47.43 270.59,50.55 ' style='stroke-width: 1.07; stroke: #4A2054; fill: #4A2054;' clip-path='url(#cpMjIxLjk0fDMzMy42N3w1Ni44N3wyMS45OQ==)' />
<polygon points='245.66,29.75 261.04,32.87 276.42,29.75 261.04,26.63 245.66,29.75 ' style='stroke-width: 1.07; stroke: #534E55; fill: #534E55;' clip-path='url(#cpMjIxLjk0fDMzMy42N3w1Ni44N3wyMS45OQ==)' />
<rect x='221.94' y='21.99' width='111.73' height='34.89' style='stroke-width: 0.78; stroke: #333333;' clip-path='url(#cpMjIxLjk0fDMzMy42N3w1Ni44N3wyMS45OQ==)' />
<defs>
  <clipPath id='cpMC4wMHw1MTAuMjR8NzkuMzd8MC4wMA=='>
    <rect x='0.00' y='0.00' width='510.24' height='79.37' />
  </clipPath>
</defs>
<g clip-path='url(#cpMC4wMHw1MTAuMjR8NzkuMzd8MC4wMA==)'><text x='181.01' y='52.84' style='font-size: 6.40px; fill: #4D4D4D; font-family: Arial;' textLength='37.35px' lengthAdjust='spacingAndGlyphs'>very helpless</text></g>
<g clip-path='url(#cpMC4wMHw1MTAuMjR8NzkuMzd8MC4wMA==)'><text x='181.01' y='32.04' style='font-size: 6.40px; fill: #4D4D4D; font-family: Arial;' textLength='37.35px' lengthAdjust='spacingAndGlyphs'>very sociable</text></g>
<polyline points='219.95,50.55 221.94,50.55 ' style='stroke-width: 0.78; stroke: #333333; stroke-linecap: butt;' clip-path='url(#cpMC4wMHw1MTAuMjR8NzkuMzd8MC4wMA==)' />
<polyline points='219.95,29.75 221.94,29.75 ' style='stroke-width: 0.78; stroke: #333333; stroke-linecap: butt;' clip-path='url(#cpMC4wMHw1MTAuMjR8NzkuMzd8MC4wMA==)' />
<polyline points='333.67,50.55 335.66,50.55 ' style='stroke-width: 0.78; stroke: #333333; stroke-linecap: butt;' clip-path='url(#cpMC4wMHw1MTAuMjR8NzkuMzd8MC4wMA==)' />
<polyline points='333.67,29.74 335.66,29.74 ' style='stroke-width: 0.78; stroke: #333333; stroke-linecap: butt;' clip-path='url(#cpMC4wMHw1MTAuMjR8NzkuMzd8MC4wMA==)' />
<g clip-path='url(#cpMC4wMHw1MTAuMjR8NzkuMzd8MC4wMA==)'><text x='337.26' y='52.84' style='font-size: 6.40px; fill: #4D4D4D; font-family: Arial;' textLength='57.27px' lengthAdjust='spacingAndGlyphs'>very much in control</text></g>
<g clip-path='url(#cpMC4wMHw1MTAuMjR8NzkuMzd8MC4wMA==)'><text x='337.26' y='32.03' style='font-size: 6.40px; fill: #4D4D4D; font-family: Arial;' textLength='30.59px' lengthAdjust='spacingAndGlyphs'>very lonely</text></g>
<polyline points='233.07,58.87 233.07,56.87 ' style='stroke-width: 0.78; stroke: #333333; stroke-linecap: butt;' clip-path='url(#cpMC4wMHw1MTAuMjR8NzkuMzd8MC4wMA==)' />
<polyline points='255.44,58.87 255.44,56.87 ' style='stroke-width: 0.78; stroke: #333333; stroke-linecap: butt;' clip-path='url(#cpMC4wMHw1MTAuMjR8NzkuMzd8MC4wMA==)' />
<polyline points='277.82,58.87 277.82,56.87 ' style='stroke-width: 0.78; stroke: #333333; stroke-linecap: butt;' clip-path='url(#cpMC4wMHw1MTAuMjR8NzkuMzd8MC4wMA==)' />
<polyline points='300.20,58.87 300.20,56.87 ' style='stroke-width: 0.78; stroke: #333333; stroke-linecap: butt;' clip-path='url(#cpMC4wMHw1MTAuMjR8NzkuMzd8MC4wMA==)' />
<polyline points='322.58,58.87 322.58,56.87 ' style='stroke-width: 0.78; stroke: #333333; stroke-linecap: butt;' clip-path='url(#cpMC4wMHw1MTAuMjR8NzkuMzd8MC4wMA==)' />
<g clip-path='url(#cpMC4wMHw1MTAuMjR8NzkuMzd8MC4wMA==)'><text x='230.22' y='65.04' style='font-size: 6.40px; fill: #4D4D4D; font-family: Arial;' textLength='5.69px' lengthAdjust='spacingAndGlyphs'>-1</text></g>
<g clip-path='url(#cpMC4wMHw1MTAuMjR8NzkuMzd8MC4wMA==)'><text x='253.66' y='65.04' style='font-size: 6.40px; fill: #4D4D4D; font-family: Arial;' textLength='3.56px' lengthAdjust='spacingAndGlyphs'>0</text></g>
<g clip-path='url(#cpMC4wMHw1MTAuMjR8NzkuMzd8MC4wMA==)'><text x='276.04' y='65.04' style='font-size: 6.40px; fill: #4D4D4D; font-family: Arial;' textLength='3.56px' lengthAdjust='spacingAndGlyphs'>1</text></g>
<g clip-path='url(#cpMC4wMHw1MTAuMjR8NzkuMzd8MC4wMA==)'><text x='298.42' y='65.04' style='font-size: 6.40px; fill: #4D4D4D; font-family: Arial;' textLength='3.56px' lengthAdjust='spacingAndGlyphs'>2</text></g>
<g clip-path='url(#cpMC4wMHw1MTAuMjR8NzkuMzd8MC4wMA==)'><text x='320.80' y='65.04' style='font-size: 6.40px; fill: #4D4D4D; font-family: Arial;' textLength='3.56px' lengthAdjust='spacingAndGlyphs'>3</text></g>
<g clip-path='url(#cpMC4wMHw1MTAuMjR8NzkuMzd8MC4wMA==)'><text x='235.78' y='73.89' style='font-size: 8.00px; font-family: Arial;' textLength='84.05px' lengthAdjust='spacingAndGlyphs'>Scores and 99.99% CIs</text></g>
<defs>
  <clipPath id='cpMC4wMHwxNzcuMDJ8NTYuODd8MjEuOTk='>
    <rect x='0.00' y='21.99' width='177.02' height='34.89' />
  </clipPath>
</defs>
<defs>
  <clipPath id='cpMC4wMHw1MTAuMjR8NzkuMzd8MC4wMA=='>
    <rect x='0.00' y='0.00' width='510.24' height='79.37' />
  </clipPath>
</defs>
<g clip-path='url(#cpMC4wMHw1MTAuMjR8NzkuMzd8MC4wMA==)'><text x='3.59' y='44.25' style='font-size: 8.00px; font-family: Arial;' textLength='172.09px' lengthAdjust='spacingAndGlyphs'>AttExExInControl * AttExEvInControl [Keeping at</text></g>
<g clip-path='url(#cpMC4wMHw1MTAuMjR8NzkuMzd8MC4wMA==)'><text x='3.59' y='52.89' style='font-size: 8.00px; font-family: Arial;' textLength='164.96px' lengthAdjust='spacingAndGlyphs'>least {distRec} distance from others makes me</text></g>
<g clip-path='url(#cpMC4wMHw1MTAuMjR8NzkuMzd8MC4wMA==)'><text x='3.59' y='61.53' style='font-size: 8.00px; font-family: Arial;' textLength='25.34px' lengthAdjust='spacingAndGlyphs'>feel …]</text></g>
<g clip-path='url(#cpMC4wMHw1MTAuMjR8NzkuMzd8MC4wMA==)'><text x='3.59' y='28.11' style='font-size: 8.00px; font-family: Arial;' textLength='173.43px' lengthAdjust='spacingAndGlyphs'>AttExExLonely * AttExEvLonely [Keeping at least</text></g>
<g clip-path='url(#cpMC4wMHw1MTAuMjR8NzkuMzd8MC4wMA==)'><text x='3.59' y='36.75' style='font-size: 8.00px; font-family: Arial;' textLength='173.41px' lengthAdjust='spacingAndGlyphs'>{distRec} distance from others makes me feel …]</text></g>
<defs>
  <clipPath id='cpMC4wMHwxNzcuMDJ8NTYuODd8MjEuOTk='>
    <rect x='0.00' y='21.99' width='177.02' height='34.89' />
  </clipPath>
</defs>
<defs>
  <clipPath id='cpMC4wMHw1MTAuMjR8NzkuMzd8MC4wMA=='>
    <rect x='0.00' y='0.00' width='510.24' height='79.37' />
  </clipPath>
</defs>
<defs>
  <clipPath id='cpMzk4LjUxfDUxMC4yNHw3OS4zN3wxOC4wMA=='>
    <rect x='398.51' y='18.00' width='111.73' height='61.37' />
  </clipPath>
</defs>
<rect x='398.51' y='18.00' width='111.73' height='61.37' style='stroke-width: 0.78; stroke: #FFFFFF; fill: #FFFFFF;' clip-path='url(#cpMzk4LjUxfDUxMC4yNHw3OS4zN3wxOC4wMA==)' />
<defs>
  <clipPath id='cpNDAyLjQ5fDUwNi4yNXw1Ni44N3wyMS45OQ=='>
    <rect x='402.49' y='21.99' width='103.76' height='34.89' />
  </clipPath>
</defs>
<rect x='402.49' y='21.99' width='103.76' height='34.89' style='stroke-width: 0.78; stroke: none; fill: #FFFFFF;' clip-path='url(#cpNDAyLjQ5fDUwNi4yNXw1Ni44N3wyMS45OQ==)' />
<polyline points='419.00,56.87 419.00,21.99 ' style='stroke-width: 0.39; stroke: #EBEBEB; stroke-linecap: butt;' clip-path='url(#cpNDAyLjQ5fDUwNi4yNXw1Ni44N3wyMS45OQ==)' />
<polyline points='442.58,56.87 442.58,21.99 ' style='stroke-width: 0.39; stroke: #EBEBEB; stroke-linecap: butt;' clip-path='url(#cpNDAyLjQ5fDUwNi4yNXw1Ni44N3wyMS45OQ==)' />
<polyline points='466.16,56.87 466.16,21.99 ' style='stroke-width: 0.39; stroke: #EBEBEB; stroke-linecap: butt;' clip-path='url(#cpNDAyLjQ5fDUwNi4yNXw1Ni44N3wyMS45OQ==)' />
<polyline points='489.74,56.87 489.74,21.99 ' style='stroke-width: 0.39; stroke: #EBEBEB; stroke-linecap: butt;' clip-path='url(#cpNDAyLjQ5fDUwNi4yNXw1Ni44N3wyMS45OQ==)' />
<polyline points='407.21,56.87 407.21,21.99 ' style='stroke-width: 0.78; stroke: #EBEBEB; stroke-linecap: butt;' clip-path='url(#cpNDAyLjQ5fDUwNi4yNXw1Ni44N3wyMS45OQ==)' />
<polyline points='430.79,56.87 430.79,21.99 ' style='stroke-width: 0.78; stroke: #EBEBEB; stroke-linecap: butt;' clip-path='url(#cpNDAyLjQ5fDUwNi4yNXw1Ni44N3wyMS45OQ==)' />
<polyline points='454.37,56.87 454.37,21.99 ' style='stroke-width: 0.78; stroke: #EBEBEB; stroke-linecap: butt;' clip-path='url(#cpNDAyLjQ5fDUwNi4yNXw1Ni44N3wyMS45OQ==)' />
<polyline points='477.95,56.87 477.95,21.99 ' style='stroke-width: 0.78; stroke: #EBEBEB; stroke-linecap: butt;' clip-path='url(#cpNDAyLjQ5fDUwNi4yNXw1Ni44N3wyMS45OQ==)' />
<polyline points='501.53,56.87 501.53,21.99 ' style='stroke-width: 0.78; stroke: #EBEBEB; stroke-linecap: butt;' clip-path='url(#cpNDAyLjQ5fDUwNi4yNXw1Ni44N3wyMS45OQ==)' />
<line x1='430.79' y1='56.87' x2='430.79' y2='21.99' style='stroke-width: 1.07; stroke: #BEBEBE; stroke-linecap: butt;' clip-path='url(#cpNDAyLjQ5fDUwNi4yNXw1Ni44N3wyMS45OQ==)' />
<line x1='454.37' y1='56.87' x2='454.37' y2='21.99' style='stroke-width: 1.07; stroke: #BEBEBE; stroke-linecap: butt;' clip-path='url(#cpNDAyLjQ5fDUwNi4yNXw1Ni44N3wyMS45OQ==)' />
<line x1='477.95' y1='56.87' x2='477.95' y2='21.99' style='stroke-width: 1.07; stroke: #BEBEBE; stroke-linecap: butt;' clip-path='url(#cpNDAyLjQ5fDUwNi4yNXw1Ni44N3wyMS45OQ==)' />
<polygon points='442.01,51.63 461.83,55.29 479.26,51.63 461.83,47.97 442.01,51.63 ' style='stroke-width: 2.13; fill: #524755; fill-opacity: 0.50;' clip-path='url(#cpNDAyLjQ5fDUwNi4yNXw1Ni44N3wyMS45OQ==)' />
<polygon points='442.02,27.23 461.84,30.89 479.27,27.23 461.84,23.57 442.02,27.23 ' style='stroke-width: 2.13; fill: #524755; fill-opacity: 0.50;' clip-path='url(#cpNDAyLjQ5fDUwNi4yNXw1Ni44N3wyMS45OQ==)' />
<rect x='402.49' y='21.99' width='103.76' height='34.89' style='stroke-width: 0.78; stroke: #333333;' clip-path='url(#cpNDAyLjQ5fDUwNi4yNXw1Ni44N3wyMS45OQ==)' />
<defs>
  <clipPath id='cpMzk4LjUxfDUxMC4yNHw3OS4zN3wxOC4wMA=='>
    <rect x='398.51' y='18.00' width='111.73' height='61.37' />
  </clipPath>
</defs>
<defs>
  <clipPath id='cpMC4wMHw1MTAuMjR8NzkuMzd8MC4wMA=='>
    <rect x='0.00' y='0.00' width='510.24' height='79.37' />
  </clipPath>
</defs>
<defs>
  <clipPath id='cpMzk4LjUxfDUxMC4yNHw3OS4zN3wxOC4wMA=='>
    <rect x='398.51' y='18.00' width='111.73' height='61.37' />
  </clipPath>
</defs>
<defs>
  <clipPath id='cpMC4wMHw1MTAuMjR8NzkuMzd8MC4wMA=='>
    <rect x='0.00' y='0.00' width='510.24' height='79.37' />
  </clipPath>
</defs>
<defs>
  <clipPath id='cpMzk4LjUxfDUxMC4yNHw3OS4zN3wxOC4wMA=='>
    <rect x='398.51' y='18.00' width='111.73' height='61.37' />
  </clipPath>
</defs>
<defs>
  <clipPath id='cpMC4wMHw1MTAuMjR8NzkuMzd8MC4wMA=='>
    <rect x='0.00' y='0.00' width='510.24' height='79.37' />
  </clipPath>
</defs>
<defs>
  <clipPath id='cpMzk4LjUxfDUxMC4yNHw3OS4zN3wxOC4wMA=='>
    <rect x='398.51' y='18.00' width='111.73' height='61.37' />
  </clipPath>
</defs>
<defs>
  <clipPath id='cpMC4wMHw1MTAuMjR8NzkuMzd8MC4wMA=='>
    <rect x='0.00' y='0.00' width='510.24' height='79.37' />
  </clipPath>
</defs>
<defs>
  <clipPath id='cpMzk4LjUxfDUxMC4yNHw3OS4zN3wxOC4wMA=='>
    <rect x='398.51' y='18.00' width='111.73' height='61.37' />
  </clipPath>
</defs>
<defs>
  <clipPath id='cpMC4wMHw1MTAuMjR8NzkuMzd8MC4wMA=='>
    <rect x='0.00' y='0.00' width='510.24' height='79.37' />
  </clipPath>
</defs>
<defs>
  <clipPath id='cpMzk4LjUxfDUxMC4yNHw3OS4zN3wxOC4wMA=='>
    <rect x='398.51' y='18.00' width='111.73' height='61.37' />
  </clipPath>
</defs>
<defs>
  <clipPath id='cpMC4wMHw1MTAuMjR8NzkuMzd8MC4wMA=='>
    <rect x='0.00' y='0.00' width='510.24' height='79.37' />
  </clipPath>
</defs>
<defs>
  <clipPath id='cpMzk4LjUxfDUxMC4yNHw3OS4zN3wxOC4wMA=='>
    <rect x='398.51' y='18.00' width='111.73' height='61.37' />
  </clipPath>
</defs>
<defs>
  <clipPath id='cpMC4wMHw1MTAuMjR8NzkuMzd8MC4wMA=='>
    <rect x='0.00' y='0.00' width='510.24' height='79.37' />
  </clipPath>
</defs>
<defs>
  <clipPath id='cpMzk4LjUxfDUxMC4yNHw3OS4zN3wxOC4wMA=='>
    <rect x='398.51' y='18.00' width='111.73' height='61.37' />
  </clipPath>
</defs>
<defs>
  <clipPath id='cpMC4wMHw1MTAuMjR8NzkuMzd8MC4wMA=='>
    <rect x='0.00' y='0.00' width='510.24' height='79.37' />
  </clipPath>
</defs>
<polyline points='407.21,58.87 407.21,56.87 ' style='stroke-width: 0.78; stroke: #333333; stroke-linecap: butt;' clip-path='url(#cpMC4wMHw1MTAuMjR8NzkuMzd8MC4wMA==)' />
<polyline points='430.79,58.87 430.79,56.87 ' style='stroke-width: 0.78; stroke: #333333; stroke-linecap: butt;' clip-path='url(#cpMC4wMHw1MTAuMjR8NzkuMzd8MC4wMA==)' />
<polyline points='454.37,58.87 454.37,56.87 ' style='stroke-width: 0.78; stroke: #333333; stroke-linecap: butt;' clip-path='url(#cpMC4wMHw1MTAuMjR8NzkuMzd8MC4wMA==)' />
<polyline points='477.95,58.87 477.95,56.87 ' style='stroke-width: 0.78; stroke: #333333; stroke-linecap: butt;' clip-path='url(#cpMC4wMHw1MTAuMjR8NzkuMzd8MC4wMA==)' />
<polyline points='501.53,58.87 501.53,56.87 ' style='stroke-width: 0.78; stroke: #333333; stroke-linecap: butt;' clip-path='url(#cpMC4wMHw1MTAuMjR8NzkuMzd8MC4wMA==)' />
<g clip-path='url(#cpMC4wMHw1MTAuMjR8NzkuMzd8MC4wMA==)'><text x='401.69' y='65.04' style='font-size: 6.40px; fill: #4D4D4D; font-family: Arial;' textLength='11.03px' lengthAdjust='spacingAndGlyphs'>-1.0</text></g>
<g clip-path='url(#cpMC4wMHw1MTAuMjR8NzkuMzd8MC4wMA==)'><text x='425.28' y='65.04' style='font-size: 6.40px; fill: #4D4D4D; font-family: Arial;' textLength='11.03px' lengthAdjust='spacingAndGlyphs'>-0.5</text></g>
<g clip-path='url(#cpMC4wMHw1MTAuMjR8NzkuMzd8MC4wMA==)'><text x='449.92' y='65.04' style='font-size: 6.40px; fill: #4D4D4D; font-family: Arial;' textLength='8.90px' lengthAdjust='spacingAndGlyphs'>0.0</text></g>
<g clip-path='url(#cpMC4wMHw1MTAuMjR8NzkuMzd8MC4wMA==)'><text x='473.50' y='65.04' style='font-size: 6.40px; fill: #4D4D4D; font-family: Arial;' textLength='8.90px' lengthAdjust='spacingAndGlyphs'>0.5</text></g>
<g clip-path='url(#cpMC4wMHw1MTAuMjR8NzkuMzd8MC4wMA==)'><text x='497.09' y='65.04' style='font-size: 6.40px; fill: #4D4D4D; font-family: Arial;' textLength='8.90px' lengthAdjust='spacingAndGlyphs'>1.0</text></g>
<defs>
  <clipPath id='cpMzk4LjUxfDUxMC4yNHw3OS4zN3wxOC4wMA=='>
    <rect x='398.51' y='18.00' width='111.73' height='61.37' />
  </clipPath>
</defs>
<defs>
  <clipPath id='cpMC4wMHw1MTAuMjR8NzkuMzd8MC4wMA=='>
    <rect x='0.00' y='0.00' width='510.24' height='79.37' />
  </clipPath>
</defs>
<defs>
  <clipPath id='cpMzk4LjUxfDUxMC4yNHw3OS4zN3wxOC4wMA=='>
    <rect x='398.51' y='18.00' width='111.73' height='61.37' />
  </clipPath>
</defs>
<defs>
  <clipPath id='cpMC4wMHw1MTAuMjR8NzkuMzd8MC4wMA=='>
    <rect x='0.00' y='0.00' width='510.24' height='79.37' />
  </clipPath>
</defs>
<g clip-path='url(#cpMC4wMHw1MTAuMjR8NzkuMzd8MC4wMA==)'><text x='411.68' y='73.89' style='font-size: 8.00px; font-family: Arial;' textLength='85.38px' lengthAdjust='spacingAndGlyphs'>95% CIs of associations</text></g>
<defs>
  <clipPath id='cpMzk4LjUxfDUxMC4yNHw3OS4zN3wxOC4wMA=='>
    <rect x='398.51' y='18.00' width='111.73' height='61.37' />
  </clipPath>
</defs>
<defs>
  <clipPath id='cpMC4wMHw1MTAuMjR8NzkuMzd8MC4wMA=='>
    <rect x='0.00' y='0.00' width='510.24' height='79.37' />
  </clipPath>
</defs>
<defs>
  <clipPath id='cpMzk4LjUxfDUxMC4yNHw3OS4zN3wxOC4wMA=='>
    <rect x='398.51' y='18.00' width='111.73' height='61.37' />
  </clipPath>
</defs>
<defs>
  <clipPath id='cpMC4wMHw1MTAuMjR8NzkuMzd8MC4wMA=='>
    <rect x='0.00' y='0.00' width='510.24' height='79.37' />
  </clipPath>
</defs>
<defs>
  <clipPath id='cpMzk4LjUxfDUxMC4yNHw3OS4zN3wxOC4wMA=='>
    <rect x='398.51' y='18.00' width='111.73' height='61.37' />
  </clipPath>
</defs>
<defs>
  <clipPath id='cpMC4wMHw1MTAuMjR8NzkuMzd8MC4wMA=='>
    <rect x='0.00' y='0.00' width='510.24' height='79.37' />
  </clipPath>
</defs>
<defs>
  <clipPath id='cpMzk4LjUxfDUxMC4yNHw3OS4zN3wxOC4wMA=='>
    <rect x='398.51' y='18.00' width='111.73' height='61.37' />
  </clipPath>
</defs>
<defs>
  <clipPath id='cpMC4wMHw1MTAuMjR8NzkuMzd8MC4wMA=='>
    <rect x='0.00' y='0.00' width='510.24' height='79.37' />
  </clipPath>
</defs>
<defs>
  <clipPath id='cpMzk4LjUxfDUxMC4yNHw3OS4zN3wxOC4wMA=='>
    <rect x='398.51' y='18.00' width='111.73' height='61.37' />
  </clipPath>
</defs>
<defs>
  <clipPath id='cpMC4wMHw1MTAuMjR8NzkuMzd8MC4wMA=='>
    <rect x='0.00' y='0.00' width='510.24' height='79.37' />
  </clipPath>
</defs>
<defs>
  <clipPath id='cpMzk4LjUxfDUxMC4yNHw3OS4zN3wxOC4wMA=='>
    <rect x='398.51' y='18.00' width='111.73' height='61.37' />
  </clipPath>
</defs>
<defs>
  <clipPath id='cpMC4wMHw1MTAuMjR8NzkuMzd8MC4wMA=='>
    <rect x='0.00' y='0.00' width='510.24' height='79.37' />
  </clipPath>
</defs>
<defs>
  <clipPath id='cpMzk4LjUxfDUxMC4yNHw3OS4zN3wxOC4wMA=='>
    <rect x='398.51' y='18.00' width='111.73' height='61.37' />
  </clipPath>
</defs>
<defs>
  <clipPath id='cpMC4wMHw1MTAuMjR8NzkuMzd8MC4wMA=='>
    <rect x='0.00' y='0.00' width='510.24' height='79.37' />
  </clipPath>
</defs>
<g clip-path='url(#cpMC4wMHw1MTAuMjR8NzkuMzd8MC4wMA==)'><text x='2.30' y='8.78' style='font-size: 9.60px; font-weight: bold; font-family: Arial;' textLength='147.76px' lengthAdjust='spacingAndGlyphs'>Means and associations (r) with </text></g>
<g clip-path='url(#cpMC4wMHw1MTAuMjR8NzkuMzd8MC4wMA==)'><text x='150.07' y='8.78' style='font-size: 9.60px; font-weight: bold; font-family: Arial;' textLength='43.21px' lengthAdjust='spacingAndGlyphs'>proximity</text></g>
<g clip-path='url(#cpMC4wMHw1MTAuMjR8NzkuMzd8MC4wMA==)'><text x='193.28' y='8.78' style='font-size: 9.60px; font-weight: bold; font-family: Arial;' textLength='2.67px' lengthAdjust='spacingAndGlyphs'> </text></g>
</svg>
