<?xml version='1.0' encoding='UTF-8' ?>
<svg xmlns='http://www.w3.org/2000/svg' xmlns:xlink='http://www.w3.org/1999/xlink' viewBox='0 0 510.24 107.72'>
<defs>
  <style type='text/css'><![CDATA[
    line, polyline, polygon, path, rect, circle {
      fill: none;
      stroke: #000000;
      stroke-linecap: round;
      stroke-linejoin: round;
      stroke-miterlimit: 10.00;
    }
  ]]></style>
</defs>
<rect width='100%' height='100%' style='stroke: none; fill: none;'/>
<defs>
  <clipPath id='cpMTgzLjY0fDQwNS45MXwxMDcuNzJ8MTguMDA='>
    <rect x='183.64' y='18.00' width='222.28' height='89.72' />
  </clipPath>
</defs>
<rect x='183.64' y='18.00' width='222.28' height='89.72' style='stroke-width: 0.78; stroke: #FFFFFF; fill: #FFFFFF;' clip-path='url(#cpMTgzLjY0fDQwNS45MXwxMDcuNzJ8MTguMDA=)' />
<defs>
  <clipPath id='cpMC4wMHw1MTAuMjR8MTA3LjcyfDAuMDA='>
    <rect x='0.00' y='0.00' width='510.24' height='107.72' />
  </clipPath>
</defs>
<defs>
  <clipPath id='cpMjQ2LjcxfDM1MS4wM3w4NS4yMnwyMS45OQ=='>
    <rect x='246.71' y='21.99' width='104.32' height='63.23' />
  </clipPath>
</defs>
<rect x='246.71' y='21.99' width='104.32' height='63.23' style='stroke-width: 0.78; stroke: none; fill: #FFFFFF;' clip-path='url(#cpMjQ2LjcxfDM1MS4wM3w4NS4yMnwyMS45OQ==)' />
<polyline points='250.04,85.22 250.04,21.99 ' style='stroke-width: 0.39; stroke: #EBEBEB; stroke-linecap: butt;' clip-path='url(#cpMjQ2LjcxfDM1MS4wM3w4NS4yMnwyMS45OQ==)' />
<polyline points='258.53,85.22 258.53,21.99 ' style='stroke-width: 0.39; stroke: #EBEBEB; stroke-linecap: butt;' clip-path='url(#cpMjQ2LjcxfDM1MS4wM3w4NS4yMnwyMS45OQ==)' />
<polyline points='267.02,85.22 267.02,21.99 ' style='stroke-width: 0.39; stroke: #EBEBEB; stroke-linecap: butt;' clip-path='url(#cpMjQ2LjcxfDM1MS4wM3w4NS4yMnwyMS45OQ==)' />
<polyline points='275.51,85.22 275.51,21.99 ' style='stroke-width: 0.39; stroke: #EBEBEB; stroke-linecap: butt;' clip-path='url(#cpMjQ2LjcxfDM1MS4wM3w4NS4yMnwyMS45OQ==)' />
<polyline points='284.00,85.22 284.00,21.99 ' style='stroke-width: 0.39; stroke: #EBEBEB; stroke-linecap: butt;' clip-path='url(#cpMjQ2LjcxfDM1MS4wM3w4NS4yMnwyMS45OQ==)' />
<polyline points='292.49,85.22 292.49,21.99 ' style='stroke-width: 0.39; stroke: #EBEBEB; stroke-linecap: butt;' clip-path='url(#cpMjQ2LjcxfDM1MS4wM3w4NS4yMnwyMS45OQ==)' />
<polyline points='300.98,85.22 300.98,21.99 ' style='stroke-width: 0.39; stroke: #EBEBEB; stroke-linecap: butt;' clip-path='url(#cpMjQ2LjcxfDM1MS4wM3w4NS4yMnwyMS45OQ==)' />
<polyline points='309.47,85.22 309.47,21.99 ' style='stroke-width: 0.39; stroke: #EBEBEB; stroke-linecap: butt;' clip-path='url(#cpMjQ2LjcxfDM1MS4wM3w4NS4yMnwyMS45OQ==)' />
<polyline points='317.96,85.22 317.96,21.99 ' style='stroke-width: 0.39; stroke: #EBEBEB; stroke-linecap: butt;' clip-path='url(#cpMjQ2LjcxfDM1MS4wM3w4NS4yMnwyMS45OQ==)' />
<polyline points='326.45,85.22 326.45,21.99 ' style='stroke-width: 0.39; stroke: #EBEBEB; stroke-linecap: butt;' clip-path='url(#cpMjQ2LjcxfDM1MS4wM3w4NS4yMnwyMS45OQ==)' />
<polyline points='334.94,85.22 334.94,21.99 ' style='stroke-width: 0.39; stroke: #EBEBEB; stroke-linecap: butt;' clip-path='url(#cpMjQ2LjcxfDM1MS4wM3w4NS4yMnwyMS45OQ==)' />
<polyline points='343.43,85.22 343.43,21.99 ' style='stroke-width: 0.39; stroke: #EBEBEB; stroke-linecap: butt;' clip-path='url(#cpMjQ2LjcxfDM1MS4wM3w4NS4yMnwyMS45OQ==)' />
<polyline points='347.67,85.22 347.67,21.99 ' style='stroke-width: 0.39; stroke: #EBEBEB; stroke-linecap: butt;' clip-path='url(#cpMjQ2LjcxfDM1MS4wM3w4NS4yMnwyMS45OQ==)' />
<polyline points='246.71,75.92 351.03,75.92 ' style='stroke-width: 0.78; stroke: #EBEBEB; stroke-linecap: butt;' clip-path='url(#cpMjQ2LjcxfDM1MS4wM3w4NS4yMnwyMS45OQ==)' />
<polyline points='246.71,53.62 351.03,53.62 ' style='stroke-width: 0.78; stroke: #EBEBEB; stroke-linecap: butt;' clip-path='url(#cpMjQ2LjcxfDM1MS4wM3w4NS4yMnwyMS45OQ==)' />
<polyline points='246.71,31.33 351.03,31.33 ' style='stroke-width: 0.78; stroke: #EBEBEB; stroke-linecap: butt;' clip-path='url(#cpMjQ2LjcxfDM1MS4wM3w4NS4yMnwyMS45OQ==)' />
<polyline points='254.29,85.22 254.29,21.99 ' style='stroke-width: 0.78; stroke: #EBEBEB; stroke-linecap: butt;' clip-path='url(#cpMjQ2LjcxfDM1MS4wM3w4NS4yMnwyMS45OQ==)' />
<polyline points='262.78,85.22 262.78,21.99 ' style='stroke-width: 0.78; stroke: #EBEBEB; stroke-linecap: butt;' clip-path='url(#cpMjQ2LjcxfDM1MS4wM3w4NS4yMnwyMS45OQ==)' />
<polyline points='271.27,85.22 271.27,21.99 ' style='stroke-width: 0.78; stroke: #EBEBEB; stroke-linecap: butt;' clip-path='url(#cpMjQ2LjcxfDM1MS4wM3w4NS4yMnwyMS45OQ==)' />
<polyline points='279.76,85.22 279.76,21.99 ' style='stroke-width: 0.78; stroke: #EBEBEB; stroke-linecap: butt;' clip-path='url(#cpMjQ2LjcxfDM1MS4wM3w4NS4yMnwyMS45OQ==)' />
<polyline points='288.25,85.22 288.25,21.99 ' style='stroke-width: 0.78; stroke: #EBEBEB; stroke-linecap: butt;' clip-path='url(#cpMjQ2LjcxfDM1MS4wM3w4NS4yMnwyMS45OQ==)' />
<polyline points='296.74,85.22 296.74,21.99 ' style='stroke-width: 0.78; stroke: #EBEBEB; stroke-linecap: butt;' clip-path='url(#cpMjQ2LjcxfDM1MS4wM3w4NS4yMnwyMS45OQ==)' />
<polyline points='305.23,85.22 305.23,21.99 ' style='stroke-width: 0.78; stroke: #EBEBEB; stroke-linecap: butt;' clip-path='url(#cpMjQ2LjcxfDM1MS4wM3w4NS4yMnwyMS45OQ==)' />
<polyline points='313.71,85.22 313.71,21.99 ' style='stroke-width: 0.78; stroke: #EBEBEB; stroke-linecap: butt;' clip-path='url(#cpMjQ2LjcxfDM1MS4wM3w4NS4yMnwyMS45OQ==)' />
<polyline points='322.20,85.22 322.20,21.99 ' style='stroke-width: 0.78; stroke: #EBEBEB; stroke-linecap: butt;' clip-path='url(#cpMjQ2LjcxfDM1MS4wM3w4NS4yMnwyMS45OQ==)' />
<polyline points='330.69,85.22 330.69,21.99 ' style='stroke-width: 0.78; stroke: #EBEBEB; stroke-linecap: butt;' clip-path='url(#cpMjQ2LjcxfDM1MS4wM3w4NS4yMnwyMS45OQ==)' />
<polyline points='339.18,85.22 339.18,21.99 ' style='stroke-width: 0.78; stroke: #EBEBEB; stroke-linecap: butt;' clip-path='url(#cpMjQ2LjcxfDM1MS4wM3w4NS4yMnwyMS45OQ==)' />
<circle cx='290.83' cy='81.39' r='2.13' style='stroke-width: 0.00; stroke: #444444; stroke-opacity: 0.10; fill: #444444; fill-opacity: 0.10;' clip-path='url(#cpMjQ2LjcxfDM1MS4wM3w4NS4yMnwyMS45OQ==)' />
<circle cx='318.36' cy='69.37' r='2.13' style='stroke-width: 0.00; stroke: #444444; stroke-opacity: 0.10; fill: #444444; fill-opacity: 0.10;' clip-path='url(#cpMjQ2LjcxfDM1MS4wM3w4NS4yMnwyMS45OQ==)' />
<circle cx='338.82' cy='74.44' r='2.13' style='stroke-width: 0.00; stroke: #444444; stroke-opacity: 0.10; fill: #444444; fill-opacity: 0.10;' clip-path='url(#cpMjQ2LjcxfDM1MS4wM3w4NS4yMnwyMS45OQ==)' />
<circle cx='319.92' cy='71.17' r='2.13' style='stroke-width: 0.00; stroke: #444444; stroke-opacity: 0.10; fill: #444444; fill-opacity: 0.10;' clip-path='url(#cpMjQ2LjcxfDM1MS4wM3w4NS4yMnwyMS45OQ==)' />
<circle cx='306.18' cy='81.96' r='2.13' style='stroke-width: 0.00; stroke: #444444; stroke-opacity: 0.10; fill: #444444; fill-opacity: 0.10;' clip-path='url(#cpMjQ2LjcxfDM1MS4wM3w4NS4yMnwyMS45OQ==)' />
<circle cx='300.51' cy='72.48' r='2.13' style='stroke-width: 0.00; stroke: #444444; stroke-opacity: 0.10; fill: #444444; fill-opacity: 0.10;' clip-path='url(#cpMjQ2LjcxfDM1MS4wM3w4NS4yMnwyMS45OQ==)' />
<circle cx='336.10' cy='76.64' r='2.13' style='stroke-width: 0.00; stroke: #444444; stroke-opacity: 0.10; fill: #444444; fill-opacity: 0.10;' clip-path='url(#cpMjQ2LjcxfDM1MS4wM3w4NS4yMnwyMS45OQ==)' />
<circle cx='335.89' cy='79.10' r='2.13' style='stroke-width: 0.00; stroke: #444444; stroke-opacity: 0.10; fill: #444444; fill-opacity: 0.10;' clip-path='url(#cpMjQ2LjcxfDM1MS4wM3w4NS4yMnwyMS45OQ==)' />
<circle cx='339.81' cy='70.48' r='2.13' style='stroke-width: 0.00; stroke: #444444; stroke-opacity: 0.10; fill: #444444; fill-opacity: 0.10;' clip-path='url(#cpMjQ2LjcxfDM1MS4wM3w4NS4yMnwyMS45OQ==)' />
<circle cx='307.32' cy='70.82' r='2.13' style='stroke-width: 0.00; stroke: #444444; stroke-opacity: 0.10; fill: #444444; fill-opacity: 0.10;' clip-path='url(#cpMjQ2LjcxfDM1MS4wM3w4NS4yMnwyMS45OQ==)' />
<circle cx='341.61' cy='74.98' r='2.13' style='stroke-width: 0.00; stroke: #444444; stroke-opacity: 0.10; fill: #444444; fill-opacity: 0.10;' clip-path='url(#cpMjQ2LjcxfDM1MS4wM3w4NS4yMnwyMS45OQ==)' />
<circle cx='342.48' cy='73.96' r='2.13' style='stroke-width: 0.00; stroke: #444444; stroke-opacity: 0.10; fill: #444444; fill-opacity: 0.10;' clip-path='url(#cpMjQ2LjcxfDM1MS4wM3w4NS4yMnwyMS45OQ==)' />
<circle cx='342.72' cy='75.70' r='2.13' style='stroke-width: 0.00; stroke: #444444; stroke-opacity: 0.10; fill: #444444; fill-opacity: 0.10;' clip-path='url(#cpMjQ2LjcxfDM1MS4wM3w4NS4yMnwyMS45OQ==)' />
<circle cx='315.06' cy='82.29' r='2.13' style='stroke-width: 0.00; stroke: #444444; stroke-opacity: 0.10; fill: #444444; fill-opacity: 0.10;' clip-path='url(#cpMjQ2LjcxfDM1MS4wM3w4NS4yMnwyMS45OQ==)' />
<circle cx='342.31' cy='71.20' r='2.13' style='stroke-width: 0.00; stroke: #444444; stroke-opacity: 0.10; fill: #444444; fill-opacity: 0.10;' clip-path='url(#cpMjQ2LjcxfDM1MS4wM3w4NS4yMnwyMS45OQ==)' />
<circle cx='321.86' cy='71.61' r='2.13' style='stroke-width: 0.00; stroke: #444444; stroke-opacity: 0.10; fill: #444444; fill-opacity: 0.10;' clip-path='url(#cpMjQ2LjcxfDM1MS4wM3w4NS4yMnwyMS45OQ==)' />
<circle cx='339.26' cy='82.35' r='2.13' style='stroke-width: 0.00; stroke: #444444; stroke-opacity: 0.10; fill: #444444; fill-opacity: 0.10;' clip-path='url(#cpMjQ2LjcxfDM1MS4wM3w4NS4yMnwyMS45OQ==)' />
<circle cx='251.45' cy='75.87' r='2.13' style='stroke-width: 0.00; stroke: #444444; stroke-opacity: 0.10; fill: #444444; fill-opacity: 0.10;' clip-path='url(#cpMjQ2LjcxfDM1MS4wM3w4NS4yMnwyMS45OQ==)' />
<circle cx='341.11' cy='75.32' r='2.13' style='stroke-width: 0.00; stroke: #444444; stroke-opacity: 0.10; fill: #444444; fill-opacity: 0.10;' clip-path='url(#cpMjQ2LjcxfDM1MS4wM3w4NS4yMnwyMS45OQ==)' />
<circle cx='337.44' cy='75.46' r='2.13' style='stroke-width: 0.00; stroke: #444444; stroke-opacity: 0.10; fill: #444444; fill-opacity: 0.10;' clip-path='url(#cpMjQ2LjcxfDM1MS4wM3w4NS4yMnwyMS45OQ==)' />
<circle cx='311.34' cy='77.10' r='2.13' style='stroke-width: 0.00; stroke: #444444; stroke-opacity: 0.10; fill: #444444; fill-opacity: 0.10;' clip-path='url(#cpMjQ2LjcxfDM1MS4wM3w4NS4yMnwyMS45OQ==)' />
<circle cx='337.88' cy='50.45' r='2.13' style='stroke-width: 0.00; stroke: #444444; stroke-opacity: 0.10; fill: #444444; fill-opacity: 0.10;' clip-path='url(#cpMjQ2LjcxfDM1MS4wM3w4NS4yMnwyMS45OQ==)' />
<circle cx='323.05' cy='54.38' r='2.13' style='stroke-width: 0.00; stroke: #444444; stroke-opacity: 0.10; fill: #444444; fill-opacity: 0.10;' clip-path='url(#cpMjQ2LjcxfDM1MS4wM3w4NS4yMnwyMS45OQ==)' />
<circle cx='342.58' cy='57.20' r='2.13' style='stroke-width: 0.00; stroke: #444444; stroke-opacity: 0.10; fill: #444444; fill-opacity: 0.10;' clip-path='url(#cpMjQ2LjcxfDM1MS4wM3w4NS4yMnwyMS45OQ==)' />
<circle cx='338.93' cy='47.26' r='2.13' style='stroke-width: 0.00; stroke: #444444; stroke-opacity: 0.10; fill: #444444; fill-opacity: 0.10;' clip-path='url(#cpMjQ2LjcxfDM1MS4wM3w4NS4yMnwyMS45OQ==)' />
<circle cx='336.23' cy='56.86' r='2.13' style='stroke-width: 0.00; stroke: #444444; stroke-opacity: 0.10; fill: #444444; fill-opacity: 0.10;' clip-path='url(#cpMjQ2LjcxfDM1MS4wM3w4NS4yMnwyMS45OQ==)' />
<circle cx='256.16' cy='58.33' r='2.13' style='stroke-width: 0.00; stroke: #444444; stroke-opacity: 0.10; fill: #444444; fill-opacity: 0.10;' clip-path='url(#cpMjQ2LjcxfDM1MS4wM3w4NS4yMnwyMS45OQ==)' />
<circle cx='326.53' cy='51.10' r='2.13' style='stroke-width: 0.00; stroke: #444444; stroke-opacity: 0.10; fill: #444444; fill-opacity: 0.10;' clip-path='url(#cpMjQ2LjcxfDM1MS4wM3w4NS4yMnwyMS45OQ==)' />
<circle cx='301.75' cy='56.37' r='2.13' style='stroke-width: 0.00; stroke: #444444; stroke-opacity: 0.10; fill: #444444; fill-opacity: 0.10;' clip-path='url(#cpMjQ2LjcxfDM1MS4wM3w4NS4yMnwyMS45OQ==)' />
<circle cx='311.34' cy='48.36' r='2.13' style='stroke-width: 0.00; stroke: #444444; stroke-opacity: 0.10; fill: #444444; fill-opacity: 0.10;' clip-path='url(#cpMjQ2LjcxfDM1MS4wM3w4NS4yMnwyMS45OQ==)' />
<circle cx='298.50' cy='53.84' r='2.13' style='stroke-width: 0.00; stroke: #444444; stroke-opacity: 0.10; fill: #444444; fill-opacity: 0.10;' clip-path='url(#cpMjQ2LjcxfDM1MS4wM3w4NS4yMnwyMS45OQ==)' />
<circle cx='335.46' cy='57.91' r='2.13' style='stroke-width: 0.00; stroke: #444444; stroke-opacity: 0.10; fill: #444444; fill-opacity: 0.10;' clip-path='url(#cpMjQ2LjcxfDM1MS4wM3w4NS4yMnwyMS45OQ==)' />
<circle cx='317.10' cy='54.72' r='2.13' style='stroke-width: 0.00; stroke: #444444; stroke-opacity: 0.10; fill: #444444; fill-opacity: 0.10;' clip-path='url(#cpMjQ2LjcxfDM1MS4wM3w4NS4yMnwyMS45OQ==)' />
<circle cx='307.48' cy='48.78' r='2.13' style='stroke-width: 0.00; stroke: #444444; stroke-opacity: 0.10; fill: #444444; fill-opacity: 0.10;' clip-path='url(#cpMjQ2LjcxfDM1MS4wM3w4NS4yMnwyMS45OQ==)' />
<circle cx='292.65' cy='59.77' r='2.13' style='stroke-width: 0.00; stroke: #444444; stroke-opacity: 0.10; fill: #444444; fill-opacity: 0.10;' clip-path='url(#cpMjQ2LjcxfDM1MS4wM3w4NS4yMnwyMS45OQ==)' />
<circle cx='316.26' cy='55.07' r='2.13' style='stroke-width: 0.00; stroke: #444444; stroke-opacity: 0.10; fill: #444444; fill-opacity: 0.10;' clip-path='url(#cpMjQ2LjcxfDM1MS4wM3w4NS4yMnwyMS45OQ==)' />
<circle cx='320.40' cy='48.86' r='2.13' style='stroke-width: 0.00; stroke: #444444; stroke-opacity: 0.10; fill: #444444; fill-opacity: 0.10;' clip-path='url(#cpMjQ2LjcxfDM1MS4wM3w4NS4yMnwyMS45OQ==)' />
<circle cx='295.53' cy='48.94' r='2.13' style='stroke-width: 0.00; stroke: #444444; stroke-opacity: 0.10; fill: #444444; fill-opacity: 0.10;' clip-path='url(#cpMjQ2LjcxfDM1MS4wM3w4NS4yMnwyMS45OQ==)' />
<circle cx='304.37' cy='48.24' r='2.13' style='stroke-width: 0.00; stroke: #444444; stroke-opacity: 0.10; fill: #444444; fill-opacity: 0.10;' clip-path='url(#cpMjQ2LjcxfDM1MS4wM3w4NS4yMnwyMS45OQ==)' />
<circle cx='313.28' cy='51.58' r='2.13' style='stroke-width: 0.00; stroke: #444444; stroke-opacity: 0.10; fill: #444444; fill-opacity: 0.10;' clip-path='url(#cpMjQ2LjcxfDM1MS4wM3w4NS4yMnwyMS45OQ==)' />
<circle cx='319.20' cy='55.70' r='2.13' style='stroke-width: 0.00; stroke: #444444; stroke-opacity: 0.10; fill: #444444; fill-opacity: 0.10;' clip-path='url(#cpMjQ2LjcxfDM1MS4wM3w4NS4yMnwyMS45OQ==)' />
<circle cx='324.53' cy='24.98' r='2.13' style='stroke-width: 0.00; stroke: #444444; stroke-opacity: 0.10; fill: #444444; fill-opacity: 0.10;' clip-path='url(#cpMjQ2LjcxfDM1MS4wM3w4NS4yMnwyMS45OQ==)' />
<circle cx='341.23' cy='27.51' r='2.13' style='stroke-width: 0.00; stroke: #444444; stroke-opacity: 0.10; fill: #444444; fill-opacity: 0.10;' clip-path='url(#cpMjQ2LjcxfDM1MS4wM3w4NS4yMnwyMS45OQ==)' />
<circle cx='332.91' cy='29.36' r='2.13' style='stroke-width: 0.00; stroke: #444444; stroke-opacity: 0.10; fill: #444444; fill-opacity: 0.10;' clip-path='url(#cpMjQ2LjcxfDM1MS4wM3w4NS4yMnwyMS45OQ==)' />
<circle cx='339.48' cy='26.32' r='2.13' style='stroke-width: 0.00; stroke: #444444; stroke-opacity: 0.10; fill: #444444; fill-opacity: 0.10;' clip-path='url(#cpMjQ2LjcxfDM1MS4wM3w4NS4yMnwyMS45OQ==)' />
<circle cx='341.98' cy='29.39' r='2.13' style='stroke-width: 0.00; stroke: #444444; stroke-opacity: 0.10; fill: #444444; fill-opacity: 0.10;' clip-path='url(#cpMjQ2LjcxfDM1MS4wM3w4NS4yMnwyMS45OQ==)' />
<circle cx='338.17' cy='36.58' r='2.13' style='stroke-width: 0.00; stroke: #444444; stroke-opacity: 0.10; fill: #444444; fill-opacity: 0.10;' clip-path='url(#cpMjQ2LjcxfDM1MS4wM3w4NS4yMnwyMS45OQ==)' />
<circle cx='331.39' cy='28.33' r='2.13' style='stroke-width: 0.00; stroke: #444444; stroke-opacity: 0.10; fill: #444444; fill-opacity: 0.10;' clip-path='url(#cpMjQ2LjcxfDM1MS4wM3w4NS4yMnwyMS45OQ==)' />
<circle cx='327.79' cy='24.86' r='2.13' style='stroke-width: 0.00; stroke: #444444; stroke-opacity: 0.10; fill: #444444; fill-opacity: 0.10;' clip-path='url(#cpMjQ2LjcxfDM1MS4wM3w4NS4yMnwyMS45OQ==)' />
<circle cx='339.97' cy='31.04' r='2.13' style='stroke-width: 0.00; stroke: #444444; stroke-opacity: 0.10; fill: #444444; fill-opacity: 0.10;' clip-path='url(#cpMjQ2LjcxfDM1MS4wM3w4NS4yMnwyMS45OQ==)' />
<circle cx='319.35' cy='25.88' r='2.13' style='stroke-width: 0.00; stroke: #444444; stroke-opacity: 0.10; fill: #444444; fill-opacity: 0.10;' clip-path='url(#cpMjQ2LjcxfDM1MS4wM3w4NS4yMnwyMS45OQ==)' />
<circle cx='337.98' cy='29.53' r='2.13' style='stroke-width: 0.00; stroke: #444444; stroke-opacity: 0.10; fill: #444444; fill-opacity: 0.10;' clip-path='url(#cpMjQ2LjcxfDM1MS4wM3w4NS4yMnwyMS45OQ==)' />
<circle cx='341.47' cy='33.42' r='2.13' style='stroke-width: 0.00; stroke: #444444; stroke-opacity: 0.10; fill: #444444; fill-opacity: 0.10;' clip-path='url(#cpMjQ2LjcxfDM1MS4wM3w4NS4yMnwyMS45OQ==)' />
<circle cx='339.01' cy='37.76' r='2.13' style='stroke-width: 0.00; stroke: #444444; stroke-opacity: 0.10; fill: #444444; fill-opacity: 0.10;' clip-path='url(#cpMjQ2LjcxfDM1MS4wM3w4NS4yMnwyMS45OQ==)' />
<circle cx='338.28' cy='32.58' r='2.13' style='stroke-width: 0.00; stroke: #444444; stroke-opacity: 0.10; fill: #444444; fill-opacity: 0.10;' clip-path='url(#cpMjQ2LjcxfDM1MS4wM3w4NS4yMnwyMS45OQ==)' />
<circle cx='340.22' cy='27.75' r='2.13' style='stroke-width: 0.00; stroke: #444444; stroke-opacity: 0.10; fill: #444444; fill-opacity: 0.10;' clip-path='url(#cpMjQ2LjcxfDM1MS4wM3w4NS4yMnwyMS45OQ==)' />
<circle cx='326.95' cy='37.85' r='2.13' style='stroke-width: 0.00; stroke: #444444; stroke-opacity: 0.10; fill: #444444; fill-opacity: 0.10;' clip-path='url(#cpMjQ2LjcxfDM1MS4wM3w4NS4yMnwyMS45OQ==)' />
<circle cx='327.79' cy='36.88' r='2.13' style='stroke-width: 0.00; stroke: #444444; stroke-opacity: 0.10; fill: #444444; fill-opacity: 0.10;' clip-path='url(#cpMjQ2LjcxfDM1MS4wM3w4NS4yMnwyMS45OQ==)' />
<circle cx='340.14' cy='34.23' r='2.13' style='stroke-width: 0.00; stroke: #444444; stroke-opacity: 0.10; fill: #444444; fill-opacity: 0.10;' clip-path='url(#cpMjQ2LjcxfDM1MS4wM3w4NS4yMnwyMS45OQ==)' />
<circle cx='339.74' cy='36.08' r='2.13' style='stroke-width: 0.00; stroke: #444444; stroke-opacity: 0.10; fill: #444444; fill-opacity: 0.10;' clip-path='url(#cpMjQ2LjcxfDM1MS4wM3w4NS4yMnwyMS45OQ==)' />
<circle cx='336.21' cy='35.09' r='2.13' style='stroke-width: 0.00; stroke: #444444; stroke-opacity: 0.10; fill: #444444; fill-opacity: 0.10;' clip-path='url(#cpMjQ2LjcxfDM1MS4wM3w4NS4yMnwyMS45OQ==)' />
<polygon points='298.93,75.92 322.61,79.27 346.29,75.92 322.61,72.58 298.93,75.92 ' style='stroke-width: 1.07; stroke: #4A2254; fill: #4A2254;' clip-path='url(#cpMjQ2LjcxfDM1MS4wM3w4NS4yMnwyMS45OQ==)' />
<polygon points='291.26,53.62 314.42,56.97 337.59,53.62 314.42,50.28 291.26,53.62 ' style='stroke-width: 1.07; stroke: #4E3254; fill: #4E3254;' clip-path='url(#cpMjQ2LjcxfDM1MS4wM3w4NS4yMnwyMS45OQ==)' />
<polygon points='328.98,31.33 335.36,34.67 341.74,31.33 335.36,27.98 328.98,31.33 ' style='stroke-width: 1.07; stroke: #450954; fill: #450954;' clip-path='url(#cpMjQ2LjcxfDM1MS4wM3w4NS4yMnwyMS45OQ==)' />
<rect x='246.71' y='21.99' width='104.32' height='63.23' style='stroke-width: 0.78; stroke: #333333;' clip-path='url(#cpMjQ2LjcxfDM1MS4wM3w4NS4yMnwyMS45OQ==)' />
<defs>
  <clipPath id='cpMC4wMHw1MTAuMjR8MTA3LjcyfDAuMDA='>
    <rect x='0.00' y='0.00' width='510.24' height='107.72' />
  </clipPath>
</defs>
<g clip-path='url(#cpMC4wMHw1MTAuMjR8MTA3LjcyfDAuMDA=)'><text x='187.62' y='78.22' style='font-size: 6.40px; fill: #4D4D4D; font-family: Arial;' textLength='55.50px' lengthAdjust='spacingAndGlyphs'>strongly disapprove</text></g>
<g clip-path='url(#cpMC4wMHw1MTAuMjR8MTA3LjcyfDAuMDA=)'><text x='187.62' y='55.92' style='font-size: 6.40px; fill: #4D4D4D; font-family: Arial;' textLength='55.50px' lengthAdjust='spacingAndGlyphs'>strongly disapprove</text></g>
<g clip-path='url(#cpMC4wMHw1MTAuMjR8MTA3LjcyfDAuMDA=)'><text x='187.62' y='33.62' style='font-size: 6.40px; fill: #4D4D4D; font-family: Arial;' textLength='55.50px' lengthAdjust='spacingAndGlyphs'>strongly disapprove</text></g>
<polyline points='244.71,75.92 246.71,75.92 ' style='stroke-width: 0.78; stroke: #333333; stroke-linecap: butt;' clip-path='url(#cpMC4wMHw1MTAuMjR8MTA3LjcyfDAuMDA=)' />
<polyline points='244.71,53.62 246.71,53.62 ' style='stroke-width: 0.78; stroke: #333333; stroke-linecap: butt;' clip-path='url(#cpMC4wMHw1MTAuMjR8MTA3LjcyfDAuMDA=)' />
<polyline points='244.71,31.33 246.71,31.33 ' style='stroke-width: 0.78; stroke: #333333; stroke-linecap: butt;' clip-path='url(#cpMC4wMHw1MTAuMjR8MTA3LjcyfDAuMDA=)' />
<polyline points='351.03,75.91 353.02,75.91 ' style='stroke-width: 0.78; stroke: #333333; stroke-linecap: butt;' clip-path='url(#cpMC4wMHw1MTAuMjR8MTA3LjcyfDAuMDA=)' />
<polyline points='351.03,53.63 353.02,53.63 ' style='stroke-width: 0.78; stroke: #333333; stroke-linecap: butt;' clip-path='url(#cpMC4wMHw1MTAuMjR8MTA3LjcyfDAuMDA=)' />
<polyline points='351.03,31.35 353.02,31.35 ' style='stroke-width: 0.78; stroke: #333333; stroke-linecap: butt;' clip-path='url(#cpMC4wMHw1MTAuMjR8MTA3LjcyfDAuMDA=)' />
<g clip-path='url(#cpMC4wMHw1MTAuMjR8MTA3LjcyfDAuMDA=)'><text x='354.61' y='78.21' style='font-size: 6.40px; fill: #4D4D4D; font-family: Arial;' textLength='47.32px' lengthAdjust='spacingAndGlyphs'>strongly approve</text></g>
<g clip-path='url(#cpMC4wMHw1MTAuMjR8MTA3LjcyfDAuMDA=)'><text x='354.61' y='55.92' style='font-size: 6.40px; fill: #4D4D4D; font-family: Arial;' textLength='47.32px' lengthAdjust='spacingAndGlyphs'>strongly approve</text></g>
<g clip-path='url(#cpMC4wMHw1MTAuMjR8MTA3LjcyfDAuMDA=)'><text x='354.61' y='33.64' style='font-size: 6.40px; fill: #4D4D4D; font-family: Arial;' textLength='47.32px' lengthAdjust='spacingAndGlyphs'>strongly approve</text></g>
<polyline points='254.29,87.21 254.29,85.22 ' style='stroke-width: 0.78; stroke: #333333; stroke-linecap: butt;' clip-path='url(#cpMC4wMHw1MTAuMjR8MTA3LjcyfDAuMDA=)' />
<polyline points='262.78,87.21 262.78,85.22 ' style='stroke-width: 0.78; stroke: #333333; stroke-linecap: butt;' clip-path='url(#cpMC4wMHw1MTAuMjR8MTA3LjcyfDAuMDA=)' />
<polyline points='271.27,87.21 271.27,85.22 ' style='stroke-width: 0.78; stroke: #333333; stroke-linecap: butt;' clip-path='url(#cpMC4wMHw1MTAuMjR8MTA3LjcyfDAuMDA=)' />
<polyline points='279.76,87.21 279.76,85.22 ' style='stroke-width: 0.78; stroke: #333333; stroke-linecap: butt;' clip-path='url(#cpMC4wMHw1MTAuMjR8MTA3LjcyfDAuMDA=)' />
<polyline points='288.25,87.21 288.25,85.22 ' style='stroke-width: 0.78; stroke: #333333; stroke-linecap: butt;' clip-path='url(#cpMC4wMHw1MTAuMjR8MTA3LjcyfDAuMDA=)' />
<polyline points='296.74,87.21 296.74,85.22 ' style='stroke-width: 0.78; stroke: #333333; stroke-linecap: butt;' clip-path='url(#cpMC4wMHw1MTAuMjR8MTA3LjcyfDAuMDA=)' />
<polyline points='305.23,87.21 305.23,85.22 ' style='stroke-width: 0.78; stroke: #333333; stroke-linecap: butt;' clip-path='url(#cpMC4wMHw1MTAuMjR8MTA3LjcyfDAuMDA=)' />
<polyline points='313.71,87.21 313.71,85.22 ' style='stroke-width: 0.78; stroke: #333333; stroke-linecap: butt;' clip-path='url(#cpMC4wMHw1MTAuMjR8MTA3LjcyfDAuMDA=)' />
<polyline points='322.20,87.21 322.20,85.22 ' style='stroke-width: 0.78; stroke: #333333; stroke-linecap: butt;' clip-path='url(#cpMC4wMHw1MTAuMjR8MTA3LjcyfDAuMDA=)' />
<polyline points='330.69,87.21 330.69,85.22 ' style='stroke-width: 0.78; stroke: #333333; stroke-linecap: butt;' clip-path='url(#cpMC4wMHw1MTAuMjR8MTA3LjcyfDAuMDA=)' />
<polyline points='339.18,87.21 339.18,85.22 ' style='stroke-width: 0.78; stroke: #333333; stroke-linecap: butt;' clip-path='url(#cpMC4wMHw1MTAuMjR8MTA3LjcyfDAuMDA=)' />
<g clip-path='url(#cpMC4wMHw1MTAuMjR8MTA3LjcyfDAuMDA=)'><text x='251.44' y='93.39' style='font-size: 6.40px; fill: #4D4D4D; font-family: Arial;' textLength='5.69px' lengthAdjust='spacingAndGlyphs'>-5</text></g>
<g clip-path='url(#cpMC4wMHw1MTAuMjR8MTA3LjcyfDAuMDA=)'><text x='259.93' y='93.39' style='font-size: 6.40px; fill: #4D4D4D; font-family: Arial;' textLength='5.69px' lengthAdjust='spacingAndGlyphs'>-4</text></g>
<g clip-path='url(#cpMC4wMHw1MTAuMjR8MTA3LjcyfDAuMDA=)'><text x='268.42' y='93.39' style='font-size: 6.40px; fill: #4D4D4D; font-family: Arial;' textLength='5.69px' lengthAdjust='spacingAndGlyphs'>-3</text></g>
<g clip-path='url(#cpMC4wMHw1MTAuMjR8MTA3LjcyfDAuMDA=)'><text x='276.91' y='93.39' style='font-size: 6.40px; fill: #4D4D4D; font-family: Arial;' textLength='5.69px' lengthAdjust='spacingAndGlyphs'>-2</text></g>
<g clip-path='url(#cpMC4wMHw1MTAuMjR8MTA3LjcyfDAuMDA=)'><text x='285.40' y='93.39' style='font-size: 6.40px; fill: #4D4D4D; font-family: Arial;' textLength='5.69px' lengthAdjust='spacingAndGlyphs'>-1</text></g>
<g clip-path='url(#cpMC4wMHw1MTAuMjR8MTA3LjcyfDAuMDA=)'><text x='294.96' y='93.39' style='font-size: 6.40px; fill: #4D4D4D; font-family: Arial;' textLength='3.56px' lengthAdjust='spacingAndGlyphs'>0</text></g>
<g clip-path='url(#cpMC4wMHw1MTAuMjR8MTA3LjcyfDAuMDA=)'><text x='303.45' y='93.39' style='font-size: 6.40px; fill: #4D4D4D; font-family: Arial;' textLength='3.56px' lengthAdjust='spacingAndGlyphs'>1</text></g>
<g clip-path='url(#cpMC4wMHw1MTAuMjR8MTA3LjcyfDAuMDA=)'><text x='311.94' y='93.39' style='font-size: 6.40px; fill: #4D4D4D; font-family: Arial;' textLength='3.56px' lengthAdjust='spacingAndGlyphs'>2</text></g>
<g clip-path='url(#cpMC4wMHw1MTAuMjR8MTA3LjcyfDAuMDA=)'><text x='320.42' y='93.39' style='font-size: 6.40px; fill: #4D4D4D; font-family: Arial;' textLength='3.56px' lengthAdjust='spacingAndGlyphs'>3</text></g>
<g clip-path='url(#cpMC4wMHw1MTAuMjR8MTA3LjcyfDAuMDA=)'><text x='328.91' y='93.39' style='font-size: 6.40px; fill: #4D4D4D; font-family: Arial;' textLength='3.56px' lengthAdjust='spacingAndGlyphs'>4</text></g>
<g clip-path='url(#cpMC4wMHw1MTAuMjR8MTA3LjcyfDAuMDA=)'><text x='337.40' y='93.39' style='font-size: 6.40px; fill: #4D4D4D; font-family: Arial;' textLength='3.56px' lengthAdjust='spacingAndGlyphs'>5</text></g>
<g clip-path='url(#cpMC4wMHw1MTAuMjR8MTA3LjcyfDAuMDA=)'><text x='256.84' y='102.23' style='font-size: 8.00px; font-family: Arial;' textLength='84.05px' lengthAdjust='spacingAndGlyphs'>Scores and 99.99% CIs</text></g>
<defs>
  <clipPath id='cpMC4wMHwxODMuNjR8ODUuMjJ8MjEuOTk='>
    <rect x='0.000000000000050' y='21.99' width='183.64' height='63.23' />
  </clipPath>
</defs>
<defs>
  <clipPath id='cpMC4wMHw1MTAuMjR8MTA3LjcyfDAuMDA='>
    <rect x='0.00' y='0.00' width='510.24' height='107.72' />
  </clipPath>
</defs>
<g clip-path='url(#cpMC4wMHw1MTAuMjR8MTA3LjcyfDAuMDA=)'><text x='3.59' y='70.20' style='font-size: 8.00px; font-family: Arial;' textLength='180.04px' lengthAdjust='spacingAndGlyphs'>NrmInApFamily * NrmInMcFamily [If I were to keep</text></g>
<g clip-path='url(#cpMC4wMHw1MTAuMjR8MTA3LjcyfDAuMDA=)'><text x='3.59' y='78.84' style='font-size: 8.00px; font-family: Arial;' textLength='149.84px' lengthAdjust='spacingAndGlyphs'>at least {distRec} distance from others, my</text></g>
<g clip-path='url(#cpMC4wMHw1MTAuMjR8MTA3LjcyfDAuMDA=)'><text x='3.59' y='87.48' style='font-size: 8.00px; font-family: Arial;' textLength='55.13px' lengthAdjust='spacingAndGlyphs'>family would ...]</text></g>
<g clip-path='url(#cpMC4wMHw1MTAuMjR8MTA3LjcyfDAuMDA=)'><text x='3.59' y='47.86' style='font-size: 8.00px; font-family: Arial;' textLength='170.28px' lengthAdjust='spacingAndGlyphs'>NrmInApGeneral * NrmInMcGeneral [If I were to</text></g>
<g clip-path='url(#cpMC4wMHw1MTAuMjR8MTA3LjcyfDAuMDA=)'><text x='3.59' y='56.50' style='font-size: 8.00px; font-family: Arial;' textLength='156.53px' lengthAdjust='spacingAndGlyphs'>keep at least {distRec} distance from others,</text></g>
<g clip-path='url(#cpMC4wMHw1MTAuMjR8MTA3LjcyfDAuMDA=)'><text x='3.59' y='65.14' style='font-size: 8.00px; font-family: Arial;' textLength='95.62px' lengthAdjust='spacingAndGlyphs'>people in general would ...]</text></g>
<g clip-path='url(#cpMC4wMHw1MTAuMjR8MTA3LjcyfDAuMDA=)'><text x='3.59' y='25.58' style='font-size: 8.00px; font-family: Arial;' textLength='180.05px' lengthAdjust='spacingAndGlyphs'>NrmInApDoctor * NrmInMcDoctor [If I were to keep</text></g>
<g clip-path='url(#cpMC4wMHw1MTAuMjR8MTA3LjcyfDAuMDA=)'><text x='3.59' y='34.22' style='font-size: 8.00px; font-family: Arial;' textLength='149.84px' lengthAdjust='spacingAndGlyphs'>at least {distRec} distance from others, my</text></g>
<g clip-path='url(#cpMC4wMHw1MTAuMjR8MTA3LjcyfDAuMDA=)'><text x='3.59' y='42.86' style='font-size: 8.00px; font-family: Arial;' textLength='56.47px' lengthAdjust='spacingAndGlyphs'>doctor would ...]</text></g>
<defs>
  <clipPath id='cpMC4wMHwxODMuNjR8ODUuMjJ8MjEuOTk='>
    <rect x='0.000000000000050' y='21.99' width='183.64' height='63.23' />
  </clipPath>
</defs>
<defs>
  <clipPath id='cpMC4wMHw1MTAuMjR8MTA3LjcyfDAuMDA='>
    <rect x='0.00' y='0.00' width='510.24' height='107.72' />
  </clipPath>
</defs>
<defs>
  <clipPath id='cpNDA1LjkxfDUxMC4yNHwxMDcuNzJ8MTguMDA='>
    <rect x='405.91' y='18.00' width='104.32' height='89.72' />
  </clipPath>
</defs>
<rect x='405.91' y='18.00' width='104.32' height='89.72' style='stroke-width: 0.78; stroke: #FFFFFF; fill: #FFFFFF;' clip-path='url(#cpNDA1LjkxfDUxMC4yNHwxMDcuNzJ8MTguMDA=)' />
<defs>
  <clipPath id='cpNDA5LjkwfDUwNi4yNXw4NS4yMnwyMS45OQ=='>
    <rect x='409.90' y='21.99' width='96.35' height='63.23' />
  </clipPath>
</defs>
<rect x='409.90' y='21.99' width='96.35' height='63.23' style='stroke-width: 0.78; stroke: none; fill: #FFFFFF;' clip-path='url(#cpNDA5LjkwfDUwNi4yNXw4NS4yMnwyMS45OQ==)' />
<polyline points='425.23,85.22 425.23,21.99 ' style='stroke-width: 0.39; stroke: #EBEBEB; stroke-linecap: butt;' clip-path='url(#cpNDA5LjkwfDUwNi4yNXw4NS4yMnwyMS45OQ==)' />
<polyline points='447.13,85.22 447.13,21.99 ' style='stroke-width: 0.39; stroke: #EBEBEB; stroke-linecap: butt;' clip-path='url(#cpNDA5LjkwfDUwNi4yNXw4NS4yMnwyMS45OQ==)' />
<polyline points='469.02,85.22 469.02,21.99 ' style='stroke-width: 0.39; stroke: #EBEBEB; stroke-linecap: butt;' clip-path='url(#cpNDA5LjkwfDUwNi4yNXw4NS4yMnwyMS45OQ==)' />
<polyline points='490.92,85.22 490.92,21.99 ' style='stroke-width: 0.39; stroke: #EBEBEB; stroke-linecap: butt;' clip-path='url(#cpNDA5LjkwfDUwNi4yNXw4NS4yMnwyMS45OQ==)' />
<polyline points='414.28,85.22 414.28,21.99 ' style='stroke-width: 0.78; stroke: #EBEBEB; stroke-linecap: butt;' clip-path='url(#cpNDA5LjkwfDUwNi4yNXw4NS4yMnwyMS45OQ==)' />
<polyline points='436.18,85.22 436.18,21.99 ' style='stroke-width: 0.78; stroke: #EBEBEB; stroke-linecap: butt;' clip-path='url(#cpNDA5LjkwfDUwNi4yNXw4NS4yMnwyMS45OQ==)' />
<polyline points='458.08,85.22 458.08,21.99 ' style='stroke-width: 0.78; stroke: #EBEBEB; stroke-linecap: butt;' clip-path='url(#cpNDA5LjkwfDUwNi4yNXw4NS4yMnwyMS45OQ==)' />
<polyline points='479.97,85.22 479.97,21.99 ' style='stroke-width: 0.78; stroke: #EBEBEB; stroke-linecap: butt;' clip-path='url(#cpNDA5LjkwfDUwNi4yNXw4NS4yMnwyMS45OQ==)' />
<polyline points='501.87,85.22 501.87,21.99 ' style='stroke-width: 0.78; stroke: #EBEBEB; stroke-linecap: butt;' clip-path='url(#cpNDA5LjkwfDUwNi4yNXw4NS4yMnwyMS45OQ==)' />
<line x1='436.18' y1='85.22' x2='436.18' y2='21.99' style='stroke-width: 1.07; stroke: #BEBEBE; stroke-linecap: butt;' clip-path='url(#cpNDA5LjkwfDUwNi4yNXw4NS4yMnwyMS45OQ==)' />
<line x1='458.08' y1='85.22' x2='458.08' y2='21.99' style='stroke-width: 1.07; stroke: #BEBEBE; stroke-linecap: butt;' clip-path='url(#cpNDA5LjkwfDUwNi4yNXw4NS4yMnwyMS45OQ==)' />
<line x1='479.97' y1='85.22' x2='479.97' y2='21.99' style='stroke-width: 1.07; stroke: #BEBEBE; stroke-linecap: butt;' clip-path='url(#cpNDA5LjkwfDUwNi4yNXw4NS4yMnwyMS45OQ==)' />
<polygon points='430.22,78.60 445.73,82.35 465.55,78.60 445.73,74.85 430.22,78.60 ' style='stroke-width: 2.13; fill: #466564; fill-opacity: 0.50;' clip-path='url(#cpNDA5LjkwfDUwNi4yNXw4NS4yMnwyMS45OQ==)' />
<polygon points='446.36,53.60 466.77,57.35 483.88,53.60 466.77,49.85 446.36,53.60 ' style='stroke-width: 2.13; fill: #514454; fill-opacity: 0.50;' clip-path='url(#cpNDA5LjkwfDUwNi4yNXw4NS4yMnwyMS45OQ==)' />
<polygon points='465.98,28.61 483.34,32.36 493.64,28.61 483.34,24.86 465.98,28.61 ' style='stroke-width: 2.13; fill: #4B2454; fill-opacity: 0.50;' clip-path='url(#cpNDA5LjkwfDUwNi4yNXw4NS4yMnwyMS45OQ==)' />
<rect x='409.90' y='21.99' width='96.35' height='63.23' style='stroke-width: 0.78; stroke: #333333;' clip-path='url(#cpNDA5LjkwfDUwNi4yNXw4NS4yMnwyMS45OQ==)' />
<defs>
  <clipPath id='cpNDA1LjkxfDUxMC4yNHwxMDcuNzJ8MTguMDA='>
    <rect x='405.91' y='18.00' width='104.32' height='89.72' />
  </clipPath>
</defs>
<defs>
  <clipPath id='cpMC4wMHw1MTAuMjR8MTA3LjcyfDAuMDA='>
    <rect x='0.00' y='0.00' width='510.24' height='107.72' />
  </clipPath>
</defs>
<defs>
  <clipPath id='cpNDA1LjkxfDUxMC4yNHwxMDcuNzJ8MTguMDA='>
    <rect x='405.91' y='18.00' width='104.32' height='89.72' />
  </clipPath>
</defs>
<defs>
  <clipPath id='cpMC4wMHw1MTAuMjR8MTA3LjcyfDAuMDA='>
    <rect x='0.00' y='0.00' width='510.24' height='107.72' />
  </clipPath>
</defs>
<defs>
  <clipPath id='cpNDA1LjkxfDUxMC4yNHwxMDcuNzJ8MTguMDA='>
    <rect x='405.91' y='18.00' width='104.32' height='89.72' />
  </clipPath>
</defs>
<defs>
  <clipPath id='cpMC4wMHw1MTAuMjR8MTA3LjcyfDAuMDA='>
    <rect x='0.00' y='0.00' width='510.24' height='107.72' />
  </clipPath>
</defs>
<defs>
  <clipPath id='cpNDA1LjkxfDUxMC4yNHwxMDcuNzJ8MTguMDA='>
    <rect x='405.91' y='18.00' width='104.32' height='89.72' />
  </clipPath>
</defs>
<defs>
  <clipPath id='cpMC4wMHw1MTAuMjR8MTA3LjcyfDAuMDA='>
    <rect x='0.00' y='0.00' width='510.24' height='107.72' />
  </clipPath>
</defs>
<defs>
  <clipPath id='cpNDA1LjkxfDUxMC4yNHwxMDcuNzJ8MTguMDA='>
    <rect x='405.91' y='18.00' width='104.32' height='89.72' />
  </clipPath>
</defs>
<defs>
  <clipPath id='cpMC4wMHw1MTAuMjR8MTA3LjcyfDAuMDA='>
    <rect x='0.00' y='0.00' width='510.24' height='107.72' />
  </clipPath>
</defs>
<defs>
  <clipPath id='cpNDA1LjkxfDUxMC4yNHwxMDcuNzJ8MTguMDA='>
    <rect x='405.91' y='18.00' width='104.32' height='89.72' />
  </clipPath>
</defs>
<defs>
  <clipPath id='cpMC4wMHw1MTAuMjR8MTA3LjcyfDAuMDA='>
    <rect x='0.00' y='0.00' width='510.24' height='107.72' />
  </clipPath>
</defs>
<defs>
  <clipPath id='cpNDA1LjkxfDUxMC4yNHwxMDcuNzJ8MTguMDA='>
    <rect x='405.91' y='18.00' width='104.32' height='89.72' />
  </clipPath>
</defs>
<defs>
  <clipPath id='cpMC4wMHw1MTAuMjR8MTA3LjcyfDAuMDA='>
    <rect x='0.00' y='0.00' width='510.24' height='107.72' />
  </clipPath>
</defs>
<defs>
  <clipPath id='cpNDA1LjkxfDUxMC4yNHwxMDcuNzJ8MTguMDA='>
    <rect x='405.91' y='18.00' width='104.32' height='89.72' />
  </clipPath>
</defs>
<defs>
  <clipPath id='cpMC4wMHw1MTAuMjR8MTA3LjcyfDAuMDA='>
    <rect x='0.00' y='0.00' width='510.24' height='107.72' />
  </clipPath>
</defs>
<polyline points='414.28,87.21 414.28,85.22 ' style='stroke-width: 0.78; stroke: #333333; stroke-linecap: butt;' clip-path='url(#cpMC4wMHw1MTAuMjR8MTA3LjcyfDAuMDA=)' />
<polyline points='436.18,87.21 436.18,85.22 ' style='stroke-width: 0.78; stroke: #333333; stroke-linecap: butt;' clip-path='url(#cpMC4wMHw1MTAuMjR8MTA3LjcyfDAuMDA=)' />
<polyline points='458.08,87.21 458.08,85.22 ' style='stroke-width: 0.78; stroke: #333333; stroke-linecap: butt;' clip-path='url(#cpMC4wMHw1MTAuMjR8MTA3LjcyfDAuMDA=)' />
<polyline points='479.97,87.21 479.97,85.22 ' style='stroke-width: 0.78; stroke: #333333; stroke-linecap: butt;' clip-path='url(#cpMC4wMHw1MTAuMjR8MTA3LjcyfDAuMDA=)' />
<polyline points='501.87,87.21 501.87,85.22 ' style='stroke-width: 0.78; stroke: #333333; stroke-linecap: butt;' clip-path='url(#cpMC4wMHw1MTAuMjR8MTA3LjcyfDAuMDA=)' />
<g clip-path='url(#cpMC4wMHw1MTAuMjR8MTA3LjcyfDAuMDA=)'><text x='408.77' y='93.39' style='font-size: 6.40px; fill: #4D4D4D; font-family: Arial;' textLength='11.03px' lengthAdjust='spacingAndGlyphs'>-1.0</text></g>
<g clip-path='url(#cpMC4wMHw1MTAuMjR8MTA3LjcyfDAuMDA=)'><text x='430.66' y='93.39' style='font-size: 6.40px; fill: #4D4D4D; font-family: Arial;' textLength='11.03px' lengthAdjust='spacingAndGlyphs'>-0.5</text></g>
<g clip-path='url(#cpMC4wMHw1MTAuMjR8MTA3LjcyfDAuMDA=)'><text x='453.63' y='93.39' style='font-size: 6.40px; fill: #4D4D4D; font-family: Arial;' textLength='8.90px' lengthAdjust='spacingAndGlyphs'>0.0</text></g>
<g clip-path='url(#cpMC4wMHw1MTAuMjR8MTA3LjcyfDAuMDA=)'><text x='475.53' y='93.39' style='font-size: 6.40px; fill: #4D4D4D; font-family: Arial;' textLength='8.90px' lengthAdjust='spacingAndGlyphs'>0.5</text></g>
<g clip-path='url(#cpMC4wMHw1MTAuMjR8MTA3LjcyfDAuMDA=)'><text x='497.42' y='93.39' style='font-size: 6.40px; fill: #4D4D4D; font-family: Arial;' textLength='8.90px' lengthAdjust='spacingAndGlyphs'>1.0</text></g>
<defs>
  <clipPath id='cpNDA1LjkxfDUxMC4yNHwxMDcuNzJ8MTguMDA='>
    <rect x='405.91' y='18.00' width='104.32' height='89.72' />
  </clipPath>
</defs>
<defs>
  <clipPath id='cpMC4wMHw1MTAuMjR8MTA3LjcyfDAuMDA='>
    <rect x='0.00' y='0.00' width='510.24' height='107.72' />
  </clipPath>
</defs>
<defs>
  <clipPath id='cpNDA1LjkxfDUxMC4yNHwxMDcuNzJ8MTguMDA='>
    <rect x='405.91' y='18.00' width='104.32' height='89.72' />
  </clipPath>
</defs>
<defs>
  <clipPath id='cpMC4wMHw1MTAuMjR8MTA3LjcyfDAuMDA='>
    <rect x='0.00' y='0.00' width='510.24' height='107.72' />
  </clipPath>
</defs>
<g clip-path='url(#cpMC4wMHw1MTAuMjR8MTA3LjcyfDAuMDA=)'><text x='415.39' y='102.23' style='font-size: 8.00px; font-family: Arial;' textLength='85.38px' lengthAdjust='spacingAndGlyphs'>95% CIs of associations</text></g>
<defs>
  <clipPath id='cpNDA1LjkxfDUxMC4yNHwxMDcuNzJ8MTguMDA='>
    <rect x='405.91' y='18.00' width='104.32' height='89.72' />
  </clipPath>
</defs>
<defs>
  <clipPath id='cpMC4wMHw1MTAuMjR8MTA3LjcyfDAuMDA='>
    <rect x='0.00' y='0.00' width='510.24' height='107.72' />
  </clipPath>
</defs>
<defs>
  <clipPath id='cpNDA1LjkxfDUxMC4yNHwxMDcuNzJ8MTguMDA='>
    <rect x='405.91' y='18.00' width='104.32' height='89.72' />
  </clipPath>
</defs>
<defs>
  <clipPath id='cpMC4wMHw1MTAuMjR8MTA3LjcyfDAuMDA='>
    <rect x='0.00' y='0.00' width='510.24' height='107.72' />
  </clipPath>
</defs>
<defs>
  <clipPath id='cpNDA1LjkxfDUxMC4yNHwxMDcuNzJ8MTguMDA='>
    <rect x='405.91' y='18.00' width='104.32' height='89.72' />
  </clipPath>
</defs>
<defs>
  <clipPath id='cpMC4wMHw1MTAuMjR8MTA3LjcyfDAuMDA='>
    <rect x='0.00' y='0.00' width='510.24' height='107.72' />
  </clipPath>
</defs>
<defs>
  <clipPath id='cpNDA1LjkxfDUxMC4yNHwxMDcuNzJ8MTguMDA='>
    <rect x='405.91' y='18.00' width='104.32' height='89.72' />
  </clipPath>
</defs>
<defs>
  <clipPath id='cpMC4wMHw1MTAuMjR8MTA3LjcyfDAuMDA='>
    <rect x='0.00' y='0.00' width='510.24' height='107.72' />
  </clipPath>
</defs>
<defs>
  <clipPath id='cpNDA1LjkxfDUxMC4yNHwxMDcuNzJ8MTguMDA='>
    <rect x='405.91' y='18.00' width='104.32' height='89.72' />
  </clipPath>
</defs>
<defs>
  <clipPath id='cpMC4wMHw1MTAuMjR8MTA3LjcyfDAuMDA='>
    <rect x='0.00' y='0.00' width='510.24' height='107.72' />
  </clipPath>
</defs>
<defs>
  <clipPath id='cpNDA1LjkxfDUxMC4yNHwxMDcuNzJ8MTguMDA='>
    <rect x='405.91' y='18.00' width='104.32' height='89.72' />
  </clipPath>
</defs>
<defs>
  <clipPath id='cpMC4wMHw1MTAuMjR8MTA3LjcyfDAuMDA='>
    <rect x='0.00' y='0.00' width='510.24' height='107.72' />
  </clipPath>
</defs>
<defs>
  <clipPath id='cpNDA1LjkxfDUxMC4yNHwxMDcuNzJ8MTguMDA='>
    <rect x='405.91' y='18.00' width='104.32' height='89.72' />
  </clipPath>
</defs>
<defs>
  <clipPath id='cpMC4wMHw1MTAuMjR8MTA3LjcyfDAuMDA='>
    <rect x='0.00' y='0.00' width='510.24' height='107.72' />
  </clipPath>
</defs>
<g clip-path='url(#cpMC4wMHw1MTAuMjR8MTA3LjcyfDAuMDA=)'><text x='2.30' y='8.78' style='font-size: 9.60px; font-weight: bold; font-family: Arial;' textLength='147.76px' lengthAdjust='spacingAndGlyphs'>Means and associations (r) with </text></g>
<g clip-path='url(#cpMC4wMHw1MTAuMjR8MTA3LjcyfDAuMDA=)'><text x='150.07' y='8.78' style='font-size: 9.60px; font-weight: bold; font-family: Arial;' textLength='43.21px' lengthAdjust='spacingAndGlyphs'>proximity</text></g>
<g clip-path='url(#cpMC4wMHw1MTAuMjR8MTA3LjcyfDAuMDA=)'><text x='193.28' y='8.78' style='font-size: 9.60px; font-weight: bold; font-family: Arial;' textLength='2.67px' lengthAdjust='spacingAndGlyphs'> </text></g>
</svg>
